Input image size : 1920 x 1440
grainRadius : 0.1
sigmaR : 0
sigmaFilter : 0.8
NmonteCarlo : 800
colour
xA : 0
yA : 0
xB : 1920
yB : 1440
mOut : 1440
nOut : 1920
randomizeSeed : 1
***************************
image size : 1920 x 1440
------------------
muR : 0.1
sigmaR : 0
zoom, s : 1
sigmaFilter : 0.8
NmonteCarlo : 800
xA : 0
yA : 0
xB : 1920
yB : 1440
randomizeSeed : 1
------------------
Output image size is 1920 x 1440
blocks.x : 69
blocks.y : 52
blocks.z : 1
Time to generate:  1461.2 ms; Framerate: 0.68 images/sec
image size : 1920 x 1440
------------------
muR : 0.1
sigmaR : 0
zoom, s : 1
sigmaFilter : 0.8
NmonteCarlo : 800
xA : 0
yA : 0
xB : 1920
yB : 1440
randomizeSeed : 1
------------------
Output image size is 1920 x 1440
blocks.x : 69
blocks.y : 52
blocks.z : 1
Time to generate:  1377.6 ms; Framerate: 0.73 images/sec
image size : 1920 x 1440
------------------
muR : 0.1
sigmaR : 0
zoom, s : 1
sigmaFilter : 0.8
NmonteCarlo : 800
xA : 0
yA : 0
xB : 1920
yB : 1440
randomizeSeed : 1
------------------
Output image size is 1920 x 1440
blocks.x : 69
blocks.y : 52
blocks.z : 1
Time to generate:  1367.4 ms; Framerate: 0.73 images/sec
output file name : 22.png
time elapsed : 6.95046
***************************


Input image size : 1920 x 1440
grainRadius : 0.1
sigmaR : 0
sigmaFilter : 0.8
NmonteCarlo : 800
colour
xA : 0
yA : 0
xB : 1920
yB : 1440
mOut : 1440
nOut : 1920
randomizeSeed : 1
***************************
image size : 1920 x 1440
------------------
muR : 0.1
sigmaR : 0
zoom, s : 1
sigmaFilter : 0.8
NmonteCarlo : 800
xA : 0
yA : 0
xB : 1920
yB : 1440
randomizeSeed : 1
------------------
Output image size is 1920 x 1440
blocks.x : 69
blocks.y : 52
blocks.z : 1
Time to generate:  6070.0 ms; Framerate: 0.16 images/sec
image size : 1920 x 1440
------------------
muR : 0.1
sigmaR : 0
zoom, s : 1
sigmaFilter : 0.8
NmonteCarlo : 800
xA : 0
yA : 0
xB : 1920
yB : 1440
randomizeSeed : 1
------------------
Output image size is 1920 x 1440
blocks.x : 69
blocks.y : 52
blocks.z : 1
Time to generate:  5765.2 ms; Framerate: 0.17 images/sec
image size : 1920 x 1440
------------------
muR : 0.1
sigmaR : 0
zoom, s : 1
sigmaFilter : 0.8
NmonteCarlo : 800
xA : 0
yA : 0
xB : 1920
yB : 1440
randomizeSeed : 1
------------------
Output image size is 1920 x 1440
blocks.x : 69
blocks.y : 52
blocks.z : 1
Time to generate:  5976.3 ms; Framerate: 0.17 images/sec
output file name : 22.png
time elapsed : 20.3859
***************************


Input image size : 1920 x 1440
grainRadius : 0.1
sigmaR : 0
sigmaFilter : 0.8
NmonteCarlo : 800
colour
xA : 0
yA : 0
xB : 1920
yB : 1440
mOut : 1440
nOut : 1920
randomizeSeed : 1
***************************
image size : 1920 x 1440
------------------
muR : 0.1
sigmaR : 0
zoom, s : 1
sigmaFilter : 0.8
NmonteCarlo : 800
xA : 0
yA : 0
xB : 1920
yB : 1440
randomizeSeed : 1
------------------
Output image size is 1920 x 1440
blocks.x : 69
blocks.y : 52
blocks.z : 1
Time to generate:  4753.0 ms; Framerate: 0.21 images/sec
image size : 1920 x 1440
------------------
muR : 0.1
sigmaR : 0
zoom, s : 1
sigmaFilter : 0.8
NmonteCarlo : 800
xA : 0
yA : 0
xB : 1920
yB : 1440
randomizeSeed : 1
------------------
Output image size is 1920 x 1440
blocks.x : 69
blocks.y : 52
blocks.z : 1
Time to generate:  5012.0 ms; Framerate: 0.20 images/sec
image size : 1920 x 1440
------------------
muR : 0.1
sigmaR : 0
zoom, s : 1
sigmaFilter : 0.8
NmonteCarlo : 800
xA : 0
yA : 0
xB : 1920
yB : 1440
randomizeSeed : 1
------------------
Output image size is 1920 x 1440
blocks.x : 69
blocks.y : 52
blocks.z : 1
Time to generate:  5798.5 ms; Framerate: 0.17 images/sec
output file name : 22.png
time elapsed : 18.1334
***************************


Input image size : 1920 x 1440
grainRadius : 0.1
sigmaR : 0
sigmaFilter : 0.8
NmonteCarlo : 800
colour
xA : 0
yA : 0
xB : 1920
yB : 1440
mOut : 1440
nOut : 1920
randomizeSeed : 1
***************************
image size : 1920 x 1440
------------------
muR : 0.1
sigmaR : 0
zoom, s : 1
sigmaFilter : 0.8
NmonteCarlo : 800
xA : 0
yA : 0
xB : 1920
yB : 1440
randomizeSeed : 1
------------------
Output image size is 1920 x 1440
blocks.x : 69
blocks.y : 52
blocks.z : 1
Time to generate:  6051.8 ms; Framerate: 0.17 images/sec
image size : 1920 x 1440
------------------
muR : 0.1
sigmaR : 0
zoom, s : 1
sigmaFilter : 0.8
NmonteCarlo : 800
xA : 0
yA : 0
xB : 1920
yB : 1440
randomizeSeed : 1
------------------
Output image size is 1920 x 1440
blocks.x : 69
blocks.y : 52
blocks.z : 1
Time to generate:  4297.7 ms; Framerate: 0.23 images/sec
image size : 1920 x 1440
------------------
muR : 0.1
sigmaR : 0
zoom, s : 1
sigmaFilter : 0.8
NmonteCarlo : 800
xA : 0
yA : 0
xB : 1920
yB : 1440
randomizeSeed : 1
------------------
Output image size is 1920 x 1440
blocks.x : 69
blocks.y : 52
blocks.z : 1
Time to generate:  3634.6 ms; Framerate: 0.28 images/sec
output file name : 22.png
time elapsed : 16.5246
***************************


Input image size : 1920 x 1440
grainRadius : 0.1
sigmaR : 0
sigmaFilter : 0.8
NmonteCarlo : 800
colour
xA : 0
yA : 0
xB : 1920
yB : 1440
mOut : 1440
nOut : 1920
randomizeSeed : 1
***************************
image size : 1920 x 1440
------------------
muR : 0.1
sigmaR : 0
zoom, s : 1
sigmaFilter : 0.8
NmonteCarlo : 800
xA : 0
yA : 0
xB : 1920
yB : 1440
randomizeSeed : 1
------------------
Output image size is 1920 x 1440
blocks.x : 69
blocks.y : 52
blocks.z : 1
Time to generate:  3220.6 ms; Framerate: 0.31 images/sec
image size : 1920 x 1440
------------------
muR : 0.1
sigmaR : 0
zoom, s : 1
sigmaFilter : 0.8
NmonteCarlo : 800
xA : 0
yA : 0
xB : 1920
yB : 1440
randomizeSeed : 1
------------------
Output image size is 1920 x 1440
blocks.x : 69
blocks.y : 52
blocks.z : 1
Time to generate:  6218.3 ms; Framerate: 0.16 images/sec
image size : 1920 x 1440
------------------
muR : 0.1
sigmaR : 0
zoom, s : 1
sigmaFilter : 0.8
NmonteCarlo : 800
xA : 0
yA : 0
xB : 1920
yB : 1440
randomizeSeed : 1
------------------
Output image size is 1920 x 1440
blocks.x : 69
blocks.y : 52
blocks.z : 1
Time to generate:  4598.4 ms; Framerate: 0.22 images/sec
output file name : 22.png
time elapsed : 17.8628
***************************


Input image size : 1920 x 1440
grainRadius : 0.1
sigmaR : 0
sigmaFilter : 0.8
NmonteCarlo : 800
colour
xA : 0
yA : 0
xB : 1920
yB : 1440
mOut : 1440
nOut : 1920
randomizeSeed : 1
***************************
image size : 1920 x 1440
------------------
muR : 0.1
sigmaR : 0
zoom, s : 1
sigmaFilter : 0.8
NmonteCarlo : 800
xA : 0
yA : 0
xB : 1920
yB : 1440
randomizeSeed : 1
------------------
Output image size is 1920 x 1440
blocks.x : 69
blocks.y : 52
blocks.z : 1
Time to generate:  9358.5 ms; Framerate: 0.11 images/sec
image size : 1920 x 1440
------------------
muR : 0.1
sigmaR : 0
zoom, s : 1
sigmaFilter : 0.8
NmonteCarlo : 800
xA : 0
yA : 0
xB : 1920
yB : 1440
randomizeSeed : 1
------------------
Output image size is 1920 x 1440
blocks.x : 69
blocks.y : 52
blocks.z : 1
Time to generate:  9052.0 ms; Framerate: 0.11 images/sec
image size : 1920 x 1440
------------------
muR : 0.1
sigmaR : 0
zoom, s : 1
sigmaFilter : 0.8
NmonteCarlo : 800
xA : 0
yA : 0
xB : 1920
yB : 1440
randomizeSeed : 1
------------------
Output image size is 1920 x 1440
blocks.x : 69
blocks.y : 52
blocks.z : 1
Time to generate:  10203.5 ms; Framerate: 0.10 images/sec
output file name : 22.png
time elapsed : 31.3372
***************************


Input image size : 1920 x 1440
grainRadius : 0.1
sigmaR : 0
sigmaFilter : 0.8
NmonteCarlo : 800
colour
xA : 0
yA : 0
xB : 1920
yB : 1440
mOut : 1440
nOut : 1920
randomizeSeed : 1
***************************
image size : 1920 x 1440
------------------
muR : 0.1
sigmaR : 0
zoom, s : 1
sigmaFilter : 0.8
NmonteCarlo : 800
xA : 0
yA : 0
xB : 1920
yB : 1440
randomizeSeed : 1
------------------
Output image size is 1920 x 1440
blocks.x : 69
blocks.y : 52
blocks.z : 1
Time to generate:  9365.0 ms; Framerate: 0.11 images/sec
image size : 1920 x 1440
------------------
muR : 0.1
sigmaR : 0
zoom, s : 1
sigmaFilter : 0.8
NmonteCarlo : 800
xA : 0
yA : 0
xB : 1920
yB : 1440
randomizeSeed : 1
------------------
Output image size is 1920 x 1440
blocks.x : 69
blocks.y : 52
blocks.z : 1
Time to generate:  10975.3 ms; Framerate: 0.09 images/sec
image size : 1920 x 1440
------------------
muR : 0.1
sigmaR : 0
zoom, s : 1
sigmaFilter : 0.8
NmonteCarlo : 800
xA : 0
yA : 0
xB : 1920
yB : 1440
randomizeSeed : 1
------------------
Output image size is 1920 x 1440
blocks.x : 69
blocks.y : 52
blocks.z : 1
Time to generate:  6170.6 ms; Framerate: 0.16 images/sec
output file name : 22.png
time elapsed : 29.6452
***************************


Input image size : 1920 x 1440
grainRadius : 0.1
sigmaR : 0
sigmaFilter : 0.8
NmonteCarlo : 800
colour
xA : 0
yA : 0
xB : 1920
yB : 1440
mOut : 1440
nOut : 1920
randomizeSeed : 1
***************************
image size : 1920 x 1440
------------------
muR : 0.1
sigmaR : 0
zoom, s : 1
sigmaFilter : 0.8
NmonteCarlo : 800
xA : 0
yA : 0
xB : 1920
yB : 1440
randomizeSeed : 1
------------------
Output image size is 1920 x 1440
blocks.x : 69
blocks.y : 52
blocks.z : 1
Time to generate:  6484.5 ms; Framerate: 0.15 images/sec
image size : 1920 x 1440
------------------
muR : 0.1
sigmaR : 0
zoom, s : 1
sigmaFilter : 0.8
NmonteCarlo : 800
xA : 0
yA : 0
xB : 1920
yB : 1440
randomizeSeed : 1
------------------
Output image size is 1920 x 1440
blocks.x : 69
blocks.y : 52
blocks.z : 1
Time to generate:  4170.4 ms; Framerate: 0.24 images/sec
image size : 1920 x 1440
------------------
muR : 0.1
sigmaR : 0
zoom, s : 1
sigmaFilter : 0.8
NmonteCarlo : 800
xA : 0
yA : 0
xB : 1920
yB : 1440
randomizeSeed : 1
------------------
Output image size is 1920 x 1440
blocks.x : 69
blocks.y : 52
blocks.z : 1
Time to generate:  2885.4 ms; Framerate: 0.35 images/sec
output file name : 22.png
time elapsed : 16.2052
***************************


Input image size : 1920 x 1440
grainRadius : 0.1
sigmaR : 0
sigmaFilter : 0.8
NmonteCarlo : 800
colour
xA : 0
yA : 0
xB : 1920
yB : 1440
mOut : 1440
nOut : 1920
randomizeSeed : 1
***************************
image size : 1920 x 1440
------------------
muR : 0.1
sigmaR : 0
zoom, s : 1
sigmaFilter : 0.8
NmonteCarlo : 800
xA : 0
yA : 0
xB : 1920
yB : 1440
randomizeSeed : 1
------------------
Output image size is 1920 x 1440
blocks.x : 69
blocks.y : 52
blocks.z : 1
Time to generate:  3079.4 ms; Framerate: 0.32 images/sec
image size : 1920 x 1440
------------------
muR : 0.1
sigmaR : 0
zoom, s : 1
sigmaFilter : 0.8
NmonteCarlo : 800
xA : 0
yA : 0
xB : 1920
yB : 1440
randomizeSeed : 1
------------------
Output image size is 1920 x 1440
blocks.x : 69
blocks.y : 52
blocks.z : 1
Time to generate:  2840.8 ms; Framerate: 0.35 images/sec
image size : 1920 x 1440
------------------
muR : 0.1
sigmaR : 0
zoom, s : 1
sigmaFilter : 0.8
NmonteCarlo : 800
xA : 0
yA : 0
xB : 1920
yB : 1440
randomizeSeed : 1
------------------
Output image size is 1920 x 1440
blocks.x : 69
blocks.y : 52
blocks.z : 1
Time to generate:  2945.8 ms; Framerate: 0.34 images/sec
output file name : 22.png
time elapsed : 11.3661
***************************


Input image size : 1920 x 1440
grainRadius : 0.1
sigmaR : 0
sigmaFilter : 0.8
NmonteCarlo : 800
colour
xA : 0
yA : 0
xB : 1920
yB : 1440
mOut : 1440
nOut : 1920
randomizeSeed : 1
***************************
image size : 1920 x 1440
------------------
muR : 0.1
sigmaR : 0
zoom, s : 1
sigmaFilter : 0.8
NmonteCarlo : 800
xA : 0
yA : 0
xB : 1920
yB : 1440
randomizeSeed : 1
------------------
Output image size is 1920 x 1440
blocks.x : 69
blocks.y : 52
blocks.z : 1
Time to generate:  7469.1 ms; Framerate: 0.13 images/sec
image size : 1920 x 1440
------------------
muR : 0.1
sigmaR : 0
zoom, s : 1
sigmaFilter : 0.8
NmonteCarlo : 800
xA : 0
yA : 0
xB : 1920
yB : 1440
randomizeSeed : 1
------------------
Output image size is 1920 x 1440
blocks.x : 69
blocks.y : 52
blocks.z : 1
Time to generate:  6770.8 ms; Framerate: 0.15 images/sec
image size : 1920 x 1440
------------------
muR : 0.1
sigmaR : 0
zoom, s : 1
sigmaFilter : 0.8
NmonteCarlo : 800
xA : 0
yA : 0
xB : 1920
yB : 1440
randomizeSeed : 1
------------------
Output image size is 1920 x 1440
blocks.x : 69
blocks.y : 52
blocks.z : 1
Time to generate:  10164.2 ms; Framerate: 0.10 images/sec
output file name : 22.png
time elapsed : 27.0524
***************************


Input image size : 1920 x 1440
grainRadius : 0.1
sigmaR : 0
sigmaFilter : 0.8
NmonteCarlo : 800
colour
xA : 0
yA : 0
xB : 1920
yB : 1440
mOut : 1440
nOut : 1920
randomizeSeed : 1
***************************
image size : 1920 x 1440
------------------
muR : 0.1
sigmaR : 0
zoom, s : 1
sigmaFilter : 0.8
NmonteCarlo : 800
xA : 0
yA : 0
xB : 1920
yB : 1440
randomizeSeed : 1
------------------
Output image size is 1920 x 1440
blocks.x : 69
blocks.y : 52
blocks.z : 1
Time to generate:  3154.5 ms; Framerate: 0.32 images/sec
image size : 1920 x 1440
------------------
muR : 0.1
sigmaR : 0
zoom, s : 1
sigmaFilter : 0.8
NmonteCarlo : 800
xA : 0
yA : 0
xB : 1920
yB : 1440
randomizeSeed : 1
------------------
Output image size is 1920 x 1440
blocks.x : 69
blocks.y : 52
blocks.z : 1
Time to generate:  2804.4 ms; Framerate: 0.36 images/sec
image size : 1920 x 1440
------------------
muR : 0.1
sigmaR : 0
zoom, s : 1
sigmaFilter : 0.8
NmonteCarlo : 800
xA : 0
yA : 0
xB : 1920
yB : 1440
randomizeSeed : 1
------------------
Output image size is 1920 x 1440
blocks.x : 69
blocks.y : 52
blocks.z : 1
Time to generate:  2904.5 ms; Framerate: 0.34 images/sec
output file name : 22.png
time elapsed : 11.4744
***************************


Input image size : 1920 x 1440
grainRadius : 0.1
sigmaR : 0
sigmaFilter : 0.8
NmonteCarlo : 800
colour
xA : 0
yA : 0
xB : 1920
yB : 1440
mOut : 1440
nOut : 1920
randomizeSeed : 1
***************************
image size : 1920 x 1440
------------------
muR : 0.1
sigmaR : 0
zoom, s : 1
sigmaFilter : 0.8
NmonteCarlo : 800
xA : 0
yA : 0
xB : 1920
yB : 1440
randomizeSeed : 1
------------------
Output image size is 1920 x 1440
blocks.x : 69
blocks.y : 52
blocks.z : 1
Time to generate:  3550.6 ms; Framerate: 0.28 images/sec
image size : 1920 x 1440
------------------
muR : 0.1
sigmaR : 0
zoom, s : 1
sigmaFilter : 0.8
NmonteCarlo : 800
xA : 0
yA : 0
xB : 1920
yB : 1440
randomizeSeed : 1
------------------
Output image size is 1920 x 1440
blocks.x : 69
blocks.y : 52
blocks.z : 1
Time to generate:  3487.2 ms; Framerate: 0.29 images/sec
image size : 1920 x 1440
------------------
muR : 0.1
sigmaR : 0
zoom, s : 1
sigmaFilter : 0.8
NmonteCarlo : 800
xA : 0
yA : 0
xB : 1920
yB : 1440
randomizeSeed : 1
------------------
Output image size is 1920 x 1440
blocks.x : 69
blocks.y : 52
blocks.z : 1
Time to generate:  3505.6 ms; Framerate: 0.29 images/sec
output file name : 22.png
time elapsed : 13.1521
***************************


Input image size : 1920 x 1440
grainRadius : 0.1
sigmaR : 0
sigmaFilter : 0.8
NmonteCarlo : 800
colour
xA : 0
yA : 0
xB : 1920
yB : 1440
mOut : 1440
nOut : 1920
randomizeSeed : 1
***************************
image size : 1920 x 1440
------------------
muR : 0.1
sigmaR : 0
zoom, s : 1
sigmaFilter : 0.8
NmonteCarlo : 800
xA : 0
yA : 0
xB : 1920
yB : 1440
randomizeSeed : 1
------------------
Output image size is 1920 x 1440
blocks.x : 69
blocks.y : 52
blocks.z : 1
Time to generate:  3673.6 ms; Framerate: 0.27 images/sec
image size : 1920 x 1440
------------------
muR : 0.1
sigmaR : 0
zoom, s : 1
sigmaFilter : 0.8
NmonteCarlo : 800
xA : 0
yA : 0
xB : 1920
yB : 1440
randomizeSeed : 1
------------------
Output image size is 1920 x 1440
blocks.x : 69
blocks.y : 52
blocks.z : 1
Time to generate:  3461.9 ms; Framerate: 0.29 images/sec
image size : 1920 x 1440
------------------
muR : 0.1
sigmaR : 0
zoom, s : 1
sigmaFilter : 0.8
NmonteCarlo : 800
xA : 0
yA : 0
xB : 1920
yB : 1440
randomizeSeed : 1
------------------
Output image size is 1920 x 1440
blocks.x : 69
blocks.y : 52
blocks.z : 1
Time to generate:  3610.9 ms; Framerate: 0.28 images/sec
output file name : 22.png
time elapsed : 13.4514
***************************


Input image size : 1920 x 1440
grainRadius : 0.1
sigmaR : 0
sigmaFilter : 0.8
NmonteCarlo : 800
colour
xA : 0
yA : 0
xB : 1920
yB : 1440
mOut : 1440
nOut : 1920
randomizeSeed : 1
***************************
image size : 1920 x 1440
------------------
muR : 0.1
sigmaR : 0
zoom, s : 1
sigmaFilter : 0.8
NmonteCarlo : 800
xA : 0
yA : 0
xB : 1920
yB : 1440
randomizeSeed : 1
------------------
Output image size is 1920 x 1440
blocks.x : 69
blocks.y : 52
blocks.z : 1
Time to generate:  1430.0 ms; Framerate: 0.70 images/sec
image size : 1920 x 1440
------------------
muR : 0.1
sigmaR : 0
zoom, s : 1
sigmaFilter : 0.8
NmonteCarlo : 800
xA : 0
yA : 0
xB : 1920
yB : 1440
randomizeSeed : 1
------------------
Output image size is 1920 x 1440
blocks.x : 69
blocks.y : 52
blocks.z : 1
Time to generate:  1373.8 ms; Framerate: 0.73 images/sec
image size : 1920 x 1440
------------------
muR : 0.1
sigmaR : 0
zoom, s : 1
sigmaFilter : 0.8
NmonteCarlo : 800
xA : 0
yA : 0
xB : 1920
yB : 1440
randomizeSeed : 1
------------------
Output image size is 1920 x 1440
blocks.x : 69
blocks.y : 52
blocks.z : 1
Time to generate:  1460.8 ms; Framerate: 0.68 images/sec
output file name : 22.png
time elapsed : 7.10907
***************************


Input image size : 1920 x 1440
grainRadius : 0.1
sigmaR : 0
sigmaFilter : 0.8
NmonteCarlo : 800
colour
xA : 0
yA : 0
xB : 1920
yB : 1440
mOut : 1440
nOut : 1920
randomizeSeed : 1
***************************
image size : 1920 x 1440
------------------
muR : 0.1
sigmaR : 0
zoom, s : 1
sigmaFilter : 0.8
NmonteCarlo : 800
xA : 0
yA : 0
xB : 1920
yB : 1440
randomizeSeed : 1
------------------
Output image size is 1920 x 1440
blocks.x : 69
blocks.y : 52
blocks.z : 1
Time to generate:  1398.6 ms; Framerate: 0.72 images/sec
image size : 1920 x 1440
------------------
muR : 0.1
sigmaR : 0
zoom, s : 1
sigmaFilter : 0.8
NmonteCarlo : 800
xA : 0
yA : 0
xB : 1920
yB : 1440
randomizeSeed : 1
------------------
Output image size is 1920 x 1440
blocks.x : 69
blocks.y : 52
blocks.z : 1
Time to generate:  1434.1 ms; Framerate: 0.70 images/sec
image size : 1920 x 1440
------------------
muR : 0.1
sigmaR : 0
zoom, s : 1
sigmaFilter : 0.8
NmonteCarlo : 800
xA : 0
yA : 0
xB : 1920
yB : 1440
randomizeSeed : 1
------------------
Output image size is 1920 x 1440
blocks.x : 69
blocks.y : 52
blocks.z : 1
Time to generate:  1345.4 ms; Framerate: 0.74 images/sec
output file name : 22.png
time elapsed : 6.94812
***************************


Input image size : 1920 x 1440
grainRadius : 0.1
sigmaR : 0
sigmaFilter : 0.8
NmonteCarlo : 800
colour
xA : 0
yA : 0
xB : 1920
yB : 1440
mOut : 1440
nOut : 1920
randomizeSeed : 1
***************************
image size : 1920 x 1440
------------------
muR : 0.1
sigmaR : 0
zoom, s : 1
sigmaFilter : 0.8
NmonteCarlo : 800
xA : 0
yA : 0
xB : 1920
yB : 1440
randomizeSeed : 1
------------------
Output image size is 1920 x 1440
blocks.x : 69
blocks.y : 52
blocks.z : 1
Time to generate:  5952.0 ms; Framerate: 0.17 images/sec
image size : 1920 x 1440
------------------
muR : 0.1
sigmaR : 0
zoom, s : 1
sigmaFilter : 0.8
NmonteCarlo : 800
xA : 0
yA : 0
xB : 1920
yB : 1440
randomizeSeed : 1
------------------
Output image size is 1920 x 1440
blocks.x : 69
blocks.y : 52
blocks.z : 1
Time to generate:  5456.5 ms; Framerate: 0.18 images/sec
image size : 1920 x 1440
------------------
muR : 0.1
sigmaR : 0
zoom, s : 1
sigmaFilter : 0.8
NmonteCarlo : 800
xA : 0
yA : 0
xB : 1920
yB : 1440
randomizeSeed : 1
------------------
Output image size is 1920 x 1440
blocks.x : 69
blocks.y : 52
blocks.z : 1
Time to generate:  5564.2 ms; Framerate: 0.18 images/sec
output file name : 22.png
time elapsed : 19.7514
***************************


Input image size : 1920 x 1440
grainRadius : 0.1
sigmaR : 0
sigmaFilter : 0.8
NmonteCarlo : 800
colour
xA : 0
yA : 0
xB : 1920
yB : 1440
mOut : 1440
nOut : 1920
randomizeSeed : 1
***************************
image size : 1920 x 1440
------------------
muR : 0.1
sigmaR : 0
zoom, s : 1
sigmaFilter : 0.8
NmonteCarlo : 800
xA : 0
yA : 0
xB : 1920
yB : 1440
randomizeSeed : 1
------------------
Output image size is 1920 x 1440
blocks.x : 69
blocks.y : 52
blocks.z : 1
Time to generate:  1393.5 ms; Framerate: 0.72 images/sec
image size : 1920 x 1440
------------------
muR : 0.1
sigmaR : 0
zoom, s : 1
sigmaFilter : 0.8
NmonteCarlo : 800
xA : 0
yA : 0
xB : 1920
yB : 1440
randomizeSeed : 1
------------------
Output image size is 1920 x 1440
blocks.x : 69
blocks.y : 52
blocks.z : 1
Time to generate:  1372.0 ms; Framerate: 0.73 images/sec
image size : 1920 x 1440
------------------
muR : 0.1
sigmaR : 0
zoom, s : 1
sigmaFilter : 0.8
NmonteCarlo : 800
xA : 0
yA : 0
xB : 1920
yB : 1440
randomizeSeed : 1
------------------
Output image size is 1920 x 1440
blocks.x : 69
blocks.y : 52
blocks.z : 1
Time to generate:  1342.9 ms; Framerate: 0.74 images/sec
output file name : 22.png
time elapsed : 6.9356
***************************


Input image size : 1920 x 1440
grainRadius : 0.1
sigmaR : 0
sigmaFilter : 0.8
NmonteCarlo : 800
colour
xA : 0
yA : 0
xB : 1920
yB : 1440
mOut : 1440
nOut : 1920
randomizeSeed : 1
***************************
image size : 1920 x 1440
------------------
muR : 0.1
sigmaR : 0
zoom, s : 1
sigmaFilter : 0.8
NmonteCarlo : 800
xA : 0
yA : 0
xB : 1920
yB : 1440
randomizeSeed : 1
------------------
Output image size is 1920 x 1440
blocks.x : 69
blocks.y : 52
blocks.z : 1
Time to generate:  1463.8 ms; Framerate: 0.68 images/sec
image size : 1920 x 1440
------------------
muR : 0.1
sigmaR : 0
zoom, s : 1
sigmaFilter : 0.8
NmonteCarlo : 800
xA : 0
yA : 0
xB : 1920
yB : 1440
randomizeSeed : 1
------------------
Output image size is 1920 x 1440
blocks.x : 69
blocks.y : 52
blocks.z : 1
Time to generate:  1346.6 ms; Framerate: 0.74 images/sec
image size : 1920 x 1440
------------------
muR : 0.1
sigmaR : 0
zoom, s : 1
sigmaFilter : 0.8
NmonteCarlo : 800
xA : 0
yA : 0
xB : 1920
yB : 1440
randomizeSeed : 1
------------------
Output image size is 1920 x 1440
blocks.x : 69
blocks.y : 52
blocks.z : 1
Time to generate:  1351.8 ms; Framerate: 0.74 images/sec
output file name : 22.png
time elapsed : 6.80596
***************************


Input image size : 1920 x 1440
grainRadius : 0.1
sigmaR : 0
sigmaFilter : 0.8
NmonteCarlo : 800
colour
xA : 0
yA : 0
xB : 1920
yB : 1440
mOut : 1440
nOut : 1920
randomizeSeed : 1
***************************
image size : 1920 x 1440
------------------
muR : 0.1
sigmaR : 0
zoom, s : 1
sigmaFilter : 0.8
NmonteCarlo : 800
xA : 0
yA : 0
xB : 1920
yB : 1440
randomizeSeed : 1
------------------
Output image size is 1920 x 1440
blocks.x : 69
blocks.y : 52
blocks.z : 1
Time to generate:  1389.1 ms; Framerate: 0.72 images/sec
image size : 1920 x 1440
------------------
muR : 0.1
sigmaR : 0
zoom, s : 1
sigmaFilter : 0.8
NmonteCarlo : 800
xA : 0
yA : 0
xB : 1920
yB : 1440
randomizeSeed : 1
------------------
Output image size is 1920 x 1440
blocks.x : 69
blocks.y : 52
blocks.z : 1
Time to generate:  1268.6 ms; Framerate: 0.79 images/sec
image size : 1920 x 1440
------------------
muR : 0.1
sigmaR : 0
zoom, s : 1
sigmaFilter : 0.8
NmonteCarlo : 800
xA : 0
yA : 0
xB : 1920
yB : 1440
randomizeSeed : 1
------------------
Output image size is 1920 x 1440
blocks.x : 69
blocks.y : 52
blocks.z : 1
Time to generate:  1318.5 ms; Framerate: 0.76 images/sec
output file name : 22.png
time elapsed : 6.109
***************************


Input image size : 1920 x 1440
grainRadius : 0.1
sigmaR : 0
sigmaFilter : 0.8
NmonteCarlo : 800
colour
xA : 0
yA : 0
xB : 1920
yB : 1440
mOut : 1440
nOut : 1920
randomizeSeed : 1
***************************
image size : 1920 x 1440
------------------
muR : 0.1
sigmaR : 0
zoom, s : 1
sigmaFilter : 0.8
NmonteCarlo : 800
xA : 0
yA : 0
xB : 1920
yB : 1440
randomizeSeed : 1
------------------
Output image size is 1920 x 1440
blocks.x : 69
blocks.y : 52
blocks.z : 1
Time to generate:  1392.1 ms; Framerate: 0.72 images/sec
image size : 1920 x 1440
------------------
muR : 0.1
sigmaR : 0
zoom, s : 1
sigmaFilter : 0.8
NmonteCarlo : 800
xA : 0
yA : 0
xB : 1920
yB : 1440
randomizeSeed : 1
------------------
Output image size is 1920 x 1440
blocks.x : 69
blocks.y : 52
blocks.z : 1
Time to generate:  1398.0 ms; Framerate: 0.72 images/sec
image size : 1920 x 1440
------------------
muR : 0.1
sigmaR : 0
zoom, s : 1
sigmaFilter : 0.8
NmonteCarlo : 800
xA : 0
yA : 0
xB : 1920
yB : 1440
randomizeSeed : 1
------------------
Output image size is 1920 x 1440
blocks.x : 69
blocks.y : 52
blocks.z : 1
Time to generate:  1370.8 ms; Framerate: 0.73 images/sec
output file name : 22.png
time elapsed : 6.99179
***************************


Input image size : 1920 x 1440
grainRadius : 0.1
sigmaR : 0
sigmaFilter : 0.8
NmonteCarlo : 800
colour
xA : 0
yA : 0
xB : 1920
yB : 1440
mOut : 1440
nOut : 1920
randomizeSeed : 1
***************************
image size : 1920 x 1440
------------------
muR : 0.1
sigmaR : 0
zoom, s : 1
sigmaFilter : 0.8
NmonteCarlo : 800
xA : 0
yA : 0
xB : 1920
yB : 1440
randomizeSeed : 1
------------------
Output image size is 1920 x 1440
blocks.x : 69
blocks.y : 52
blocks.z : 1
Time to generate:  1569.3 ms; Framerate: 0.64 images/sec
image size : 1920 x 1440
------------------
muR : 0.1
sigmaR : 0
zoom, s : 1
sigmaFilter : 0.8
NmonteCarlo : 800
xA : 0
yA : 0
xB : 1920
yB : 1440
randomizeSeed : 1
------------------
Output image size is 1920 x 1440
blocks.x : 69
blocks.y : 52
blocks.z : 1
Time to generate:  1381.9 ms; Framerate: 0.72 images/sec
image size : 1920 x 1440
------------------
muR : 0.1
sigmaR : 0
zoom, s : 1
sigmaFilter : 0.8
NmonteCarlo : 800
xA : 0
yA : 0
xB : 1920
yB : 1440
randomizeSeed : 1
------------------
Output image size is 1920 x 1440
blocks.x : 69
blocks.y : 52
blocks.z : 1
Time to generate:  1366.2 ms; Framerate: 0.73 images/sec
output file name : 22.png
time elapsed : 6.94176
***************************


Input image size : 1920 x 1440
grainRadius : 0.1
sigmaR : 0
sigmaFilter : 0.8
NmonteCarlo : 800
colour
xA : 0
yA : 0
xB : 1920
yB : 1440
mOut : 1440
nOut : 1920
randomizeSeed : 1
***************************
image size : 1920 x 1440
------------------
muR : 0.1
sigmaR : 0
zoom, s : 1
sigmaFilter : 0.8
NmonteCarlo : 800
xA : 0
yA : 0
xB : 1920
yB : 1440
randomizeSeed : 1
------------------
Output image size is 1920 x 1440
blocks.x : 69
blocks.y : 52
blocks.z : 1
Time to generate:  3001.7 ms; Framerate: 0.33 images/sec
image size : 1920 x 1440
------------------
muR : 0.1
sigmaR : 0
zoom, s : 1
sigmaFilter : 0.8
NmonteCarlo : 800
xA : 0
yA : 0
xB : 1920
yB : 1440
randomizeSeed : 1
------------------
Output image size is 1920 x 1440
blocks.x : 69
blocks.y : 52
blocks.z : 1
Time to generate:  3000.7 ms; Framerate: 0.33 images/sec
image size : 1920 x 1440
------------------
muR : 0.1
sigmaR : 0
zoom, s : 1
sigmaFilter : 0.8
NmonteCarlo : 800
xA : 0
yA : 0
xB : 1920
yB : 1440
randomizeSeed : 1
------------------
Output image size is 1920 x 1440
blocks.x : 69
blocks.y : 52
blocks.z : 1
Time to generate:  2805.4 ms; Framerate: 0.36 images/sec
output file name : 22.png
time elapsed : 11.791
***************************


Input image size : 1920 x 1440
grainRadius : 0.1
sigmaR : 0
sigmaFilter : 0.8
NmonteCarlo : 800
colour
xA : 0
yA : 0
xB : 1920
yB : 1440
mOut : 1440
nOut : 1920
randomizeSeed : 1
***************************
image size : 1920 x 1440
------------------
muR : 0.1
sigmaR : 0
zoom, s : 1
sigmaFilter : 0.8
NmonteCarlo : 800
xA : 0
yA : 0
xB : 1920
yB : 1440
randomizeSeed : 1
------------------
Output image size is 1920 x 1440
blocks.x : 69
blocks.y : 52
blocks.z : 1
Time to generate:  2998.9 ms; Framerate: 0.33 images/sec
image size : 1920 x 1440
------------------
muR : 0.1
sigmaR : 0
zoom, s : 1
sigmaFilter : 0.8
NmonteCarlo : 800
xA : 0
yA : 0
xB : 1920
yB : 1440
randomizeSeed : 1
------------------
Output image size is 1920 x 1440
blocks.x : 69
blocks.y : 52
blocks.z : 1
Time to generate:  2734.0 ms; Framerate: 0.37 images/sec
image size : 1920 x 1440
------------------
muR : 0.1
sigmaR : 0
zoom, s : 1
sigmaFilter : 0.8
NmonteCarlo : 800
xA : 0
yA : 0
xB : 1920
yB : 1440
randomizeSeed : 1
------------------
Output image size is 1920 x 1440
blocks.x : 69
blocks.y : 52
blocks.z : 1
Time to generate:  3076.9 ms; Framerate: 0.33 images/sec
output file name : 22.png
time elapsed : 12.2435
***************************


Input image size : 1920 x 1440
grainRadius : 0.1
sigmaR : 0
sigmaFilter : 0.8
NmonteCarlo : 800
colour
xA : 0
yA : 0
xB : 1920
yB : 1440
mOut : 1440
nOut : 1920
randomizeSeed : 1
***************************
image size : 1920 x 1440
------------------
muR : 0.1
sigmaR : 0
zoom, s : 1
sigmaFilter : 0.8
NmonteCarlo : 800
xA : 0
yA : 0
xB : 1920
yB : 1440
randomizeSeed : 1
------------------
Output image size is 1920 x 1440
blocks.x : 69
blocks.y : 52
blocks.z : 1
Time to generate:  3393.5 ms; Framerate: 0.29 images/sec
image size : 1920 x 1440
------------------
muR : 0.1
sigmaR : 0
zoom, s : 1
sigmaFilter : 0.8
NmonteCarlo : 800
xA : 0
yA : 0
xB : 1920
yB : 1440
randomizeSeed : 1
------------------
Output image size is 1920 x 1440
blocks.x : 69
blocks.y : 52
blocks.z : 1
Time to generate:  3152.3 ms; Framerate: 0.32 images/sec
image size : 1920 x 1440
------------------
muR : 0.1
sigmaR : 0
zoom, s : 1
sigmaFilter : 0.8
NmonteCarlo : 800
xA : 0
yA : 0
xB : 1920
yB : 1440
randomizeSeed : 1
------------------
Output image size is 1920 x 1440
blocks.x : 69
blocks.y : 52
blocks.z : 1
Time to generate:  3139.5 ms; Framerate: 0.32 images/sec
output file name : 22.png
time elapsed : 12.9384
***************************


Input image size : 1920 x 1440
grainRadius : 0.1
sigmaR : 0
sigmaFilter : 0.8
NmonteCarlo : 800
colour
xA : 0
yA : 0
xB : 1920
yB : 1440
mOut : 1440
nOut : 1920
randomizeSeed : 1
***************************
image size : 1920 x 1440
------------------
muR : 0.1
sigmaR : 0
zoom, s : 1
sigmaFilter : 0.8
NmonteCarlo : 800
xA : 0
yA : 0
xB : 1920
yB : 1440
randomizeSeed : 1
------------------
Output image size is 1920 x 1440
blocks.x : 69
blocks.y : 52
blocks.z : 1
Time to generate:  1729.7 ms; Framerate: 0.58 images/sec
image size : 1920 x 1440
------------------
muR : 0.1
sigmaR : 0
zoom, s : 1
sigmaFilter : 0.8
NmonteCarlo : 800
xA : 0
yA : 0
xB : 1920
yB : 1440
randomizeSeed : 1
------------------
Output image size is 1920 x 1440
blocks.x : 69
blocks.y : 52
blocks.z : 1
Time to generate:  1511.4 ms; Framerate: 0.66 images/sec
image size : 1920 x 1440
------------------
muR : 0.1
sigmaR : 0
zoom, s : 1
sigmaFilter : 0.8
NmonteCarlo : 800
xA : 0
yA : 0
xB : 1920
yB : 1440
randomizeSeed : 1
------------------
Output image size is 1920 x 1440
blocks.x : 69
blocks.y : 52
blocks.z : 1
Time to generate:  1482.1 ms; Framerate: 0.67 images/sec
output file name : 22.png
time elapsed : 8.21874
***************************


Input image size : 1920 x 1440
grainRadius : 0.1
sigmaR : 0
sigmaFilter : 0.8
NmonteCarlo : 800
colour
xA : 0
yA : 0
xB : 1920
yB : 1440
mOut : 1440
nOut : 1920
randomizeSeed : 1
***************************
image size : 1920 x 1440
------------------
muR : 0.1
sigmaR : 0
zoom, s : 1
sigmaFilter : 0.8
NmonteCarlo : 800
xA : 0
yA : 0
xB : 1920
yB : 1440
randomizeSeed : 1
------------------
Output image size is 1920 x 1440
blocks.x : 69
blocks.y : 52
blocks.z : 1
Time to generate:  5014.9 ms; Framerate: 0.20 images/sec
image size : 1920 x 1440
------------------
muR : 0.1
sigmaR : 0
zoom, s : 1
sigmaFilter : 0.8
NmonteCarlo : 800
xA : 0
yA : 0
xB : 1920
yB : 1440
randomizeSeed : 1
------------------
Output image size is 1920 x 1440
blocks.x : 69
blocks.y : 52
blocks.z : 1
Time to generate:  4785.7 ms; Framerate: 0.21 images/sec
image size : 1920 x 1440
------------------
muR : 0.1
sigmaR : 0
zoom, s : 1
sigmaFilter : 0.8
NmonteCarlo : 800
xA : 0
yA : 0
xB : 1920
yB : 1440
randomizeSeed : 1
------------------
Output image size is 1920 x 1440
blocks.x : 69
blocks.y : 52
blocks.z : 1
Time to generate:  4122.8 ms; Framerate: 0.24 images/sec
output file name : 22.png
time elapsed : 17.4942
***************************


Input image size : 1920 x 1440
grainRadius : 0.1
sigmaR : 0
sigmaFilter : 0.8
NmonteCarlo : 800
colour
xA : 0
yA : 0
xB : 1920
yB : 1440
mOut : 1440
nOut : 1920
randomizeSeed : 1
***************************
image size : 1920 x 1440
------------------
muR : 0.1
sigmaR : 0
zoom, s : 1
sigmaFilter : 0.8
NmonteCarlo : 800
xA : 0
yA : 0
xB : 1920
yB : 1440
randomizeSeed : 1
------------------
Output image size is 1920 x 1440
blocks.x : 69
blocks.y : 52
blocks.z : 1
Time to generate:  4931.6 ms; Framerate: 0.20 images/sec
image size : 1920 x 1440
------------------
muR : 0.1
sigmaR : 0
zoom, s : 1
sigmaFilter : 0.8
NmonteCarlo : 800
xA : 0
yA : 0
xB : 1920
yB : 1440
randomizeSeed : 1
------------------
Output image size is 1920 x 1440
blocks.x : 69
blocks.y : 52
blocks.z : 1
Time to generate:  4318.4 ms; Framerate: 0.23 images/sec
image size : 1920 x 1440
------------------
muR : 0.1
sigmaR : 0
zoom, s : 1
sigmaFilter : 0.8
NmonteCarlo : 800
xA : 0
yA : 0
xB : 1920
yB : 1440
randomizeSeed : 1
------------------
Output image size is 1920 x 1440
blocks.x : 69
blocks.y : 52
blocks.z : 1
Time to generate:  4322.8 ms; Framerate: 0.23 images/sec
output file name : 22.png
time elapsed : 16.8986
***************************


Input image size : 1920 x 1440
grainRadius : 0.1
sigmaR : 0
sigmaFilter : 0.8
NmonteCarlo : 800
colour
xA : 0
yA : 0
xB : 1920
yB : 1440
mOut : 1440
nOut : 1920
randomizeSeed : 1
***************************
image size : 1920 x 1440
------------------
muR : 0.1
sigmaR : 0
zoom, s : 1
sigmaFilter : 0.8
NmonteCarlo : 800
xA : 0
yA : 0
xB : 1920
yB : 1440
randomizeSeed : 1
------------------
Output image size is 1920 x 1440
blocks.x : 69
blocks.y : 52
blocks.z : 1
Time to generate:  4477.0 ms; Framerate: 0.22 images/sec
image size : 1920 x 1440
------------------
muR : 0.1
sigmaR : 0
zoom, s : 1
sigmaFilter : 0.8
NmonteCarlo : 800
xA : 0
yA : 0
xB : 1920
yB : 1440
randomizeSeed : 1
------------------
Output image size is 1920 x 1440
blocks.x : 69
blocks.y : 52
blocks.z : 1
Time to generate:  4291.2 ms; Framerate: 0.23 images/sec
image size : 1920 x 1440
------------------
muR : 0.1
sigmaR : 0
zoom, s : 1
sigmaFilter : 0.8
NmonteCarlo : 800
xA : 0
yA : 0
xB : 1920
yB : 1440
randomizeSeed : 1
------------------
Output image size is 1920 x 1440
blocks.x : 69
blocks.y : 52
blocks.z : 1
Time to generate:  4323.4 ms; Framerate: 0.23 images/sec
output file name : 22.png
time elapsed : 16.6079
***************************


Input image size : 1920 x 1440
grainRadius : 0.1
sigmaR : 0
sigmaFilter : 0.8
NmonteCarlo : 800
colour
xA : 0
yA : 0
xB : 1920
yB : 1440
mOut : 1440
nOut : 1920
randomizeSeed : 1
***************************
image size : 1920 x 1440
------------------
muR : 0.1
sigmaR : 0
zoom, s : 1
sigmaFilter : 0.8
NmonteCarlo : 800
xA : 0
yA : 0
xB : 1920
yB : 1440
randomizeSeed : 1
------------------
Output image size is 1920 x 1440
blocks.x : 69
blocks.y : 52
blocks.z : 1
Time to generate:  1484.8 ms; Framerate: 0.67 images/sec
image size : 1920 x 1440
------------------
muR : 0.1
sigmaR : 0
zoom, s : 1
sigmaFilter : 0.8
NmonteCarlo : 800
xA : 0
yA : 0
xB : 1920
yB : 1440
randomizeSeed : 1
------------------
Output image size is 1920 x 1440
blocks.x : 69
blocks.y : 52
blocks.z : 1
Time to generate:  1404.6 ms; Framerate: 0.71 images/sec
image size : 1920 x 1440
------------------
muR : 0.1
sigmaR : 0
zoom, s : 1
sigmaFilter : 0.8
NmonteCarlo : 800
xA : 0
yA : 0
xB : 1920
yB : 1440
randomizeSeed : 1
------------------
Output image size is 1920 x 1440
blocks.x : 69
blocks.y : 52
blocks.z : 1
Time to generate:  1542.4 ms; Framerate: 0.65 images/sec
output file name : 22.png
time elapsed : 7.77057
***************************


Input image size : 1920 x 1440
grainRadius : 0.1
sigmaR : 0
sigmaFilter : 0.8
NmonteCarlo : 800
colour
xA : 0
yA : 0
xB : 1920
yB : 1440
mOut : 1440
nOut : 1920
randomizeSeed : 1
***************************
image size : 1920 x 1440
------------------
muR : 0.1
sigmaR : 0
zoom, s : 1
sigmaFilter : 0.8
NmonteCarlo : 800
xA : 0
yA : 0
xB : 1920
yB : 1440
randomizeSeed : 1
------------------
Output image size is 1920 x 1440
blocks.x : 69
blocks.y : 52
blocks.z : 1
Time to generate:  4093.6 ms; Framerate: 0.24 images/sec
image size : 1920 x 1440
------------------
muR : 0.1
sigmaR : 0
zoom, s : 1
sigmaFilter : 0.8
NmonteCarlo : 800
xA : 0
yA : 0
xB : 1920
yB : 1440
randomizeSeed : 1
------------------
Output image size is 1920 x 1440
blocks.x : 69
blocks.y : 52
blocks.z : 1
Time to generate:  3863.9 ms; Framerate: 0.26 images/sec
image size : 1920 x 1440
------------------
muR : 0.1
sigmaR : 0
zoom, s : 1
sigmaFilter : 0.8
NmonteCarlo : 800
xA : 0
yA : 0
xB : 1920
yB : 1440
randomizeSeed : 1
------------------
Output image size is 1920 x 1440
blocks.x : 69
blocks.y : 52
blocks.z : 1
Time to generate:  4443.8 ms; Framerate: 0.23 images/sec
output file name : 22.png
time elapsed : 16.0603
***************************


Input image size : 1920 x 1440
grainRadius : 0.1
sigmaR : 0
sigmaFilter : 0.8
NmonteCarlo : 800
colour
xA : 0
yA : 0
xB : 1920
yB : 1440
mOut : 1440
nOut : 1920
randomizeSeed : 1
***************************
image size : 1920 x 1440
------------------
muR : 0.1
sigmaR : 0
zoom, s : 1
sigmaFilter : 0.8
NmonteCarlo : 800
xA : 0
yA : 0
xB : 1920
yB : 1440
randomizeSeed : 1
------------------
Output image size is 1920 x 1440
blocks.x : 69
blocks.y : 52
blocks.z : 1
Time to generate:  4325.9 ms; Framerate: 0.23 images/sec
image size : 1920 x 1440
------------------
muR : 0.1
sigmaR : 0
zoom, s : 1
sigmaFilter : 0.8
NmonteCarlo : 800
xA : 0
yA : 0
xB : 1920
yB : 1440
randomizeSeed : 1
------------------
Output image size is 1920 x 1440
blocks.x : 69
blocks.y : 52
blocks.z : 1
Time to generate:  4118.7 ms; Framerate: 0.24 images/sec
image size : 1920 x 1440
------------------
muR : 0.1
sigmaR : 0
zoom, s : 1
sigmaFilter : 0.8
NmonteCarlo : 800
xA : 0
yA : 0
xB : 1920
yB : 1440
randomizeSeed : 1
------------------
Output image size is 1920 x 1440
blocks.x : 69
blocks.y : 52
blocks.z : 1
Time to generate:  8211.5 ms; Framerate: 0.12 images/sec
output file name : 22.png
time elapsed : 19.9942
***************************


Input image size : 1920 x 1440
grainRadius : 0.1
sigmaR : 0
sigmaFilter : 0.8
NmonteCarlo : 800
colour
xA : 0
yA : 0
xB : 1920
yB : 1440
mOut : 1440
nOut : 1920
randomizeSeed : 1
***************************
image size : 1920 x 1440
------------------
muR : 0.1
sigmaR : 0
zoom, s : 1
sigmaFilter : 0.8
NmonteCarlo : 800
xA : 0
yA : 0
xB : 1920
yB : 1440
randomizeSeed : 1
------------------
Output image size is 1920 x 1440
blocks.x : 69
blocks.y : 52
blocks.z : 1
Time to generate:  3800.3 ms; Framerate: 0.26 images/sec
image size : 1920 x 1440
------------------
muR : 0.1
sigmaR : 0
zoom, s : 1
sigmaFilter : 0.8
NmonteCarlo : 800
xA : 0
yA : 0
xB : 1920
yB : 1440
randomizeSeed : 1
------------------
Output image size is 1920 x 1440
blocks.x : 69
blocks.y : 52
blocks.z : 1
Time to generate:  7089.3 ms; Framerate: 0.14 images/sec
image size : 1920 x 1440
------------------
muR : 0.1
sigmaR : 0
zoom, s : 1
sigmaFilter : 0.8
NmonteCarlo : 800
xA : 0
yA : 0
xB : 1920
yB : 1440
randomizeSeed : 1
------------------
Output image size is 1920 x 1440
blocks.x : 69
blocks.y : 52
blocks.z : 1
Time to generate:  3521.8 ms; Framerate: 0.28 images/sec
output file name : 22.png
time elapsed : 17.789
***************************


Input image size : 1920 x 1440
grainRadius : 0.1
sigmaR : 0
sigmaFilter : 0.8
NmonteCarlo : 800
colour
xA : 0
yA : 0
xB : 1920
yB : 1440
mOut : 1440
nOut : 1920
randomizeSeed : 1
***************************
image size : 1920 x 1440
------------------
muR : 0.1
sigmaR : 0
zoom, s : 1
sigmaFilter : 0.8
NmonteCarlo : 800
xA : 0
yA : 0
xB : 1920
yB : 1440
randomizeSeed : 1
------------------
Output image size is 1920 x 1440
blocks.x : 69
blocks.y : 52
blocks.z : 1
Time to generate:  3694.7 ms; Framerate: 0.27 images/sec
image size : 1920 x 1440
------------------
muR : 0.1
sigmaR : 0
zoom, s : 1
sigmaFilter : 0.8
NmonteCarlo : 800
xA : 0
yA : 0
xB : 1920
yB : 1440
randomizeSeed : 1
------------------
Output image size is 1920 x 1440
blocks.x : 69
blocks.y : 52
blocks.z : 1
Time to generate:  3753.0 ms; Framerate: 0.27 images/sec
image size : 1920 x 1440
------------------
muR : 0.1
sigmaR : 0
zoom, s : 1
sigmaFilter : 0.8
NmonteCarlo : 800
xA : 0
yA : 0
xB : 1920
yB : 1440
randomizeSeed : 1
------------------
Output image size is 1920 x 1440
blocks.x : 69
blocks.y : 52
blocks.z : 1
Time to generate:  3971.0 ms; Framerate: 0.25 images/sec
output file name : 22.png
time elapsed : 14.7631
***************************


Input image size : 1920 x 1440
grainRadius : 0.1
sigmaR : 0
sigmaFilter : 0.8
NmonteCarlo : 800
colour
xA : 0
yA : 0
xB : 1920
yB : 1440
mOut : 1440
nOut : 1920
randomizeSeed : 1
***************************
image size : 1920 x 1440
------------------
muR : 0.1
sigmaR : 0
zoom, s : 1
sigmaFilter : 0.8
NmonteCarlo : 800
xA : 0
yA : 0
xB : 1920
yB : 1440
randomizeSeed : 1
------------------
Output image size is 1920 x 1440
blocks.x : 69
blocks.y : 52
blocks.z : 1
Time to generate:  3099.8 ms; Framerate: 0.32 images/sec
image size : 1920 x 1440
------------------
muR : 0.1
sigmaR : 0
zoom, s : 1
sigmaFilter : 0.8
NmonteCarlo : 800
xA : 0
yA : 0
xB : 1920
yB : 1440
randomizeSeed : 1
------------------
Output image size is 1920 x 1440
blocks.x : 69
blocks.y : 52
blocks.z : 1
Time to generate:  3004.3 ms; Framerate: 0.33 images/sec
image size : 1920 x 1440
------------------
muR : 0.1
sigmaR : 0
zoom, s : 1
sigmaFilter : 0.8
NmonteCarlo : 800
xA : 0
yA : 0
xB : 1920
yB : 1440
randomizeSeed : 1
------------------
Output image size is 1920 x 1440
blocks.x : 69
blocks.y : 52
blocks.z : 1
Time to generate:  6674.5 ms; Framerate: 0.15 images/sec
output file name : 22.png
time elapsed : 16.8814
***************************


Input image size : 1920 x 1440
grainRadius : 0.1
sigmaR : 0
sigmaFilter : 0.8
NmonteCarlo : 800
colour
xA : 0
yA : 0
xB : 1920
yB : 1440
mOut : 1440
nOut : 1920
randomizeSeed : 1
***************************
image size : 1920 x 1440
------------------
muR : 0.1
sigmaR : 0
zoom, s : 1
sigmaFilter : 0.8
NmonteCarlo : 800
xA : 0
yA : 0
xB : 1920
yB : 1440
randomizeSeed : 1
------------------
Output image size is 1920 x 1440
blocks.x : 69
blocks.y : 52
blocks.z : 1
Time to generate:  2939.1 ms; Framerate: 0.34 images/sec
image size : 1920 x 1440
------------------
muR : 0.1
sigmaR : 0
zoom, s : 1
sigmaFilter : 0.8
NmonteCarlo : 800
xA : 0
yA : 0
xB : 1920
yB : 1440
randomizeSeed : 1
------------------
Output image size is 1920 x 1440
blocks.x : 69
blocks.y : 52
blocks.z : 1
Time to generate:  2877.6 ms; Framerate: 0.35 images/sec
image size : 1920 x 1440
------------------
muR : 0.1
sigmaR : 0
zoom, s : 1
sigmaFilter : 0.8
NmonteCarlo : 800
xA : 0
yA : 0
xB : 1920
yB : 1440
randomizeSeed : 1
------------------
Output image size is 1920 x 1440
blocks.x : 69
blocks.y : 52
blocks.z : 1
Time to generate:  3107.0 ms; Framerate: 0.32 images/sec
output file name : 22.png
time elapsed : 12.7961
***************************


Input image size : 1920 x 1440
grainRadius : 0.1
sigmaR : 0
sigmaFilter : 0.8
NmonteCarlo : 800
colour
xA : 0
yA : 0
xB : 1920
yB : 1440
mOut : 1440
nOut : 1920
randomizeSeed : 1
***************************
image size : 1920 x 1440
------------------
muR : 0.1
sigmaR : 0
zoom, s : 1
sigmaFilter : 0.8
NmonteCarlo : 800
xA : 0
yA : 0
xB : 1920
yB : 1440
randomizeSeed : 1
------------------
Output image size is 1920 x 1440
blocks.x : 69
blocks.y : 52
blocks.z : 1
Time to generate:  1614.9 ms; Framerate: 0.62 images/sec
image size : 1920 x 1440
------------------
muR : 0.1
sigmaR : 0
zoom, s : 1
sigmaFilter : 0.8
NmonteCarlo : 800
xA : 0
yA : 0
xB : 1920
yB : 1440
randomizeSeed : 1
------------------
Output image size is 1920 x 1440
blocks.x : 69
blocks.y : 52
blocks.z : 1
Time to generate:  1373.6 ms; Framerate: 0.73 images/sec
image size : 1920 x 1440
------------------
muR : 0.1
sigmaR : 0
zoom, s : 1
sigmaFilter : 0.8
NmonteCarlo : 800
xA : 0
yA : 0
xB : 1920
yB : 1440
randomizeSeed : 1
------------------
Output image size is 1920 x 1440
blocks.x : 69
blocks.y : 52
blocks.z : 1
Time to generate:  1602.6 ms; Framerate: 0.62 images/sec
output file name : 22.png
time elapsed : 8.49539
***************************


Input image size : 1920 x 1440
grainRadius : 0.1
sigmaR : 0
sigmaFilter : 0.8
NmonteCarlo : 800
colour
xA : 0
yA : 0
xB : 1920
yB : 1440
mOut : 1440
nOut : 1920
randomizeSeed : 1
***************************
image size : 1920 x 1440
------------------
muR : 0.1
sigmaR : 0
zoom, s : 1
sigmaFilter : 0.8
NmonteCarlo : 800
xA : 0
yA : 0
xB : 1920
yB : 1440
randomizeSeed : 1
------------------
Output image size is 1920 x 1440
blocks.x : 69
blocks.y : 52
blocks.z : 1
Time to generate:  2191.5 ms; Framerate: 0.46 images/sec
image size : 1920 x 1440
------------------
muR : 0.1
sigmaR : 0
zoom, s : 1
sigmaFilter : 0.8
NmonteCarlo : 800
xA : 0
yA : 0
xB : 1920
yB : 1440
randomizeSeed : 1
------------------
Output image size is 1920 x 1440
blocks.x : 69
blocks.y : 52
blocks.z : 1
Time to generate:  1938.4 ms; Framerate: 0.52 images/sec
image size : 1920 x 1440
------------------
muR : 0.1
sigmaR : 0
zoom, s : 1
sigmaFilter : 0.8
NmonteCarlo : 800
xA : 0
yA : 0
xB : 1920
yB : 1440
randomizeSeed : 1
------------------
Output image size is 1920 x 1440
blocks.x : 69
blocks.y : 52
blocks.z : 1
Time to generate:  1505.9 ms; Framerate: 0.66 images/sec
output file name : 22.png
time elapsed : 9.20626
***************************


Input image size : 1920 x 1440
grainRadius : 0.1
sigmaR : 0
sigmaFilter : 0.8
NmonteCarlo : 800
colour
xA : 0
yA : 0
xB : 1920
yB : 1440
mOut : 1440
nOut : 1920
randomizeSeed : 1
***************************
image size : 1920 x 1440
------------------
muR : 0.1
sigmaR : 0
zoom, s : 1
sigmaFilter : 0.8
NmonteCarlo : 800
xA : 0
yA : 0
xB : 1920
yB : 1440
randomizeSeed : 1
------------------
Output image size is 1920 x 1440
blocks.x : 69
blocks.y : 52
blocks.z : 1
Time to generate:  1706.6 ms; Framerate: 0.59 images/sec
image size : 1920 x 1440
------------------
muR : 0.1
sigmaR : 0
zoom, s : 1
sigmaFilter : 0.8
NmonteCarlo : 800
xA : 0
yA : 0
xB : 1920
yB : 1440
randomizeSeed : 1
------------------
Output image size is 1920 x 1440
blocks.x : 69
blocks.y : 52
blocks.z : 1
Time to generate:  1916.1 ms; Framerate: 0.52 images/sec
image size : 1920 x 1440
------------------
muR : 0.1
sigmaR : 0
zoom, s : 1
sigmaFilter : 0.8
NmonteCarlo : 800
xA : 0
yA : 0
xB : 1920
yB : 1440
randomizeSeed : 1
------------------
Output image size is 1920 x 1440
blocks.x : 69
blocks.y : 52
blocks.z : 1
Time to generate:  1591.8 ms; Framerate: 0.63 images/sec
output file name : 22.png
time elapsed : 8.78457
***************************


Input image size : 1920 x 1440
grainRadius : 0.1
sigmaR : 0
sigmaFilter : 0.8
NmonteCarlo : 800
colour
xA : 0
yA : 0
xB : 1920
yB : 1440
mOut : 1440
nOut : 1920
randomizeSeed : 1
***************************
image size : 1920 x 1440
------------------
muR : 0.1
sigmaR : 0
zoom, s : 1
sigmaFilter : 0.8
NmonteCarlo : 800
xA : 0
yA : 0
xB : 1920
yB : 1440
randomizeSeed : 1
------------------
Output image size is 1920 x 1440
blocks.x : 69
blocks.y : 52
blocks.z : 1
Time to generate:  1641.1 ms; Framerate: 0.61 images/sec
image size : 1920 x 1440
------------------
muR : 0.1
sigmaR : 0
zoom, s : 1
sigmaFilter : 0.8
NmonteCarlo : 800
xA : 0
yA : 0
xB : 1920
yB : 1440
randomizeSeed : 1
------------------
Output image size is 1920 x 1440
blocks.x : 69
blocks.y : 52
blocks.z : 1
Time to generate:  1650.6 ms; Framerate: 0.61 images/sec
image size : 1920 x 1440
------------------
muR : 0.1
sigmaR : 0
zoom, s : 1
sigmaFilter : 0.8
NmonteCarlo : 800
xA : 0
yA : 0
xB : 1920
yB : 1440
randomizeSeed : 1
------------------
Output image size is 1920 x 1440
blocks.x : 69
blocks.y : 52
blocks.z : 1
Time to generate:  1462.5 ms; Framerate: 0.68 images/sec
output file name : 22.png
time elapsed : 8.20668
***************************


Input image size : 1920 x 1440
grainRadius : 0.1
sigmaR : 0
sigmaFilter : 0.8
NmonteCarlo : 800
colour
xA : 0
yA : 0
xB : 1920
yB : 1440
mOut : 1440
nOut : 1920
randomizeSeed : 1
***************************
image size : 1920 x 1440
------------------
muR : 0.1
sigmaR : 0
zoom, s : 1
sigmaFilter : 0.8
NmonteCarlo : 800
xA : 0
yA : 0
xB : 1920
yB : 1440
randomizeSeed : 1
------------------
Output image size is 1920 x 1440
blocks.x : 69
blocks.y : 52
blocks.z : 1
Time to generate:  1876.0 ms; Framerate: 0.53 images/sec
image size : 1920 x 1440
------------------
muR : 0.1
sigmaR : 0
zoom, s : 1
sigmaFilter : 0.8
NmonteCarlo : 800
xA : 0
yA : 0
xB : 1920
yB : 1440
randomizeSeed : 1
------------------
Output image size is 1920 x 1440
blocks.x : 69
blocks.y : 52
blocks.z : 1
Time to generate:  1541.0 ms; Framerate: 0.65 images/sec
image size : 1920 x 1440
------------------
muR : 0.1
sigmaR : 0
zoom, s : 1
sigmaFilter : 0.8
NmonteCarlo : 800
xA : 0
yA : 0
xB : 1920
yB : 1440
randomizeSeed : 1
------------------
Output image size is 1920 x 1440
blocks.x : 69
blocks.y : 52
blocks.z : 1
Time to generate:  1499.9 ms; Framerate: 0.67 images/sec
output file name : 22.png
time elapsed : 8.55763
***************************


Input image size : 1920 x 1440
grainRadius : 0.1
sigmaR : 0
sigmaFilter : 0.8
NmonteCarlo : 800
colour
xA : 0
yA : 0
xB : 1920
yB : 1440
mOut : 1440
nOut : 1920
randomizeSeed : 1
***************************
image size : 1920 x 1440
------------------
muR : 0.1
sigmaR : 0
zoom, s : 1
sigmaFilter : 0.8
NmonteCarlo : 800
xA : 0
yA : 0
xB : 1920
yB : 1440
randomizeSeed : 1
------------------
Output image size is 1920 x 1440
blocks.x : 69
blocks.y : 52
blocks.z : 1
Time to generate:  1556.9 ms; Framerate: 0.64 images/sec
image size : 1920 x 1440
------------------
muR : 0.1
sigmaR : 0
zoom, s : 1
sigmaFilter : 0.8
NmonteCarlo : 800
xA : 0
yA : 0
xB : 1920
yB : 1440
randomizeSeed : 1
------------------
Output image size is 1920 x 1440
blocks.x : 69
blocks.y : 52
blocks.z : 1
Time to generate:  1400.5 ms; Framerate: 0.71 images/sec
image size : 1920 x 1440
------------------
muR : 0.1
sigmaR : 0
zoom, s : 1
sigmaFilter : 0.8
NmonteCarlo : 800
xA : 0
yA : 0
xB : 1920
yB : 1440
randomizeSeed : 1
------------------
Output image size is 1920 x 1440
blocks.x : 69
blocks.y : 52
blocks.z : 1
Time to generate:  1340.0 ms; Framerate: 0.75 images/sec
output file name : 22.png
time elapsed : 7.9895
***************************


Input image size : 1920 x 1440
grainRadius : 0.1
sigmaR : 0
sigmaFilter : 0.8
NmonteCarlo : 800
colour
xA : 0
yA : 0
xB : 1920
yB : 1440
mOut : 1440
nOut : 1920
randomizeSeed : 1
***************************
image size : 1920 x 1440
------------------
muR : 0.1
sigmaR : 0
zoom, s : 1
sigmaFilter : 0.8
NmonteCarlo : 800
xA : 0
yA : 0
xB : 1920
yB : 1440
randomizeSeed : 1
------------------
Output image size is 1920 x 1440
blocks.x : 69
blocks.y : 52
blocks.z : 1
Time to generate:  1530.2 ms; Framerate: 0.65 images/sec
image size : 1920 x 1440
------------------
muR : 0.1
sigmaR : 0
zoom, s : 1
sigmaFilter : 0.8
NmonteCarlo : 800
xA : 0
yA : 0
xB : 1920
yB : 1440
randomizeSeed : 1
------------------
Output image size is 1920 x 1440
blocks.x : 69
blocks.y : 52
blocks.z : 1
Time to generate:  1480.2 ms; Framerate: 0.68 images/sec
image size : 1920 x 1440
------------------
muR : 0.1
sigmaR : 0
zoom, s : 1
sigmaFilter : 0.8
NmonteCarlo : 800
xA : 0
yA : 0
xB : 1920
yB : 1440
randomizeSeed : 1
------------------
Output image size is 1920 x 1440
blocks.x : 69
blocks.y : 52
blocks.z : 1
Time to generate:  1420.1 ms; Framerate: 0.70 images/sec
output file name : 22.png
time elapsed : 7.39567
***************************


Input image size : 1920 x 1440
grainRadius : 0.1
sigmaR : 0
sigmaFilter : 0.8
NmonteCarlo : 800
colour
xA : 0
yA : 0
xB : 1920
yB : 1440
mOut : 1440
nOut : 1920
randomizeSeed : 1
***************************
image size : 1920 x 1440
------------------
muR : 0.1
sigmaR : 0
zoom, s : 1
sigmaFilter : 0.8
NmonteCarlo : 800
xA : 0
yA : 0
xB : 1920
yB : 1440
randomizeSeed : 1
------------------
Output image size is 1920 x 1440
blocks.x : 69
blocks.y : 52
blocks.z : 1
Time to generate:  1537.3 ms; Framerate: 0.65 images/sec
image size : 1920 x 1440
------------------
muR : 0.1
sigmaR : 0
zoom, s : 1
sigmaFilter : 0.8
NmonteCarlo : 800
xA : 0
yA : 0
xB : 1920
yB : 1440
randomizeSeed : 1
------------------
Output image size is 1920 x 1440
blocks.x : 69
blocks.y : 52
blocks.z : 1
Time to generate:  1486.5 ms; Framerate: 0.67 images/sec
image size : 1920 x 1440
------------------
muR : 0.1
sigmaR : 0
zoom, s : 1
sigmaFilter : 0.8
NmonteCarlo : 800
xA : 0
yA : 0
xB : 1920
yB : 1440
randomizeSeed : 1
------------------
Output image size is 1920 x 1440
blocks.x : 69
blocks.y : 52
blocks.z : 1
Time to generate:  1458.9 ms; Framerate: 0.69 images/sec
output file name : 22.png
time elapsed : 7.28636
***************************


Input image size : 1920 x 1440
grainRadius : 0.1
sigmaR : 0
sigmaFilter : 0.8
NmonteCarlo : 800
colour
xA : 0
yA : 0
xB : 1920
yB : 1440
mOut : 1440
nOut : 1920
randomizeSeed : 1
***************************
image size : 1920 x 1440
------------------
muR : 0.1
sigmaR : 0
zoom, s : 1
sigmaFilter : 0.8
NmonteCarlo : 800
xA : 0
yA : 0
xB : 1920
yB : 1440
randomizeSeed : 1
------------------
Output image size is 1920 x 1440
blocks.x : 69
blocks.y : 52
blocks.z : 1
Time to generate:  1568.0 ms; Framerate: 0.64 images/sec
image size : 1920 x 1440
------------------
muR : 0.1
sigmaR : 0
zoom, s : 1
sigmaFilter : 0.8
NmonteCarlo : 800
xA : 0
yA : 0
xB : 1920
yB : 1440
randomizeSeed : 1
------------------
Output image size is 1920 x 1440
blocks.x : 69
blocks.y : 52
blocks.z : 1
Time to generate:  1380.6 ms; Framerate: 0.72 images/sec
image size : 1920 x 1440
------------------
muR : 0.1
sigmaR : 0
zoom, s : 1
sigmaFilter : 0.8
NmonteCarlo : 800
xA : 0
yA : 0
xB : 1920
yB : 1440
randomizeSeed : 1
------------------
Output image size is 1920 x 1440
blocks.x : 69
blocks.y : 52
blocks.z : 1
Time to generate:  1374.6 ms; Framerate: 0.73 images/sec
output file name : 22.png
time elapsed : 7.16338
***************************


Input image size : 1920 x 1440
grainRadius : 0.1
sigmaR : 0
sigmaFilter : 0.8
NmonteCarlo : 800
colour
xA : 0
yA : 0
xB : 1920
yB : 1440
mOut : 1440
nOut : 1920
randomizeSeed : 1
***************************
image size : 1920 x 1440
------------------
muR : 0.1
sigmaR : 0
zoom, s : 1
sigmaFilter : 0.8
NmonteCarlo : 800
xA : 0
yA : 0
xB : 1920
yB : 1440
randomizeSeed : 1
------------------
Output image size is 1920 x 1440
blocks.x : 69
blocks.y : 52
blocks.z : 1
Time to generate:  4908.1 ms; Framerate: 0.20 images/sec
image size : 1920 x 1440
------------------
muR : 0.1
sigmaR : 0
zoom, s : 1
sigmaFilter : 0.8
NmonteCarlo : 800
xA : 0
yA : 0
xB : 1920
yB : 1440
randomizeSeed : 1
------------------
Output image size is 1920 x 1440
blocks.x : 69
blocks.y : 52
blocks.z : 1
Time to generate:  4852.8 ms; Framerate: 0.21 images/sec
image size : 1920 x 1440
------------------
muR : 0.1
sigmaR : 0
zoom, s : 1
sigmaFilter : 0.8
NmonteCarlo : 800
xA : 0
yA : 0
xB : 1920
yB : 1440
randomizeSeed : 1
------------------
Output image size is 1920 x 1440
blocks.x : 69
blocks.y : 52
blocks.z : 1
Time to generate:  5125.8 ms; Framerate: 0.20 images/sec
output file name : 22.png
time elapsed : 17.9305
***************************


Input image size : 1920 x 1440
grainRadius : 0.1
sigmaR : 0
sigmaFilter : 0.8
NmonteCarlo : 800
colour
xA : 0
yA : 0
xB : 1920
yB : 1440
mOut : 1440
nOut : 1920
randomizeSeed : 1
***************************
image size : 1920 x 1440
------------------
muR : 0.1
sigmaR : 0
zoom, s : 1
sigmaFilter : 0.8
NmonteCarlo : 800
xA : 0
yA : 0
xB : 1920
yB : 1440
randomizeSeed : 1
------------------
Output image size is 1920 x 1440
blocks.x : 69
blocks.y : 52
blocks.z : 1
Time to generate:  4744.9 ms; Framerate: 0.21 images/sec
image size : 1920 x 1440
------------------
muR : 0.1
sigmaR : 0
zoom, s : 1
sigmaFilter : 0.8
NmonteCarlo : 800
xA : 0
yA : 0
xB : 1920
yB : 1440
randomizeSeed : 1
------------------
Output image size is 1920 x 1440
blocks.x : 69
blocks.y : 52
blocks.z : 1
Time to generate:  5065.6 ms; Framerate: 0.20 images/sec
image size : 1920 x 1440
------------------
muR : 0.1
sigmaR : 0
zoom, s : 1
sigmaFilter : 0.8
NmonteCarlo : 800
xA : 0
yA : 0
xB : 1920
yB : 1440
randomizeSeed : 1
------------------
Output image size is 1920 x 1440
blocks.x : 69
blocks.y : 52
blocks.z : 1
Time to generate:  5077.6 ms; Framerate: 0.20 images/sec
output file name : 22.png
time elapsed : 18.0367
***************************


Input image size : 1920 x 1440
grainRadius : 0.1
sigmaR : 0
sigmaFilter : 0.8
NmonteCarlo : 800
colour
xA : 0
yA : 0
xB : 1920
yB : 1440
mOut : 1440
nOut : 1920
randomizeSeed : 1
***************************
image size : 1920 x 1440
------------------
muR : 0.1
sigmaR : 0
zoom, s : 1
sigmaFilter : 0.8
NmonteCarlo : 800
xA : 0
yA : 0
xB : 1920
yB : 1440
randomizeSeed : 1
------------------
Output image size is 1920 x 1440
blocks.x : 69
blocks.y : 52
blocks.z : 1
Time to generate:  12701.7 ms; Framerate: 0.08 images/sec
image size : 1920 x 1440
------------------
muR : 0.1
sigmaR : 0
zoom, s : 1
sigmaFilter : 0.8
NmonteCarlo : 800
xA : 0
yA : 0
xB : 1920
yB : 1440
randomizeSeed : 1
------------------
Output image size is 1920 x 1440
blocks.x : 69
blocks.y : 52
blocks.z : 1
Time to generate:  17400.3 ms; Framerate: 0.06 images/sec
image size : 1920 x 1440
------------------
muR : 0.1
sigmaR : 0
zoom, s : 1
sigmaFilter : 0.8
NmonteCarlo : 800
xA : 0
yA : 0
xB : 1920
yB : 1440
randomizeSeed : 1
------------------
Output image size is 1920 x 1440
blocks.x : 69
blocks.y : 52
blocks.z : 1
Time to generate:  23418.6 ms; Framerate: 0.04 images/sec
output file name : 22.png
time elapsed : 56.5282
***************************


Input image size : 1920 x 1440
grainRadius : 0.1
sigmaR : 0
sigmaFilter : 0.8
NmonteCarlo : 800
colour
xA : 0
yA : 0
xB : 1920
yB : 1440
mOut : 1440
nOut : 1920
randomizeSeed : 1
***************************
image size : 1920 x 1440
------------------
muR : 0.1
sigmaR : 0
zoom, s : 1
sigmaFilter : 0.8
NmonteCarlo : 800
xA : 0
yA : 0
xB : 1920
yB : 1440
randomizeSeed : 1
------------------
Output image size is 1920 x 1440
blocks.x : 69
blocks.y : 52
blocks.z : 1
Time to generate:  6531.6 ms; Framerate: 0.15 images/sec
image size : 1920 x 1440
------------------
muR : 0.1
sigmaR : 0
zoom, s : 1
sigmaFilter : 0.8
NmonteCarlo : 800
xA : 0
yA : 0
xB : 1920
yB : 1440
randomizeSeed : 1
------------------
Output image size is 1920 x 1440
blocks.x : 69
blocks.y : 52
blocks.z : 1
Time to generate:  3125.7 ms; Framerate: 0.32 images/sec
image size : 1920 x 1440
------------------
muR : 0.1
sigmaR : 0
zoom, s : 1
sigmaFilter : 0.8
NmonteCarlo : 800
xA : 0
yA : 0
xB : 1920
yB : 1440
randomizeSeed : 1
------------------
Output image size is 1920 x 1440
blocks.x : 69
blocks.y : 52
blocks.z : 1
Time to generate:  3169.1 ms; Framerate: 0.32 images/sec
output file name : 22.png
time elapsed : 16.0512
***************************


Input image size : 1920 x 1440
grainRadius : 0.1
sigmaR : 0
sigmaFilter : 0.8
NmonteCarlo : 800
colour
xA : 0
yA : 0
xB : 1920
yB : 1440
mOut : 1440
nOut : 1920
randomizeSeed : 1
***************************
image size : 1920 x 1440
------------------
muR : 0.1
sigmaR : 0
zoom, s : 1
sigmaFilter : 0.8
NmonteCarlo : 800
xA : 0
yA : 0
xB : 1920
yB : 1440
randomizeSeed : 1
------------------
Output image size is 1920 x 1440
blocks.x : 69
blocks.y : 52
blocks.z : 1
Time to generate:  1545.9 ms; Framerate: 0.65 images/sec
image size : 1920 x 1440
------------------
muR : 0.1
sigmaR : 0
zoom, s : 1
sigmaFilter : 0.8
NmonteCarlo : 800
xA : 0
yA : 0
xB : 1920
yB : 1440
randomizeSeed : 1
------------------
Output image size is 1920 x 1440
blocks.x : 69
blocks.y : 52
blocks.z : 1
Time to generate:  1536.2 ms; Framerate: 0.65 images/sec
image size : 1920 x 1440
------------------
muR : 0.1
sigmaR : 0
zoom, s : 1
sigmaFilter : 0.8
NmonteCarlo : 800
xA : 0
yA : 0
xB : 1920
yB : 1440
randomizeSeed : 1
------------------
Output image size is 1920 x 1440
blocks.x : 69
blocks.y : 52
blocks.z : 1
Time to generate:  1533.9 ms; Framerate: 0.65 images/sec
output file name : 22.png
time elapsed : 8.24059
***************************


Input image size : 1920 x 1440
grainRadius : 0.1
sigmaR : 0
sigmaFilter : 0.8
NmonteCarlo : 800
colour
xA : 0
yA : 0
xB : 1920
yB : 1440
mOut : 1440
nOut : 1920
randomizeSeed : 1
***************************
image size : 1920 x 1440
------------------
muR : 0.1
sigmaR : 0
zoom, s : 1
sigmaFilter : 0.8
NmonteCarlo : 800
xA : 0
yA : 0
xB : 1920
yB : 1440
randomizeSeed : 1
------------------
Output image size is 1920 x 1440
blocks.x : 69
blocks.y : 52
blocks.z : 1
Time to generate:  958035.1 ms; Framerate: 0.00 images/sec
image size : 1920 x 1440
------------------
muR : 0.1
sigmaR : 0
zoom, s : 1
sigmaFilter : 0.8
NmonteCarlo : 800
xA : 0
yA : 0
xB : 1920
yB : 1440
randomizeSeed : 1
------------------
Output image size is 1920 x 1440
blocks.x : 69
blocks.y : 52
blocks.z : 1
Time to generate:  1634049.8 ms; Framerate: 0.00 images/sec
image size : 1920 x 1440
------------------
muR : 0.1
sigmaR : 0
zoom, s : 1
sigmaFilter : 0.8
NmonteCarlo : 800
xA : 0
yA : 0
xB : 1920
yB : 1440
randomizeSeed : 1
------------------
