Input image size : 1920 x 1440
grainRadius : 0.1
sigmaR : 0
sigmaFilter : 0.8
NmonteCarlo : 800
colour
xA : 0
yA : 0
xB : 1920
yB : 1440
mOut : 1440
nOut : 1920
randomizeSeed : 1
***************************
image size : 1920 x 1440
------------------
muR : 0.1
sigmaR : 0
zoom, s : 1
sigmaFilter : 0.8
NmonteCarlo : 800
xA : 0
yA : 0
xB : 1920
yB : 1440
randomizeSeed : 1
------------------
Output image size is 1920 x 1440
blocks.x : 69
blocks.y : 52
blocks.z : 1
Time to generate:  2852.8 ms; Framerate: 0.35 images/sec
image size : 1920 x 1440
------------------
muR : 0.1
sigmaR : 0
zoom, s : 1
sigmaFilter : 0.8
NmonteCarlo : 800
xA : 0
yA : 0
xB : 1920
yB : 1440
randomizeSeed : 1
------------------
Output image size is 1920 x 1440
blocks.x : 69
blocks.y : 52
blocks.z : 1
Time to generate:  2898.2 ms; Framerate: 0.35 images/sec
image size : 1920 x 1440
------------------
muR : 0.1
sigmaR : 0
zoom, s : 1
sigmaFilter : 0.8
NmonteCarlo : 800
xA : 0
yA : 0
xB : 1920
yB : 1440
randomizeSeed : 1
------------------
Output image size is 1920 x 1440
blocks.x : 69
blocks.y : 52
blocks.z : 1
Time to generate:  2952.0 ms; Framerate: 0.34 images/sec
output file name : 22.png
time elapsed : 14.9177
***************************


Input image size : 1920 x 1440
grainRadius : 0.1
sigmaR : 0
sigmaFilter : 0.8
NmonteCarlo : 800
colour
xA : 0
yA : 0
xB : 1920
yB : 1440
mOut : 1440
nOut : 1920
randomizeSeed : 1
***************************
image size : 1920 x 1440
------------------
muR : 0.1
sigmaR : 0
zoom, s : 1
sigmaFilter : 0.8
NmonteCarlo : 800
xA : 0
yA : 0
xB : 1920
yB : 1440
randomizeSeed : 1
------------------
Output image size is 1920 x 1440
blocks.x : 69
blocks.y : 52
blocks.z : 1
Time to generate:  79457.3 ms; Framerate: 0.01 images/sec
image size : 1920 x 1440
------------------
muR : 0.1
sigmaR : 0
zoom, s : 1
sigmaFilter : 0.8
NmonteCarlo : 800
xA : 0
yA : 0
xB : 1920
yB : 1440
randomizeSeed : 1
------------------
Output image size is 1920 x 1440
blocks.x : 69
blocks.y : 52
blocks.z : 1
Time to generate:  76054.0 ms; Framerate: 0.01 images/sec
image size : 1920 x 1440
------------------
muR : 0.1
sigmaR : 0
zoom, s : 1
sigmaFilter : 0.8
NmonteCarlo : 800
xA : 0
yA : 0
xB : 1920
yB : 1440
randomizeSeed : 1
------------------
Output image size is 1920 x 1440
blocks.x : 69
blocks.y : 52
blocks.z : 1
Time to generate:  74095.3 ms; Framerate: 0.01 images/sec
output file name : 22.png
time elapsed : 235.917
***************************


Input image size : 1920 x 1440
grainRadius : 0.1
sigmaR : 0
sigmaFilter : 0.8
NmonteCarlo : 800
colour
xA : 0
yA : 0
xB : 1920
yB : 1440
mOut : 1440
nOut : 1920
randomizeSeed : 1
***************************
image size : 1920 x 1440
------------------
muR : 0.1
sigmaR : 0
zoom, s : 1
sigmaFilter : 0.8
NmonteCarlo : 800
xA : 0
yA : 0
xB : 1920
yB : 1440
randomizeSeed : 1
------------------
Output image size is 1920 x 1440
blocks.x : 69
blocks.y : 52
blocks.z : 1
Time to generate:  82945.3 ms; Framerate: 0.01 images/sec
image size : 1920 x 1440
------------------
muR : 0.1
sigmaR : 0
zoom, s : 1
sigmaFilter : 0.8
NmonteCarlo : 800
xA : 0
yA : 0
xB : 1920
yB : 1440
randomizeSeed : 1
------------------
Output image size is 1920 x 1440
blocks.x : 69
blocks.y : 52
blocks.z : 1
Time to generate:  135488.2 ms; Framerate: 0.01 images/sec
image size : 1920 x 1440
------------------
muR : 0.1
sigmaR : 0
zoom, s : 1
sigmaFilter : 0.8
NmonteCarlo : 800
xA : 0
yA : 0
xB : 1920
yB : 1440
randomizeSeed : 1
------------------
Output image size is 1920 x 1440
blocks.x : 69
blocks.y : 52
blocks.z : 1
Time to generate:  157142.9 ms; Framerate: 0.01 images/sec
output file name : 22.png
time elapsed : 382.073
***************************


Input image size : 1920 x 1440
grainRadius : 0.1
sigmaR : 0
sigmaFilter : 0.8
NmonteCarlo : 800
colour
xA : 0
yA : 0
xB : 1920
yB : 1440
mOut : 1440
nOut : 1920
randomizeSeed : 1
***************************
image size : 1920 x 1440
------------------
muR : 0.1
sigmaR : 0
zoom, s : 1
sigmaFilter : 0.8
NmonteCarlo : 800
xA : 0
yA : 0
xB : 1920
yB : 1440
randomizeSeed : 1
------------------
Output image size is 1920 x 1440
blocks.x : 69
blocks.y : 52
blocks.z : 1
Time to generate:  151739.7 ms; Framerate: 0.01 images/sec
image size : 1920 x 1440
------------------
muR : 0.1
sigmaR : 0
zoom, s : 1
sigmaFilter : 0.8
NmonteCarlo : 800
xA : 0
yA : 0
xB : 1920
yB : 1440
randomizeSeed : 1
------------------
Output image size is 1920 x 1440
blocks.x : 69
blocks.y : 52
blocks.z : 1
Time to generate:  141615.7 ms; Framerate: 0.01 images/sec
image size : 1920 x 1440
------------------
muR : 0.1
sigmaR : 0
zoom, s : 1
sigmaFilter : 0.8
NmonteCarlo : 800
xA : 0
yA : 0
xB : 1920
yB : 1440
randomizeSeed : 1
------------------
Output image size is 1920 x 1440
blocks.x : 69
blocks.y : 52
blocks.z : 1
Time to generate:  79003.3 ms; Framerate: 0.01 images/sec
output file name : 22.png
time elapsed : 382.385
***************************


Input image size : 1920 x 1440
grainRadius : 0.1
sigmaR : 0
sigmaFilter : 0.8
NmonteCarlo : 800
colour
xA : 0
yA : 0
xB : 1920
yB : 1440
mOut : 1440
nOut : 1920
randomizeSeed : 1
***************************
image size : 1920 x 1440
------------------
muR : 0.1
sigmaR : 0
zoom, s : 1
sigmaFilter : 0.8
NmonteCarlo : 800
xA : 0
yA : 0
xB : 1920
yB : 1440
randomizeSeed : 1
------------------
Output image size is 1920 x 1440
blocks.x : 69
blocks.y : 52
blocks.z : 1
Time to generate:  70509.9 ms; Framerate: 0.01 images/sec
image size : 1920 x 1440
------------------
muR : 0.1
sigmaR : 0
zoom, s : 1
sigmaFilter : 0.8
NmonteCarlo : 800
xA : 0
yA : 0
xB : 1920
yB : 1440
randomizeSeed : 1
------------------
Output image size is 1920 x 1440
blocks.x : 69
blocks.y : 52
blocks.z : 1
Time to generate:  55746.3 ms; Framerate: 0.02 images/sec
image size : 1920 x 1440
------------------
muR : 0.1
sigmaR : 0
zoom, s : 1
sigmaFilter : 0.8
NmonteCarlo : 800
xA : 0
yA : 0
xB : 1920
yB : 1440
randomizeSeed : 1
------------------
Output image size is 1920 x 1440
blocks.x : 69
blocks.y : 52
blocks.z : 1
Time to generate:  68101.4 ms; Framerate: 0.01 images/sec
output file name : 22.png
time elapsed : 200.25
***************************


Input image size : 1920 x 1440
grainRadius : 0.1
sigmaR : 0
sigmaFilter : 0.8
NmonteCarlo : 800
colour
xA : 0
yA : 0
xB : 1920
yB : 1440
mOut : 1440
nOut : 1920
randomizeSeed : 1
***************************
image size : 1920 x 1440
------------------
muR : 0.1
sigmaR : 0
zoom, s : 1
sigmaFilter : 0.8
NmonteCarlo : 800
xA : 0
yA : 0
xB : 1920
yB : 1440
randomizeSeed : 1
------------------
Output image size is 1920 x 1440
blocks.x : 69
blocks.y : 52
blocks.z : 1
Time to generate:  116544.6 ms; Framerate: 0.01 images/sec
image size : 1920 x 1440
------------------
muR : 0.1
sigmaR : 0
zoom, s : 1
sigmaFilter : 0.8
NmonteCarlo : 800
xA : 0
yA : 0
xB : 1920
yB : 1440
randomizeSeed : 1
------------------
Output image size is 1920 x 1440
blocks.x : 69
blocks.y : 52
blocks.z : 1
Time to generate:  108230.9 ms; Framerate: 0.01 images/sec
image size : 1920 x 1440
------------------
muR : 0.1
sigmaR : 0
zoom, s : 1
sigmaFilter : 0.8
NmonteCarlo : 800
xA : 0
yA : 0
xB : 1920
yB : 1440
randomizeSeed : 1
------------------
Output image size is 1920 x 1440
blocks.x : 69
blocks.y : 52
blocks.z : 1
Time to generate:  102242.5 ms; Framerate: 0.01 images/sec
output file name : 22.png
time elapsed : 333.349
***************************


Input image size : 1920 x 1440
grainRadius : 0.1
sigmaR : 0
sigmaFilter : 0.8
NmonteCarlo : 800
colour
xA : 0
yA : 0
xB : 1920
yB : 1440
mOut : 1440
nOut : 1920
randomizeSeed : 1
***************************
image size : 1920 x 1440
------------------
muR : 0.1
sigmaR : 0
zoom, s : 1
sigmaFilter : 0.8
NmonteCarlo : 800
xA : 0
yA : 0
xB : 1920
yB : 1440
randomizeSeed : 1
------------------
Output image size is 1920 x 1440
blocks.x : 69
blocks.y : 52
blocks.z : 1
Time to generate:  113645.0 ms; Framerate: 0.01 images/sec
image size : 1920 x 1440
------------------
muR : 0.1
sigmaR : 0
zoom, s : 1
sigmaFilter : 0.8
NmonteCarlo : 800
xA : 0
yA : 0
xB : 1920
yB : 1440
randomizeSeed : 1
------------------
Output image size is 1920 x 1440
blocks.x : 69
blocks.y : 52
blocks.z : 1
Time to generate:  94582.9 ms; Framerate: 0.01 images/sec
image size : 1920 x 1440
------------------
muR : 0.1
sigmaR : 0
zoom, s : 1
sigmaFilter : 0.8
NmonteCarlo : 800
xA : 0
yA : 0
xB : 1920
yB : 1440
randomizeSeed : 1
------------------
Output image size is 1920 x 1440
blocks.x : 69
blocks.y : 52
blocks.z : 1
Time to generate:  93299.8 ms; Framerate: 0.01 images/sec
output file name : 22.png
time elapsed : 308.417
***************************


Input image size : 1920 x 1440
grainRadius : 0.1
sigmaR : 0
sigmaFilter : 0.8
NmonteCarlo : 800
colour
xA : 0
yA : 0
xB : 1920
yB : 1440
mOut : 1440
nOut : 1920
randomizeSeed : 1
***************************
image size : 1920 x 1440
------------------
muR : 0.1
sigmaR : 0
zoom, s : 1
sigmaFilter : 0.8
NmonteCarlo : 800
xA : 0
yA : 0
xB : 1920
yB : 1440
randomizeSeed : 1
------------------
Output image size is 1920 x 1440
blocks.x : 69
blocks.y : 52
blocks.z : 1
Time to generate:  6587.8 ms; Framerate: 0.15 images/sec
image size : 1920 x 1440
------------------
muR : 0.1
sigmaR : 0
zoom, s : 1
sigmaFilter : 0.8
NmonteCarlo : 800
xA : 0
yA : 0
xB : 1920
yB : 1440
randomizeSeed : 1
------------------
Output image size is 1920 x 1440
blocks.x : 69
blocks.y : 52
blocks.z : 1
Time to generate:  7946.6 ms; Framerate: 0.13 images/sec
image size : 1920 x 1440
------------------
muR : 0.1
sigmaR : 0
zoom, s : 1
sigmaFilter : 0.8
NmonteCarlo : 800
xA : 0
yA : 0
xB : 1920
yB : 1440
randomizeSeed : 1
------------------
Output image size is 1920 x 1440
blocks.x : 69
blocks.y : 52
blocks.z : 1
Time to generate:  7623.4 ms; Framerate: 0.13 images/sec
output file name : 22.png
time elapsed : 29.0382
***************************


Input image size : 1920 x 1440
grainRadius : 0.1
sigmaR : 0
sigmaFilter : 0.8
NmonteCarlo : 800
colour
xA : 0
yA : 0
xB : 1920
yB : 1440
mOut : 1440
nOut : 1920
randomizeSeed : 1
***************************
image size : 1920 x 1440
------------------
muR : 0.1
sigmaR : 0
zoom, s : 1
sigmaFilter : 0.8
NmonteCarlo : 800
xA : 0
yA : 0
xB : 1920
yB : 1440
randomizeSeed : 1
------------------
Output image size is 1920 x 1440
blocks.x : 69
blocks.y : 52
blocks.z : 1
Time to generate:  68003.1 ms; Framerate: 0.01 images/sec
image size : 1920 x 1440
------------------
muR : 0.1
sigmaR : 0
zoom, s : 1
sigmaFilter : 0.8
NmonteCarlo : 800
xA : 0
yA : 0
xB : 1920
yB : 1440
randomizeSeed : 1
------------------
Output image size is 1920 x 1440
blocks.x : 69
blocks.y : 52
blocks.z : 1
Time to generate:  5407.5 ms; Framerate: 0.18 images/sec
image size : 1920 x 1440
------------------
muR : 0.1
sigmaR : 0
zoom, s : 1
sigmaFilter : 0.8
NmonteCarlo : 800
xA : 0
yA : 0
xB : 1920
yB : 1440
randomizeSeed : 1
------------------
Output image size is 1920 x 1440
blocks.x : 69
blocks.y : 52
blocks.z : 1
Time to generate:  7438.8 ms; Framerate: 0.13 images/sec
output file name : 22.png
time elapsed : 86.8296
***************************


Input image size : 1920 x 1440
grainRadius : 0.1
sigmaR : 0
sigmaFilter : 0.8
NmonteCarlo : 800
colour
xA : 0
yA : 0
xB : 1920
yB : 1440
mOut : 1440
nOut : 1920
randomizeSeed : 1
***************************
image size : 1920 x 1440
------------------
muR : 0.1
sigmaR : 0
zoom, s : 1
sigmaFilter : 0.8
NmonteCarlo : 800
xA : 0
yA : 0
xB : 1920
yB : 1440
randomizeSeed : 1
------------------
Output image size is 1920 x 1440
blocks.x : 69
blocks.y : 52
blocks.z : 1
Time to generate:  2991.9 ms; Framerate: 0.33 images/sec
image size : 1920 x 1440
------------------
muR : 0.1
sigmaR : 0
zoom, s : 1
sigmaFilter : 0.8
NmonteCarlo : 800
xA : 0
yA : 0
xB : 1920
yB : 1440
randomizeSeed : 1
------------------
Output image size is 1920 x 1440
blocks.x : 69
blocks.y : 52
blocks.z : 1
Time to generate:  2991.2 ms; Framerate: 0.33 images/sec
image size : 1920 x 1440
------------------
muR : 0.1
sigmaR : 0
zoom, s : 1
sigmaFilter : 0.8
NmonteCarlo : 800
xA : 0
yA : 0
xB : 1920
yB : 1440
randomizeSeed : 1
------------------
Output image size is 1920 x 1440
blocks.x : 69
blocks.y : 52
blocks.z : 1
Time to generate:  2822.2 ms; Framerate: 0.35 images/sec
output file name : 22.png
time elapsed : 15.2073
***************************


Input image size : 1920 x 1440
grainRadius : 0.1
sigmaR : 0
sigmaFilter : 0.8
NmonteCarlo : 800
colour
xA : 0
yA : 0
xB : 1920
yB : 1440
mOut : 1440
nOut : 1920
randomizeSeed : 1
***************************
image size : 1920 x 1440
------------------
muR : 0.1
sigmaR : 0
zoom, s : 1
sigmaFilter : 0.8
NmonteCarlo : 800
xA : 0
yA : 0
xB : 1920
yB : 1440
randomizeSeed : 1
------------------
Output image size is 1920 x 1440
blocks.x : 69
blocks.y : 52
blocks.z : 1
Time to generate:  3367.1 ms; Framerate: 0.30 images/sec
image size : 1920 x 1440
------------------
muR : 0.1
sigmaR : 0
zoom, s : 1
sigmaFilter : 0.8
NmonteCarlo : 800
xA : 0
yA : 0
xB : 1920
yB : 1440
randomizeSeed : 1
------------------
Output image size is 1920 x 1440
blocks.x : 69
blocks.y : 52
blocks.z : 1
Time to generate:  2836.3 ms; Framerate: 0.35 images/sec
image size : 1920 x 1440
------------------
muR : 0.1
sigmaR : 0
zoom, s : 1
sigmaFilter : 0.8
NmonteCarlo : 800
xA : 0
yA : 0
xB : 1920
yB : 1440
randomizeSeed : 1
------------------
Output image size is 1920 x 1440
blocks.x : 69
blocks.y : 52
blocks.z : 1
Time to generate:  2893.4 ms; Framerate: 0.35 images/sec
output file name : 22.png
time elapsed : 15.7207
***************************


Input image size : 1920 x 1440
grainRadius : 0.1
sigmaR : 0
sigmaFilter : 0.8
NmonteCarlo : 800
colour
xA : 0
yA : 0
xB : 1920
yB : 1440
mOut : 1440
nOut : 1920
randomizeSeed : 1
***************************
image size : 1920 x 1440
------------------
muR : 0.1
sigmaR : 0
zoom, s : 1
sigmaFilter : 0.8
NmonteCarlo : 800
xA : 0
yA : 0
xB : 1920
yB : 1440
randomizeSeed : 1
------------------
Output image size is 1920 x 1440
blocks.x : 69
blocks.y : 52
blocks.z : 1
Time to generate:  3055.4 ms; Framerate: 0.33 images/sec
image size : 1920 x 1440
------------------
muR : 0.1
sigmaR : 0
zoom, s : 1
sigmaFilter : 0.8
NmonteCarlo : 800
xA : 0
yA : 0
xB : 1920
yB : 1440
randomizeSeed : 1
------------------
Output image size is 1920 x 1440
blocks.x : 69
blocks.y : 52
blocks.z : 1
Time to generate:  2812.3 ms; Framerate: 0.36 images/sec
image size : 1920 x 1440
------------------
muR : 0.1
sigmaR : 0
zoom, s : 1
sigmaFilter : 0.8
NmonteCarlo : 800
xA : 0
yA : 0
xB : 1920
yB : 1440
randomizeSeed : 1
------------------
Output image size is 1920 x 1440
blocks.x : 69
blocks.y : 52
blocks.z : 1
Time to generate:  2889.2 ms; Framerate: 0.35 images/sec
output file name : 22.png
time elapsed : 15.643
***************************


Input image size : 1920 x 1440
grainRadius : 0.1
sigmaR : 0
sigmaFilter : 0.8
NmonteCarlo : 800
colour
xA : 0
yA : 0
xB : 1920
yB : 1440
mOut : 1440
nOut : 1920
randomizeSeed : 1
***************************
image size : 1920 x 1440
------------------
muR : 0.1
sigmaR : 0
zoom, s : 1
sigmaFilter : 0.8
NmonteCarlo : 800
xA : 0
yA : 0
xB : 1920
yB : 1440
randomizeSeed : 1
------------------
Output image size is 1920 x 1440
blocks.x : 69
blocks.y : 52
blocks.z : 1
Time to generate:  361109.6 ms; Framerate: 0.00 images/sec
image size : 1920 x 1440
------------------
muR : 0.1
sigmaR : 0
zoom, s : 1
sigmaFilter : 0.8
NmonteCarlo : 800
xA : 0
yA : 0
xB : 1920
yB : 1440
randomizeSeed : 1
------------------
Output image size is 1920 x 1440
blocks.x : 69
blocks.y : 52
blocks.z : 1
Time to generate:  307539.5 ms; Framerate: 0.00 images/sec
image size : 1920 x 1440
------------------
muR : 0.1
sigmaR : 0
zoom, s : 1
sigmaFilter : 0.8
NmonteCarlo : 800
xA : 0
yA : 0
xB : 1920
yB : 1440
randomizeSeed : 1
------------------
Output image size is 1920 x 1440
blocks.x : 69
blocks.y : 52
blocks.z : 1
Time to generate:  325472.1 ms; Framerate: 0.00 images/sec
output file name : 22.png
time elapsed : 1000.3
***************************


Input image size : 1920 x 1440
grainRadius : 0.1
sigmaR : 0
sigmaFilter : 0.8
NmonteCarlo : 800
colour
xA : 0
yA : 0
xB : 1920
yB : 1440
mOut : 1440
nOut : 1920
randomizeSeed : 1
***************************
image size : 1920 x 1440
------------------
muR : 0.1
sigmaR : 0
zoom, s : 1
sigmaFilter : 0.8
NmonteCarlo : 800
xA : 0
yA : 0
xB : 1920
yB : 1440
randomizeSeed : 1
------------------
Output image size is 1920 x 1440
blocks.x : 69
blocks.y : 52
blocks.z : 1
Time to generate:  341040.3 ms; Framerate: 0.00 images/sec
image size : 1920 x 1440
------------------
muR : 0.1
sigmaR : 0
zoom, s : 1
sigmaFilter : 0.8
NmonteCarlo : 800
xA : 0
yA : 0
xB : 1920
yB : 1440
randomizeSeed : 1
------------------
Output image size is 1920 x 1440
blocks.x : 69
blocks.y : 52
blocks.z : 1
Time to generate:  275542.2 ms; Framerate: 0.00 images/sec
image size : 1920 x 1440
------------------
muR : 0.1
sigmaR : 0
zoom, s : 1
sigmaFilter : 0.8
NmonteCarlo : 800
xA : 0
yA : 0
xB : 1920
yB : 1440
randomizeSeed : 1
------------------
Output image size is 1920 x 1440
blocks.x : 69
blocks.y : 52
blocks.z : 1
Time to generate:  266647.7 ms; Framerate: 0.00 images/sec
output file name : 22.png
time elapsed : 888.87
***************************


Input image size : 1920 x 1440
grainRadius : 0.1
sigmaR : 0
sigmaFilter : 0.8
NmonteCarlo : 800
colour
xA : 0
yA : 0
xB : 1920
yB : 1440
mOut : 1440
nOut : 1920
randomizeSeed : 1
***************************
image size : 1920 x 1440
------------------
muR : 0.1
sigmaR : 0
zoom, s : 1
sigmaFilter : 0.8
NmonteCarlo : 800
xA : 0
yA : 0
xB : 1920
yB : 1440
randomizeSeed : 1
------------------
Output image size is 1920 x 1440
blocks.x : 69
blocks.y : 52
blocks.z : 1
Time to generate:  2827.1 ms; Framerate: 0.35 images/sec
image size : 1920 x 1440
------------------
muR : 0.1
sigmaR : 0
zoom, s : 1
sigmaFilter : 0.8
NmonteCarlo : 800
xA : 0
yA : 0
xB : 1920
yB : 1440
randomizeSeed : 1
------------------
Output image size is 1920 x 1440
blocks.x : 69
blocks.y : 52
blocks.z : 1
Time to generate:  2658.5 ms; Framerate: 0.38 images/sec
image size : 1920 x 1440
------------------
muR : 0.1
sigmaR : 0
zoom, s : 1
sigmaFilter : 0.8
NmonteCarlo : 800
xA : 0
yA : 0
xB : 1920
yB : 1440
randomizeSeed : 1
------------------
Output image size is 1920 x 1440
blocks.x : 69
blocks.y : 52
blocks.z : 1
Time to generate:  2738.4 ms; Framerate: 0.37 images/sec
output file name : 22.png
time elapsed : 14.1802
***************************


Input image size : 1920 x 1440
grainRadius : 0.1
sigmaR : 0
sigmaFilter : 0.8
NmonteCarlo : 800
colour
xA : 0
yA : 0
xB : 1920
yB : 1440
mOut : 1440
nOut : 1920
randomizeSeed : 1
***************************
image size : 1920 x 1440
------------------
muR : 0.1
sigmaR : 0
zoom, s : 1
sigmaFilter : 0.8
NmonteCarlo : 800
xA : 0
yA : 0
xB : 1920
yB : 1440
randomizeSeed : 1
------------------
Output image size is 1920 x 1440
blocks.x : 69
blocks.y : 52
blocks.z : 1
Time to generate:  2887.4 ms; Framerate: 0.35 images/sec
image size : 1920 x 1440
------------------
muR : 0.1
sigmaR : 0
zoom, s : 1
sigmaFilter : 0.8
NmonteCarlo : 800
xA : 0
yA : 0
xB : 1920
yB : 1440
randomizeSeed : 1
------------------
Output image size is 1920 x 1440
blocks.x : 69
blocks.y : 52
blocks.z : 1
Time to generate:  2658.0 ms; Framerate: 0.38 images/sec
image size : 1920 x 1440
------------------
muR : 0.1
sigmaR : 0
zoom, s : 1
sigmaFilter : 0.8
NmonteCarlo : 800
xA : 0
yA : 0
xB : 1920
yB : 1440
randomizeSeed : 1
------------------
Output image size is 1920 x 1440
blocks.x : 69
blocks.y : 52
blocks.z : 1
Time to generate:  2857.2 ms; Framerate: 0.35 images/sec
output file name : 22.png
time elapsed : 14.1405
***************************


Cost time is 98 min 26 s
