      0.68      -0.21       0.57       0.60       0.82      -0.60 
     -0.33       0.54      -0.44       0.11      -0.05       0.26 
     -0.27       0.03       0.90       0.83       0.27       0.43 
     -0.72       0.21      -0.97      -0.51      -0.73       0.61 
     -0.69      -0.20      -0.74      -0.78       1.00      -0.56 
      0.03       0.68       0.23      -0.41       0.28       0.05 

      0.68      -0.21       0.57       0.60       0.82      -0.60 
     -0.33       0.54      -0.44       0.11      -0.05       0.26 
     -0.27       0.03       0.90       0.83       0.27       0.43 
     -0.72       0.21      -0.97      -0.51      -0.73       0.61 
     -0.69      -0.20      -0.74      -0.78       1.00      -0.56 
      0.03       0.68       0.23      -0.41       0.28       0.05 

      0.68      -0.21       0.57       0.60       0.82      -0.60 
     -0.33       0.54      -0.44       0.11      -0.05       0.26 
     -0.27       0.03       0.90       0.83       0.27       0.43 
     -0.72       0.21      -0.97      -0.51      -0.73       0.61 
     -0.69      -0.20      -0.74      -0.78       1.00      -0.56 
      0.03       0.68       0.23      -0.41       0.28       0.05 

      0.68      -0.21       0.57       0.60       0.82      -0.60 
     -0.33       0.54      -0.44       0.11      -0.05       0.26 
     -0.27       0.03       0.90       0.83       0.27       0.43 
     -0.72       0.21      -0.97      -0.51      -0.73       0.61 
     -0.69      -0.20      -0.74      -0.78       1.00      -0.56 
      0.03       0.68       0.23      -0.41       0.28       0.05 

      0.68      -0.21       0.57       0.60       0.82      -0.60 
     -0.33       0.54      -0.44       0.11      -0.05       0.26 
     -0.27       0.03       0.90       0.83       0.27       0.43 
     -0.72       0.21      -0.97      -0.51      -0.73       0.61 
     -0.69      -0.20      -0.74      -0.78       1.00      -0.56 
      0.03       0.68       0.23      -0.41       0.28       0.05 

      0.68      -0.21       0.57       0.60       0.82      -0.60 
     -0.33       0.54      -0.44       0.11      -0.05       0.26 
     -0.27       0.03       0.90       0.83       0.27       0.43 
     -0.72       0.21      -0.97      -0.51      -0.73       0.61 
     -0.69      -0.20      -0.74      -0.78       1.00      -0.56 
      0.03       0.68       0.23      -0.41       0.28       0.05 

      0.68      -0.21       0.57       0.60       0.82      -0.60 
     -0.33       0.54      -0.44       0.11      -0.05       0.26 
     -0.27       0.03       0.90       0.83       0.27       0.43 
     -0.72       0.21      -0.97      -0.51      -0.73       0.61 
     -0.69      -0.20      -0.74      -0.78       1.00      -0.56 
      0.03       0.68       0.23      -0.41       0.28       0.05 

      0.68      -0.21       0.57       0.60       0.82      -0.60 
     -0.33       0.54      -0.44       0.11      -0.05       0.26 
     -0.27       0.03       0.90       0.83       0.27       0.43 
     -0.72       0.21      -0.97      -0.51      -0.73       0.61 
     -0.69      -0.20      -0.74      -0.78       1.00      -0.56 
      0.03       0.68       0.23      -0.41       0.28       0.05 

      0.68      -0.21       0.57       0.60       0.82      -0.60 
     -0.33       0.54      -0.44       0.11      -0.05       0.26 
     -0.27       0.03       0.90       0.83       0.27       0.43 
     -0.72       0.21      -0.97      -0.51      -0.73       0.61 
     -0.69      -0.20      -0.74      -0.78       1.00      -0.56 
      0.03       0.68       0.23      -0.41       0.28       0.05 

      0.68      -0.21       0.57       0.60       0.82      -0.60 
     -0.33       0.54      -0.44       0.11      -0.05       0.26 
     -0.27       0.03       0.90       0.83       0.27       0.43 
     -0.72       0.21      -0.97      -0.51      -0.73       0.61 
     -0.69      -0.20      -0.74      -0.78       1.00      -0.56 
      0.03       0.68       0.23      -0.41       0.28       0.05 

      0.68      -0.21       0.57       0.60       0.82      -0.60 
     -0.33       0.54      -0.44       0.11      -0.05       0.26 
     -0.27       0.03       0.90       0.83       0.27       0.43 
     -0.72       0.21      -0.97      -0.51      -0.73       0.61 
     -0.69      -0.20      -0.74      -0.78       1.00      -0.56 
      0.03       0.68       0.23      -0.41       0.28       0.05 

      0.68      -0.21       0.57       0.60       0.82      -0.60 
     -0.33       0.54      -0.44       0.11      -0.05       0.26 
     -0.27       0.03       0.90       0.83       0.27       0.43 
     -0.72       0.21      -0.97      -0.51      -0.73       0.61 
     -0.69      -0.20      -0.74      -0.78       1.00      -0.56 
      0.03       0.68       0.23      -0.41       0.28       0.05 

      0.68      -0.21       0.57       0.60       0.82      -0.60 
     -0.33       0.54      -0.44       0.11      -0.05       0.26 
     -0.27       0.03       0.90       0.83       0.27       0.43 
     -0.72       0.21      -0.97      -0.51      -0.73       0.61 
     -0.69      -0.20      -0.74      -0.78       1.00      -0.56 
      0.03       0.68       0.23      -0.41       0.28       0.05 

      0.68      -0.21       0.57       0.60       0.82      -0.60 
     -0.33       0.54      -0.44       0.11      -0.05       0.26 
     -0.27       0.03       0.90       0.83       0.27       0.43 
     -0.72       0.21      -0.97      -0.51      -0.73       0.61 
     -0.69      -0.20      -0.74      -0.78       1.00      -0.56 
      0.03       0.68       0.23      -0.41       0.28       0.05 

      0.68      -0.21       0.57       0.60       0.82      -0.60 
     -0.33       0.54      -0.44       0.11      -0.05       0.26 
     -0.27       0.03       0.90       0.83       0.27       0.43 
     -0.72       0.21      -0.97      -0.51      -0.73       0.61 
     -0.69      -0.20      -0.74      -0.78       1.00      -0.56 
      0.03       0.68       0.23      -0.41       0.28       0.05 

      0.68      -0.21       0.57       0.60       0.82      -0.60 
     -0.33       0.54      -0.44       0.11      -0.05       0.26 
     -0.27       0.03       0.90       0.83       0.27       0.43 
     -0.72       0.21      -0.97      -0.51      -0.73       0.61 
     -0.69      -0.20      -0.74      -0.78       1.00      -0.56 
      0.03       0.68       0.23      -0.41       0.28       0.05 

      0.68      -0.21       0.57       0.60       0.82      -0.60 
     -0.33       0.54      -0.44       0.11      -0.05       0.26 
     -0.27       0.03       0.90       0.83       0.27       0.43 
     -0.72       0.21      -0.97      -0.51      -0.73       0.61 
     -0.69      -0.20      -0.74      -0.78       1.00      -0.56 
      0.03       0.68       0.23      -0.41       0.28       0.05 

      0.68      -0.21       0.57       0.60       0.82      -0.60 
     -0.33       0.54      -0.44       0.11      -0.05       0.26 
     -0.27       0.03       0.90       0.83       0.27       0.43 
     -0.72       0.21      -0.97      -0.51      -0.73       0.61 
     -0.69      -0.20      -0.74      -0.78       1.00      -0.56 
      0.03       0.68       0.23      -0.41       0.28       0.05 

      0.68      -0.21       0.57       0.60       0.82      -0.60 
     -0.33       0.54      -0.44       0.11      -0.05       0.26 
     -0.27       0.03       0.90       0.83       0.27       0.43 
     -0.72       0.21      -0.97      -0.51      -0.73       0.61 
     -0.69      -0.20      -0.74      -0.78       1.00      -0.56 
      0.03       0.68       0.23      -0.41       0.28       0.05 

      0.68      -0.21       0.57       0.60       0.82      -0.60 
     -0.33       0.54      -0.44       0.11      -0.05       0.26 
     -0.27       0.03       0.90       0.83       0.27       0.43 
     -0.72       0.21      -0.97      -0.51      -0.73       0.61 
     -0.69      -0.20      -0.74      -0.78       1.00      -0.56 
      0.03       0.68       0.23      -0.41       0.28       0.05 

      0.68      -0.21       0.57       0.60       0.82      -0.60 
     -0.33       0.54      -0.44       0.11      -0.05       0.26 
     -0.27       0.03       0.90       0.83       0.27       0.43 
     -0.72       0.21      -0.97      -0.51      -0.73       0.61 
     -0.69      -0.20      -0.74      -0.78       1.00      -0.56 
      0.03       0.68       0.23      -0.41       0.28       0.05 

      0.68      -0.21       0.57       0.60       0.82      -0.60 
     -0.33       0.54      -0.44       0.11      -0.05       0.26 
     -0.27       0.03       0.90       0.83       0.27       0.43 
     -0.72       0.21      -0.97      -0.51      -0.73       0.61 
     -0.69      -0.20      -0.74      -0.78       1.00      -0.56 
      0.03       0.68       0.23      -0.41       0.28       0.05 

      0.68      -0.21       0.57       0.60       0.82      -0.60 
     -0.33       0.54      -0.44       0.11      -0.05       0.26 
     -0.27       0.03       0.90       0.83       0.27       0.43 
     -0.72       0.21      -0.97      -0.51      -0.73       0.61 
     -0.69      -0.20      -0.74      -0.78       1.00      -0.56 
      0.03       0.68       0.23      -0.41       0.28       0.05 

      0.68      -0.21       0.57       0.60       0.82      -0.60 
     -0.33       0.54      -0.44       0.11      -0.05       0.26 
     -0.27       0.03       0.90       0.83       0.27       0.43 
     -0.72       0.21      -0.97      -0.51      -0.73       0.61 
     -0.69      -0.20      -0.74      -0.78       1.00      -0.56 
      0.03       0.68       0.23      -0.41       0.28       0.05 

      0.68      -0.21       0.57       0.60       0.82      -0.60 
     -0.33       0.54      -0.44       0.11      -0.05       0.26 
     -0.27       0.03       0.90       0.83       0.27       0.43 
     -0.72       0.21      -0.97      -0.51      -0.73       0.61 
     -0.69      -0.20      -0.74      -0.78       1.00      -0.56 
      0.03       0.68       0.23      -0.41       0.28       0.05 

      0.68      -0.21       0.57       0.60       0.82      -0.60 
     -0.33       0.54      -0.44       0.11      -0.05       0.26 
     -0.27       0.03       0.90       0.83       0.27       0.43 
     -0.72       0.21      -0.97      -0.51      -0.73       0.61 
     -0.69      -0.20      -0.74      -0.78       1.00      -0.56 
      0.03       0.68       0.23      -0.41       0.28       0.05 

      0.68      -0.21       0.57       0.60       0.82      -0.60 
     -0.33       0.54      -0.44       0.11      -0.05       0.26 
     -0.27       0.03       0.90       0.83       0.27       0.43 
     -0.72       0.21      -0.97      -0.51      -0.73       0.61 
     -0.69      -0.20      -0.74      -0.78       1.00      -0.56 
      0.03       0.68       0.23      -0.41       0.28       0.05 

      0.68      -0.21       0.57       0.60       0.82      -0.60 
     -0.33       0.54      -0.44       0.11      -0.05       0.26 
     -0.27       0.03       0.90       0.83       0.27       0.43 
     -0.72       0.21      -0.97      -0.51      -0.73       0.61 
     -0.69      -0.20      -0.74      -0.78       1.00      -0.56 
      0.03       0.68       0.23      -0.41       0.28       0.05 

      0.68      -0.21       0.57       0.60       0.82      -0.60 
     -0.33       0.54      -0.44       0.11      -0.05       0.26 
     -0.27       0.03       0.90       0.83       0.27       0.43 
     -0.72       0.21      -0.97      -0.51      -0.73       0.61 
     -0.69      -0.20      -0.74      -0.78       1.00      -0.56 
      0.03       0.68       0.23      -0.41       0.28       0.05 

      0.68      -0.21       0.57       0.60       0.82      -0.60 
     -0.33       0.54      -0.44       0.11      -0.05       0.26 
     -0.27       0.03       0.90       0.83       0.27       0.43 
     -0.72       0.21      -0.97      -0.51      -0.73       0.61 
     -0.69      -0.20      -0.74      -0.78       1.00      -0.56 
      0.03       0.68       0.23      -0.41       0.28       0.05 

      0.68      -0.21       0.57       0.60       0.82      -0.60 
     -0.33       0.54      -0.44       0.11      -0.05       0.26 
     -0.27       0.03       0.90       0.83       0.27       0.43 
     -0.72       0.21      -0.97      -0.51      -0.73       0.61 
     -0.69      -0.20      -0.74      -0.78       1.00      -0.56 
      0.03       0.68       0.23      -0.41       0.28       0.05 

      0.68      -0.21       0.57       0.60       0.82      -0.60 
     -0.33       0.54      -0.44       0.11      -0.05       0.26 
     -0.27       0.03       0.90       0.83       0.27       0.43 
     -0.72       0.21      -0.97      -0.51      -0.73       0.61 
     -0.69      -0.20      -0.74      -0.78       1.00      -0.56 
      0.03       0.68       0.23      -0.41       0.28       0.05 

      0.68      -0.21       0.57       0.60       0.82      -0.60 
     -0.33       0.54      -0.44       0.11      -0.05       0.26 
     -0.27       0.03       0.90       0.83       0.27       0.43 
     -0.72       0.21      -0.97      -0.51      -0.73       0.61 
     -0.69      -0.20      -0.74      -0.78       1.00      -0.56 
      0.03       0.68       0.23      -0.41       0.28       0.05 

      0.68      -0.21       0.57       0.60       0.82      -0.60 
     -0.33       0.54      -0.44       0.11      -0.05       0.26 
     -0.27       0.03       0.90       0.83       0.27       0.43 
     -0.72       0.21      -0.97      -0.51      -0.73       0.61 
     -0.69      -0.20      -0.74      -0.78       1.00      -0.56 
      0.03       0.68       0.23      -0.41       0.28       0.05 

      0.68      -0.21       0.57       0.60       0.82      -0.60 
     -0.33       0.54      -0.44       0.11      -0.05       0.26 
     -0.27       0.03       0.90       0.83       0.27       0.43 
     -0.72       0.21      -0.97      -0.51      -0.73       0.61 
     -0.69      -0.20      -0.74      -0.78       1.00      -0.56 
      0.03       0.68       0.23      -0.41       0.28       0.05 

      0.68      -0.21       0.57       0.60       0.82      -0.60 
     -0.33       0.54      -0.44       0.11      -0.05       0.26 
     -0.27       0.03       0.90       0.83       0.27       0.43 
     -0.72       0.21      -0.97      -0.51      -0.73       0.61 
     -0.69      -0.20      -0.74      -0.78       1.00      -0.56 
      0.03       0.68       0.23      -0.41       0.28       0.05 

      0.68      -0.21       0.57       0.60       0.82      -0.60 
     -0.33       0.54      -0.44       0.11      -0.05       0.26 
     -0.27       0.03       0.90       0.83       0.27       0.43 
     -0.72       0.21      -0.97      -0.51      -0.73       0.61 
     -0.69      -0.20      -0.74      -0.78       1.00      -0.56 
      0.03       0.68       0.23      -0.41       0.28       0.05 

      0.68      -0.21       0.57       0.60       0.82      -0.60 
     -0.33       0.54      -0.44       0.11      -0.05       0.26 
     -0.27       0.03       0.90       0.83       0.27       0.43 
     -0.72       0.21      -0.97      -0.51      -0.73       0.61 
     -0.69      -0.20      -0.74      -0.78       1.00      -0.56 
      0.03       0.68       0.23      -0.41       0.28       0.05 

      0.68      -0.21       0.57       0.60       0.82      -0.60 
     -0.33       0.54      -0.44       0.11      -0.05       0.26 
     -0.27       0.03       0.90       0.83       0.27       0.43 
     -0.72       0.21      -0.97      -0.51      -0.73       0.61 
     -0.69      -0.20      -0.74      -0.78       1.00      -0.56 
      0.03       0.68       0.23      -0.41       0.28       0.05 

      0.68      -0.21       0.57       0.60       0.82      -0.60 
     -0.33       0.54      -0.44       0.11      -0.05       0.26 
     -0.27       0.03       0.90       0.83       0.27       0.43 
     -0.72       0.21      -0.97      -0.51      -0.73       0.61 
     -0.69      -0.20      -0.74      -0.78       1.00      -0.56 
      0.03       0.68       0.23      -0.41       0.28       0.05 

      0.68      -0.21       0.57       0.60       0.82      -0.60 
     -0.33       0.54      -0.44       0.11      -0.05       0.26 
     -0.27       0.03       0.90       0.83       0.27       0.43 
     -0.72       0.21      -0.97      -0.51      -0.73       0.61 
     -0.69      -0.20      -0.74      -0.78       1.00      -0.56 
      0.03       0.68       0.23      -0.41       0.28       0.05 

      0.68      -0.21       0.57       0.60       0.82      -0.60 
     -0.33       0.54      -0.44       0.11      -0.05       0.26 
     -0.27       0.03       0.90       0.83       0.27       0.43 
     -0.72       0.21      -0.97      -0.51      -0.73       0.61 
     -0.69      -0.20      -0.74      -0.78       1.00      -0.56 
      0.03       0.68       0.23      -0.41       0.28       0.05 

      0.68      -0.21       0.57       0.60       0.82      -0.60 
     -0.33       0.54      -0.44       0.11      -0.05       0.26 
     -0.27       0.03       0.90       0.83       0.27       0.43 
     -0.72       0.21      -0.97      -0.51      -0.73       0.61 
     -0.69      -0.20      -0.74      -0.78       1.00      -0.56 
      0.03       0.68       0.23      -0.41       0.28       0.05 

      0.68      -0.21       0.57       0.60       0.82      -0.60 
     -0.33       0.54      -0.44       0.11      -0.05       0.26 
     -0.27       0.03       0.90       0.83       0.27       0.43 
     -0.72       0.21      -0.97      -0.51      -0.73       0.61 
     -0.69      -0.20      -0.74      -0.78       1.00      -0.56 
      0.03       0.68       0.23      -0.41       0.28       0.05 

      0.68      -0.21       0.57       0.60       0.82      -0.60 
     -0.33       0.54      -0.44       0.11      -0.05       0.26 
     -0.27       0.03       0.90       0.83       0.27       0.43 
     -0.72       0.21      -0.97      -0.51      -0.73       0.61 
     -0.69      -0.20      -0.74      -0.78       1.00      -0.56 
      0.03       0.68       0.23      -0.41       0.28       0.05 

      0.68      -0.21       0.57       0.60       0.82      -0.60 
     -0.33       0.54      -0.44       0.11      -0.05       0.26 
     -0.27       0.03       0.90       0.83       0.27       0.43 
     -0.72       0.21      -0.97      -0.51      -0.73       0.61 
     -0.69      -0.20      -0.74      -0.78       1.00      -0.56 
      0.03       0.68       0.23      -0.41       0.28       0.05 

      0.68      -0.21       0.57       0.60       0.82      -0.60 
     -0.33       0.54      -0.44       0.11      -0.05       0.26 
     -0.27       0.03       0.90       0.83       0.27       0.43 
     -0.72       0.21      -0.97      -0.51      -0.73       0.61 
     -0.69      -0.20      -0.74      -0.78       1.00      -0.56 
      0.03       0.68       0.23      -0.41       0.28       0.05 

      0.68      -0.21       0.57       0.60       0.82      -0.60 
     -0.33       0.54      -0.44       0.11      -0.05       0.26 
     -0.27       0.03       0.90       0.83       0.27       0.43 
     -0.72       0.21      -0.97      -0.51      -0.73       0.61 
     -0.69      -0.20      -0.74      -0.78       1.00      -0.56 
      0.03       0.68       0.23      -0.41       0.28       0.05 

      0.68      -0.21       0.57       0.60       0.82      -0.60 
     -0.33       0.54      -0.44       0.11      -0.05       0.26 
     -0.27       0.03       0.90       0.83       0.27       0.43 
     -0.72       0.21      -0.97      -0.51      -0.73       0.61 
     -0.69      -0.20      -0.74      -0.78       1.00      -0.56 
      0.03       0.68       0.23      -0.41       0.28       0.05 

      0.68      -0.21       0.57       0.60       0.82      -0.60 
     -0.33       0.54      -0.44       0.11      -0.05       0.26 
     -0.27       0.03       0.90       0.83       0.27       0.43 
     -0.72       0.21      -0.97      -0.51      -0.73       0.61 
     -0.69      -0.20      -0.74      -0.78       1.00      -0.56 
      0.03       0.68       0.23      -0.41       0.28       0.05 

      0.68      -0.21       0.57       0.60       0.82      -0.60 
     -0.33       0.54      -0.44       0.11      -0.05       0.26 
     -0.27       0.03       0.90       0.83       0.27       0.43 
     -0.72       0.21      -0.97      -0.51      -0.73       0.61 
     -0.69      -0.20      -0.74      -0.78       1.00      -0.56 
      0.03       0.68       0.23      -0.41       0.28       0.05 

      0.68      -0.21       0.57       0.60       0.82      -0.60 
     -0.33       0.54      -0.44       0.11      -0.05       0.26 
     -0.27       0.03       0.90       0.83       0.27       0.43 
     -0.72       0.21      -0.97      -0.51      -0.73       0.61 
     -0.69      -0.20      -0.74      -0.78       1.00      -0.56 
      0.03       0.68       0.23      -0.41       0.28       0.05 

      0.68      -0.21       0.57       0.60       0.82      -0.60 
     -0.33       0.54      -0.44       0.11      -0.05       0.26 
     -0.27       0.03       0.90       0.83       0.27       0.43 
     -0.72       0.21      -0.97      -0.51      -0.73       0.61 
     -0.69      -0.20      -0.74      -0.78       1.00      -0.56 
      0.03       0.68       0.23      -0.41       0.28       0.05 

      0.68      -0.21       0.57       0.60       0.82      -0.60 
     -0.33       0.54      -0.44       0.11      -0.05       0.26 
     -0.27       0.03       0.90       0.83       0.27       0.43 
     -0.72       0.21      -0.97      -0.51      -0.73       0.61 
     -0.69      -0.20      -0.74      -0.78       1.00      -0.56 
      0.03       0.68       0.23      -0.41       0.28       0.05 

      0.68      -0.21       0.57       0.60       0.82      -0.60 
     -0.33       0.54      -0.44       0.11      -0.05       0.26 
     -0.27       0.03       0.90       0.83       0.27       0.43 
     -0.72       0.21      -0.97      -0.51      -0.73       0.61 
     -0.69      -0.20      -0.74      -0.78       1.00      -0.56 
      0.03       0.68       0.23      -0.41       0.28       0.05 

      0.68      -0.21       0.57       0.60       0.82      -0.60 
     -0.33       0.54      -0.44       0.11      -0.05       0.26 
     -0.27       0.03       0.90       0.83       0.27       0.43 
     -0.72       0.21      -0.97      -0.51      -0.73       0.61 
     -0.69      -0.20      -0.74      -0.78       1.00      -0.56 
      0.03       0.68       0.23      -0.41       0.28       0.05 

      0.68      -0.21       0.57       0.60       0.82      -0.60 
     -0.33       0.54      -0.44       0.11      -0.05       0.26 
     -0.27       0.03       0.90       0.83       0.27       0.43 
     -0.72       0.21      -0.97      -0.51      -0.73       0.61 
     -0.69      -0.20      -0.74      -0.78       1.00      -0.56 
      0.03       0.68       0.23      -0.41       0.28       0.05 

      0.68      -0.21       0.57       0.60       0.82      -0.60 
     -0.33       0.54      -0.44       0.11      -0.05       0.26 
     -0.27       0.03       0.90       0.83       0.27       0.43 
     -0.72       0.21      -0.97      -0.51      -0.73       0.61 
     -0.69      -0.20      -0.74      -0.78       1.00      -0.56 
      0.03       0.68       0.23      -0.41       0.28       0.05 

      0.68      -0.21       0.57       0.60       0.82      -0.60 
     -0.33       0.54      -0.44       0.11      -0.05       0.26 
     -0.27       0.03       0.90       0.83       0.27       0.43 
     -0.72       0.21      -0.97      -0.51      -0.73       0.61 
     -0.69      -0.20      -0.74      -0.78       1.00      -0.56 
      0.03       0.68       0.23      -0.41       0.28       0.05 

      0.68      -0.21       0.57       0.60       0.82      -0.60 
     -0.33       0.54      -0.44       0.11      -0.05       0.26 
     -0.27       0.03       0.90       0.83       0.27       0.43 
     -0.72       0.21      -0.97      -0.51      -0.73       0.61 
     -0.69      -0.20      -0.74      -0.78       1.00      -0.56 
      0.03       0.68       0.23      -0.41       0.28       0.05 

      0.68      -0.21       0.57       0.60       0.82      -0.60 
     -0.33       0.54      -0.44       0.11      -0.05       0.26 
     -0.27       0.03       0.90       0.83       0.27       0.43 
     -0.72       0.21      -0.97      -0.51      -0.73       0.61 
     -0.69      -0.20      -0.74      -0.78       1.00      -0.56 
      0.03       0.68       0.23      -0.41       0.28       0.05 

      0.68      -0.21       0.57       0.60       0.82      -0.60 
     -0.33       0.54      -0.44       0.11      -0.05       0.26 
     -0.27       0.03       0.90       0.83       0.27       0.43 
     -0.72       0.21      -0.97      -0.51      -0.73       0.61 
     -0.69      -0.20      -0.74      -0.78       1.00      -0.56 
      0.03       0.68       0.23      -0.41       0.28       0.05 

      0.68      -0.21       0.57       0.60       0.82      -0.60 
     -0.33       0.54      -0.44       0.11      -0.05       0.26 
     -0.27       0.03       0.90       0.83       0.27       0.43 
     -0.72       0.21      -0.97      -0.51      -0.73       0.61 
     -0.69      -0.20      -0.74      -0.78       1.00      -0.56 
      0.03       0.68       0.23      -0.41       0.28       0.05 

      0.68      -0.21       0.57       0.60       0.82      -0.60 
     -0.33       0.54      -0.44       0.11      -0.05       0.26 
     -0.27       0.03       0.90       0.83       0.27       0.43 
     -0.72       0.21      -0.97      -0.51      -0.73       0.61 
     -0.69      -0.20      -0.74      -0.78       1.00      -0.56 
      0.03       0.68       0.23      -0.41       0.28       0.05 

      0.68      -0.21       0.57       0.60       0.82      -0.60 
     -0.33       0.54      -0.44       0.11      -0.05       0.26 
     -0.27       0.03       0.90       0.83       0.27       0.43 
     -0.72       0.21      -0.97      -0.51      -0.73       0.61 
     -0.69      -0.20      -0.74      -0.78       1.00      -0.56 
      0.03       0.68       0.23      -0.41       0.28       0.05 

Cost time is 7 min 14 s
