Loading input
 File NOt FOUND
Loading bias values
File Not Found
File Not Found
File Not Found
File Not Found
File Not Found
File Not Found
File Not Found
File Not Found
Loading weights
File Not Found
File Not Found
File Not Found
File Not Found
File Not Found
File Not Found
File Not Found
File Not Found

========= Executing AlexNet =========
Starting Layer1
	 Layer1 Conv took 4408619 us
	 Layer1 Norm took 3540007 us
	 Layer1 Max Pool took 4289992 us
	 ----------------------------
	 Layer1 took 12238618 us
Starting Layer2
	 Layer2 Conv took 1977362 us
	 Layer2 Norm took 909958 us
	 Layer2 Max Pool took 805646 us
	 ----------------------------
	 Layer2 took 3692966 us
Starting Layer3
	 Layer3 took 998887 us
Starting Layer4
	Layer4 took 1766623 us
Starting Layer5
	 Layer5 took 3012891 us
Starting Layer6
	 Layer6 took 937990 us
Starting Layer7
	 Layer7 took 913765 us
Starting Layer8
	 Layer8 took 986182 us
=========================
INDEX = 0
=========================
AlexNet total took 28127287 us using cuda
Loading input
 File NOt FOUND
Loading bias values
File Not Found
File Not Found
File Not Found
File Not Found
File Not Found
File Not Found
File Not Found
File Not Found
Loading weights
File Not Found
File Not Found
File Not Found
File Not Found
File Not Found
File Not Found
File Not Found
File Not Found

========= Executing AlexNet =========
Starting Layer1
	 Layer1 Conv took 3453600 us
	 Layer1 Norm took 3276005 us
	 Layer1 Max Pool took 4087208 us
	 ----------------------------
	 Layer1 took 10816813 us
Starting Layer2
	 Layer2 Conv took 1637751 us
	 Layer2 Norm took 952990 us
	 Layer2 Max Pool took 793800 us
	 ----------------------------
	 Layer2 took 3384541 us
Starting Layer3
	 Layer3 took 1064142 us
Starting Layer4
	Layer4 took 1962095 us
Starting Layer5
	 Layer5 took 2773190 us
Starting Layer6
	 Layer6 took 780417 us
Starting Layer7
	 Layer7 took 1030055 us
Starting Layer8
	 Layer8 took 839860 us
=========================
INDEX = 0
=========================
AlexNet total took 27003060 us using cuda
Loading input
 File NOt FOUND
Loading bias values
File Not Found
File Not Found
File Not Found
File Not Found
File Not Found
File Not Found
File Not Found
File Not Found
Loading weights
File Not Found
File Not Found
File Not Found
File Not Found
File Not Found
File Not Found
File Not Found
File Not Found

========= Executing AlexNet =========
Starting Layer1
	 Layer1 Conv took 3782460 us
	 Layer1 Norm took 3354319 us
	 Layer1 Max Pool took 4322538 us
	 ----------------------------
	 Layer1 took 11459317 us
Starting Layer2
	 Layer2 Conv took 1947892 us
	 Layer2 Norm took 846301 us
	 Layer2 Max Pool took 848546 us
	 ----------------------------
	 Layer2 took 3642739 us
Starting Layer3
	 Layer3 took 700848 us
Starting Layer4
	Layer4 took 1869416 us
Starting Layer5
	 Layer5 took 2719783 us
Starting Layer6
	 Layer6 took 1112350 us
Starting Layer7
	 Layer7 took 912778 us
Starting Layer8
	 Layer8 took 915020 us
=========================
INDEX = 0
=========================
AlexNet total took 27916049 us using cuda
Loading input
 File NOt FOUND
Loading bias values
File Not Found
File Not Found
File Not Found
File Not Found
File Not Found
File Not Found
File Not Found
File Not Found
Loading weights
File Not Found
File Not Found
File Not Found
File Not Found
File Not Found
File Not Found
File Not Found
File Not Found

========= Executing AlexNet =========
Starting Layer1
	 Layer1 Conv took 3576123 us
	 Layer1 Norm took 3864886 us
	 Layer1 Max Pool took 4776709 us
	 ----------------------------
	 Layer1 took 12217718 us
Starting Layer2
	 Layer2 Conv took 1707138 us
	 Layer2 Norm took 748853 us
	 Layer2 Max Pool took 827846 us
	 ----------------------------
	 Layer2 took 3283837 us
Starting Layer3
	 Layer3 took 826049 us
Starting Layer4
	Layer4 took 2100505 us
Starting Layer5
	 Layer5 took 2559664 us
Starting Layer6
	 Layer6 took 863483 us
Starting Layer7
	 Layer7 took 839744 us
Starting Layer8
	 Layer8 took 894137 us
=========================
INDEX = 0
=========================
AlexNet total took 27770078 us using cuda
Loading input
 File NOt FOUND
Loading bias values
File Not Found
File Not Found
File Not Found
File Not Found
File Not Found
File Not Found
File Not Found
File Not Found
Loading weights
File Not Found
File Not Found
File Not Found
File Not Found
File Not Found
File Not Found
File Not Found
File Not Found

========= Executing AlexNet =========
Starting Layer1
	 Layer1 Conv took 5507785 us
	 Layer1 Norm took 5278374 us
	 Layer1 Max Pool took 6732053 us
	 ----------------------------
	 Layer1 took 17518212 us
Starting Layer2
	 Layer2 Conv took 2676608 us
	 Layer2 Norm took 1259445 us
	 Layer2 Max Pool took 1338172 us
	 ----------------------------
	 Layer2 took 5274225 us
Starting Layer3
	 Layer3 took 1072975 us
Starting Layer4
	Layer4 took 2406643 us
Starting Layer5
	 Layer5 took 3795111 us
Starting Layer6
	 Layer6 took 1353080 us
Starting Layer7
	 Layer7 took 1262057 us
Starting Layer8
	 Layer8 took 1341722 us
=========================
INDEX = 0
=========================
AlexNet total took 36355851 us using cuda
Loading input
 File NOt FOUND
Loading bias values
File Not Found
File Not Found
File Not Found
File Not Found
File Not Found
File Not Found
File Not Found
File Not Found
Loading weights
File Not Found
File Not Found
File Not Found
File Not Found
File Not Found
File Not Found
File Not Found
File Not Found

========= Executing AlexNet =========
Starting Layer1
	 Layer1 Conv took 8364198 us
	 Layer1 Norm took 8577453 us
	 Layer1 Max Pool took 10587644 us
	 ----------------------------
	 Layer1 took 27529295 us
Starting Layer2
	 Layer2 Conv took 3898424 us
	 Layer2 Norm took 2051248 us
	 Layer2 Max Pool took 2168691 us
	 ----------------------------
	 Layer2 took 8118363 us
Starting Layer3
	 Layer3 took 2133489 us
Starting Layer4
	Layer4 took 3784522 us
Starting Layer5
	 Layer5 took 5950967 us
Starting Layer6
	 Layer6 took 1997098 us
Starting Layer7
	 Layer7 took 2151089 us
Starting Layer8
	 Layer8 took 1978411 us
=========================
INDEX = 0
=========================
AlexNet total took 53325443 us using cuda
Loading input
 File NOt FOUND
Loading bias values
File Not Found
File Not Found
File Not Found
File Not Found
File Not Found
File Not Found
File Not Found
File Not Found
Loading weights
File Not Found
File Not Found
File Not Found
File Not Found
File Not Found
File Not Found
File Not Found
File Not Found

========= Executing AlexNet =========
Starting Layer1
	 Layer1 Conv took 8294567 us
	 Layer1 Norm took 7891223 us
	 Layer1 Max Pool took 10207172 us
	 ----------------------------
	 Layer1 took 26392962 us
Starting Layer2
	 Layer2 Conv took 3924262 us
	 Layer2 Norm took 2498955 us
	 Layer2 Max Pool took 2077140 us
	 ----------------------------
	 Layer2 took 8500357 us
Starting Layer3
	 Layer3 took 1610906 us
Starting Layer4
	Layer4 took 3671576 us
Starting Layer5
	 Layer5 took 5466876 us
Starting Layer6
	 Layer6 took 2123570 us
Starting Layer7
	 Layer7 took 1924826 us
Starting Layer8
	 Layer8 took 1946839 us
=========================
INDEX = 0
=========================
AlexNet total took 52157819 us using cuda
Loading input
 File NOt FOUND
Loading bias values
File Not Found
File Not Found
File Not Found
File Not Found
File Not Found
File Not Found
File Not Found
File Not Found
Loading weights
File Not Found
File Not Found
File Not Found
File Not Found
File Not Found
File Not Found
File Not Found
File Not Found

========= Executing AlexNet =========
Starting Layer1
	 Layer1 Conv took 9876388 us
	 Layer1 Norm took 8032228 us
	 Layer1 Max Pool took 10345133 us
	 ----------------------------
	 Layer1 took 28253749 us
Starting Layer2
	 Layer2 Conv took 4049238 us
	 Layer2 Norm took 2071442 us
	 Layer2 Max Pool took 1878537 us
	 ----------------------------
	 Layer2 took 7999217 us
Starting Layer3
	 Layer3 took 2216982 us
Starting Layer4
	Layer4 took 4104125 us
Starting Layer5
	 Layer5 took 6483770 us
Starting Layer6
	 Layer6 took 2101627 us
Starting Layer7
	 Layer7 took 2282918 us
Starting Layer8
	 Layer8 took 2517066 us
=========================
INDEX = 0
=========================
AlexNet total took 55777410 us using cuda
Loading input
 File NOt FOUND
Loading bias values
File Not Found
File Not Found
File Not Found
File Not Found
File Not Found
File Not Found
File Not Found
File Not Found
Loading weights
File Not Found
File Not Found
File Not Found
File Not Found
File Not Found
File Not Found
File Not Found
File Not Found

========= Executing AlexNet =========
Starting Layer1
	 Layer1 Conv took 6956160 us
	 Layer1 Norm took 6054269 us
	 Layer1 Max Pool took 7551286 us
	 ----------------------------
	 Layer1 took 20561715 us
Starting Layer2
	 Layer2 Conv took 3249772 us
	 Layer2 Norm took 1718453 us
	 Layer2 Max Pool took 1552787 us
	 ----------------------------
	 Layer2 took 6521012 us
Starting Layer3
	 Layer3 took 1703565 us
Starting Layer4
	Layer4 took 3353412 us
Starting Layer5
	 Layer5 took 5239957 us
Starting Layer6
	 Layer6 took 1483674 us
Starting Layer7
	 Layer7 took 1551367 us
Starting Layer8
	 Layer8 took 1660399 us
=========================
INDEX = 0
=========================
AlexNet total took 44028029 us using cuda
Loading input
 File NOt FOUND
Loading bias values
File Not Found
File Not Found
File Not Found
File Not Found
File Not Found
File Not Found
File Not Found
File Not Found
Loading weights
File Not Found
File Not Found
File Not Found
File Not Found
File Not Found
File Not Found
File Not Found
File Not Found

========= Executing AlexNet =========
Starting Layer1
	 Layer1 Conv took 4590963 us
	 Layer1 Norm took 3663574 us
	 Layer1 Max Pool took 4645524 us
	 ----------------------------
	 Layer1 took 12900061 us
Starting Layer2
	 Layer2 Conv took 1812399 us
	 Layer2 Norm took 1002671 us
	 Layer2 Max Pool took 1120007 us
	 ----------------------------
	 Layer2 took 3935077 us
Starting Layer3
	 Layer3 took 952189 us
Starting Layer4
	Layer4 took 1987886 us
Starting Layer5
	 Layer5 took 3079215 us
Starting Layer6
	 Layer6 took 1018493 us
Starting Layer7
	 Layer7 took 1250579 us
Starting Layer8
	 Layer8 took 885391 us
=========================
INDEX = 0
=========================
AlexNet total took 30086839 us using cuda
Loading input
 File NOt FOUND
Loading bias values
File Not Found
File Not Found
File Not Found
File Not Found
File Not Found
File Not Found
File Not Found
File Not Found
Loading weights
File Not Found
File Not Found
File Not Found
File Not Found
File Not Found
File Not Found
File Not Found
File Not Found

========= Executing AlexNet =========
Starting Layer1
	 Layer1 Conv took 6776564 us
	 Layer1 Norm took 5894868 us
	 Layer1 Max Pool took 7519604 us
	 ----------------------------
	 Layer1 took 20191036 us
Starting Layer2
	 Layer2 Conv took 3168199 us
	 Layer2 Norm took 1361042 us
	 Layer2 Max Pool took 1366907 us
	 ----------------------------
	 Layer2 took 5896148 us
Starting Layer3
	 Layer3 took 1579163 us
Starting Layer4
	Layer4 took 2688167 us
Starting Layer5
	 Layer5 took 4138606 us
Starting Layer6
	 Layer6 took 1253241 us
Starting Layer7
	 Layer7 took 1228795 us
Starting Layer8
	 Layer8 took 1035339 us
=========================
INDEX = 0
=========================
AlexNet total took 39463281 us using cuda
Loading input
 File NOt FOUND
Loading bias values
File Not Found
File Not Found
File Not Found
File Not Found
File Not Found
File Not Found
File Not Found
File Not Found
Loading weights
File Not Found
File Not Found
File Not Found
File Not Found
File Not Found
File Not Found
File Not Found
File Not Found

========= Executing AlexNet =========
Starting Layer1
	 Layer1 Conv took 1768865 us
	 Layer1 Norm took 1059346 us
	 Layer1 Max Pool took 1404902 us
	 ----------------------------
	 Layer1 took 4233113 us
Starting Layer2
	 Layer2 Conv took 637643 us
	 Layer2 Norm took 302279 us
	 Layer2 Max Pool took 228929 us
	 ----------------------------
	 Layer2 took 1168851 us
Starting Layer3
	 Layer3 took 287470 us
Starting Layer4
	Layer4 took 554270 us
Starting Layer5
	 Layer5 took 638799 us
Starting Layer6
	 Layer6 took 222269 us
Starting Layer7
	 Layer7 took 360926 us
Starting Layer8
	 Layer8 took 277887 us
=========================
INDEX = 0
=========================
AlexNet total took 11158886 us using cuda
Loading input
 File NOt FOUND
Loading bias values
File Not Found
File Not Found
File Not Found
File Not Found
File Not Found
File Not Found
File Not Found
File Not Found
Loading weights
File Not Found
File Not Found
File Not Found
File Not Found
File Not Found
File Not Found
File Not Found
File Not Found

========= Executing AlexNet =========
Starting Layer1
	 Layer1 Conv took 20917011 us
	 Layer1 Norm took 20719892 us
	 Layer1 Max Pool took 25352208 us
	 ----------------------------
	 Layer1 took 66989111 us
Starting Layer2
	 Layer2 Conv took 10452744 us
	 Layer2 Norm took 5163378 us
	 Layer2 Max Pool took 5490107 us
	 ----------------------------
	 Layer2 took 21106229 us
Starting Layer3
	 Layer3 took 5657664 us
Starting Layer4
	Layer4 took 10881684 us
Starting Layer5
	 Layer5 took 15244155 us
Starting Layer6
	 Layer6 took 5414024 us
Starting Layer7
	 Layer7 took 5502083 us
Starting Layer8
	 Layer8 took 5545044 us
=========================
INDEX = 0
=========================
AlexNet total took 120744124 us using cuda
Loading input
 File NOt FOUND
Loading bias values
File Not Found
File Not Found
File Not Found
File Not Found
File Not Found
File Not Found
File Not Found
File Not Found
Loading weights
File Not Found
File Not Found
File Not Found
File Not Found
File Not Found
File Not Found
File Not Found
File Not Found

========= Executing AlexNet =========
Starting Layer1
	 Layer1 Conv took 19653275 us
	 Layer1 Norm took 18631316 us
	 Layer1 Max Pool took 22922466 us
	 ----------------------------
	 Layer1 took 61207057 us
Starting Layer2
	 Layer2 Conv took 8095025 us
	 Layer2 Norm took 4237594 us
	 Layer2 Max Pool took 4151743 us
	 ----------------------------
	 Layer2 took 16484362 us
Starting Layer3
	 Layer3 took 4539316 us
Starting Layer4
	Layer4 took 8730005 us
Starting Layer5
	 Layer5 took 11027233 us
Starting Layer6
	 Layer6 took 4168489 us
Starting Layer7
	 Layer7 took 3810886 us
Starting Layer8
	 Layer8 took 3653094 us
=========================
INDEX = 0
=========================
AlexNet total took 99767434 us using cuda
Loading input
 File NOt FOUND
Loading bias values
File Not Found
File Not Found
File Not Found
File Not Found
File Not Found
File Not Found
File Not Found
File Not Found
Loading weights
File Not Found
File Not Found
File Not Found
File Not Found
File Not Found
File Not Found
File Not Found
File Not Found

========= Executing AlexNet =========
Starting Layer1
	 Layer1 Conv took 1137274 us
	 Layer1 Norm took 767802 us
	 Layer1 Max Pool took 961992 us
	 ----------------------------
	 Layer1 took 2867068 us
Starting Layer2
	 Layer2 Conv took 358693 us
	 Layer2 Norm took 163786 us
	 Layer2 Max Pool took 206391 us
	 ----------------------------
	 Layer2 took 728870 us
Starting Layer3
	 Layer3 took 198056 us
Starting Layer4
	Layer4 took 453649 us
Starting Layer5
	 Layer5 took 605608 us
Starting Layer6
	 Layer6 took 149390 us
Starting Layer7
	 Layer7 took 158077 us
Starting Layer8
	 Layer8 took 219862 us
=========================
INDEX = 0
=========================
AlexNet total took 8349544 us using cuda
Loading input
 File NOt FOUND
Loading bias values
File Not Found
File Not Found
File Not Found
File Not Found
File Not Found
File Not Found
File Not Found
File Not Found
Loading weights
File Not Found
File Not Found
File Not Found
File Not Found
File Not Found
File Not Found
File Not Found
File Not Found

========= Executing AlexNet =========
Starting Layer1
	 Layer1 Conv took 1961068 us
	 Layer1 Norm took 1634414 us
	 Layer1 Max Pool took 1980943 us
	 ----------------------------
	 Layer1 took 5576425 us
Starting Layer2
	 Layer2 Conv took 884242 us
	 Layer2 Norm took 398781 us
	 Layer2 Max Pool took 449547 us
	 ----------------------------
	 Layer2 took 1732570 us
Starting Layer3
	 Layer3 took 459723 us
Starting Layer4
	Layer4 took 837546 us
Starting Layer5
	 Layer5 took 1243146 us
Starting Layer6
	 Layer6 took 654594 us
Starting Layer7
	 Layer7 took 460896 us
Starting Layer8
	 Layer8 took 491315 us
=========================
INDEX = 0
=========================
AlexNet total took 13291918 us using cuda
Cost time is 11 min 57 s
