wangpeng@dacent:~/tools/Rodinia/cuda/hybridsort$ LD_PRELOAD=/home/wangpeng/tools/nvbit-test/nvbit1-0/tools/nvbit-call-stack-master/nvbit-call-stack-master.so  ./run 
------------- NVBit (NVidia Binary Instrumentation Tool v1.0) Loaded --------------
NVBit core environment variables (mostly for nvbit-devs):
           NOINSPECT = 0 - if set, skips function inspection and instrumentation
            NVDISASM = nvdisasm - override default nvdisasm found in PATH
            NOBANNER = 0 - if set, does not print this banner
---------------------------------------------------------------------------------
        KERNEL_BEGIN = 0 - Beginning of the kernel launch interval where to apply instrumentation
          KERNEL_END = 4294967295 - End of the kernel launch interval where to apply instrumentation
    COUNT_WARP_LEVEL = 1 - Count warp level or thread level instructions
    EXCLUDE_PRED_OFF = 0 - Exclude predicated off instruction from count
        TOOL_VERBOSE = 0 - Enable verbosity inside the tool
----------------------------------------------------------------------------------------------------
Sorting list of 4194304 floats
Sorting on GPU...Context create ctx: 0x5604195322e0
Cuda error in function 'cuCtxSynchronize()' file 'instr_count.cu' in line 447 : hardware stack error.
wangpeng@dacent:~/tools/Rodinia/cuda/hybridsort$ 
