==PROF== Connected to process 4002 (/home/test/tools/cloud-rendering/151c/run)
==PROF== Profiling "initChildNode" - 1: 0%....50%....100% - 13 passes
==PROF== Profiling "initChildNode" - 2: 0%....50%....100% - 13 passes
==PROF== Profiling "initChildNode" - 3: 0%....50%....100% - 13 passes
==PROF== Profiling "initChildNode" - 4: 0%....50%....100% - 13 passes
==PROF== Profiling "initChildNode" - 5: 0%....50%....100% - 13 passes
==PROF== Profiling "initChildNode" - 6: 0%....50%....100% - 13 passes
==PROF== Profiling "initChildNode" - 7: 0%....50%....100% - 13 passes
==PROF== Profiling "initChildNode" - 8: 0%....50%....100% - 13 passes
==PROF== Profiling "initChildNode" - 9: 0%....50%....100% - 13 passes
==PROF== Profiling "initChildNode" - 10: 0%....50%....100% - 13 passes
==PROF== Profiling "initChildNode" - 11: 0%....50%....100% - 13 passes
==PROF== Profiling "initChildNode" - 12: 0%....50%....100% - 13 passes
==PROF== Profiling "initChildNode" - 13: 0%....50%....100% - 13 passes
==PROF== Profiling "initChildNode" - 14: 0%....50%....100% - 13 passes
==PROF== Profiling "initChildNode" - 15: 0%....50%....100% - 13 passes
==PROF== Profiling "initChildNode" - 16: 0%....50%....100% - 13 passes
==PROF== Profiling "initChildNode" - 17: 0%....50%....100% - 13 passes
==PROF== Profiling "initChildNode" - 18: 0%....50%....100% - 13 passes
==PROF== Profiling "initChildNode" - 19: 0%....50%....100% - 13 passes
==PROF== Profiling "initChildNode" - 20: 0%....50%....100% - 13 passes
==PROF== Profiling "initChildNode" - 21: 0%....50%....100% - 13 passes
==PROF== Profiling "initChildNode" - 22: 0%....50%....100% - 13 passes
==PROF== Profiling "initChildNode" - 23: 0%....50%....100% - 13 passes
==PROF== Profiling "initChildNode" - 24: 0%....50%....100% - 13 passes
==PROF== Profiling "initChildNode" - 25: 0%....50%....100% - 13 passes
==PROF== Profiling "initChildNode" - 26: 0%....50%....100% - 13 passes
==PROF== Profiling "initChildNode" - 27: 0%....50%....100% - 13 passes
==PROF== Profiling "initChildNode" - 28: 0%....50%....100% - 13 passes
==PROF== Profiling "initChildNode" - 29: 0%....50%....100% - 13 passes
==PROF== Profiling "initChildNode" - 30: 0%....50%....100% - 13 passes
==PROF== Profiling "initChildNode" - 31: 0%....50%....100% - 13 passes
==PROF== Profiling "initChildNode" - 32: 0%....50%....100% - 13 passes
==PROF== Profiling "initChildNode" - 33: 0%....50%....100% - 13 passes
==PROF== Profiling "initChildNode" - 34: 0%....50%....100% - 13 passes
==PROF== Profiling "initChildNode" - 35: 0%....50%....100% - 13 passes
==PROF== Profiling "initChildNode" - 36: 0%....50%....100% - 13 passes
==PROF== Profiling "initChildNode" - 37: 0%....50%....100% - 13 passes
==PROF== Profiling "initChildNode" - 38: 0%....50%....100% - 13 passes
==PROF== Profiling "initChildNode" - 39: 0%....50%....100% - 13 passes
==PROF== Profiling "initChildNode" - 40: 0%....50%....100% - 13 passes
==PROF== Profiling "initChildNode" - 41: 0%....50%....100% - 13 passes
==PROF== Profiling "initChildNode" - 42: 0%....50%....100% - 13 passes
==PROF== Profiling "initChildNode" - 43: 0%....50%....100% - 13 passes
==PROF== Profiling "initChildNode" - 44: 0%....50%....100% - 13 passes
==PROF== Profiling "initChildNode" - 45: 0%....50%....100% - 13 passes
==PROF== Profiling "initChildNode" - 46: 0%....50%....100% - 13 passes
==PROF== Profiling "initChildNode" - 47: 0%....50%....100% - 13 passes
==PROF== Profiling "initChildNode" - 48: 0%....50%....100% - 13 passes
==PROF== Profiling "initChildNode" - 49: 0%....50%....100% - 13 passes
==PROF== Profiling "initChildNode" - 50: 0%....50%....100% - 13 passes
==PROF== Profiling "initChildNode" - 51: 0%....50%....100% - 13 passes
==PROF== Profiling "initChildNode" - 52: 0%....50%....100% - 13 passes
==PROF== Profiling "initChildNode" - 53: 0%....50%....100% - 13 passes
==PROF== Profiling "initChildNode" - 54: 0%....50%....100% - 13 passes
==PROF== Profiling "initChildNode" - 55: 0%....50%....100% - 13 passes
==PROF== Profiling "initChildNode" - 56: 0%....50%....100% - 13 passes
==PROF== Profiling "initChildNode" - 57: 0%....50%....100% - 13 passes
==PROF== Profiling "initChildNode" - 58: 0%....50%....100% - 13 passes
==PROF== Profiling "initChildNode" - 59: 0%....50%....100% - 13 passes
==PROF== Profiling "initChildNode" - 60: 0%....50%....100% - 13 passes
==PROF== Profiling "initChildNode" - 61: 0%....50%....100% - 13 passes
==PROF== Profiling "initChildNode" - 62: 0%....50%....100% - 13 passes
==PROF== Profiling "initChildNode" - 63: 0%....50%....100% - 13 passes
==PROF== Profiling "initChildNode" - 64: 0%....50%....100% - 13 passes
==PROF== Profiling "initChildNode" - 65: 0%....50%....100% - 13 passes
==PROF== Profiling "initChildNode" - 66: 0%....50%....100% - 13 passes
==PROF== Profiling "initChildNode" - 67: 0%....50%....100% - 13 passes
==PROF== Profiling "initChildNode" - 68: 0%....50%....100% - 13 passes
==PROF== Profiling "initChildNode" - 69: 0%....50%....100% - 13 passes
==PROF== Profiling "initChildNode" - 70: 0%....50%....100% - 13 passes
==PROF== Profiling "initChildNode" - 71: 0%....50%....100% - 13 passes
==PROF== Profiling "initChildNode" - 72: 0%....50%....100% - 13 passes
==PROF== Profiling "initChildNode" - 73: 0%....50%....100% - 13 passes
==PROF== Profiling "initChildNode" - 74: 0%....50%....100% - 13 passes
==PROF== Profiling "initChildNode" - 75: 0%....50%....100% - 13 passes
==PROF== Profiling "initChildNode" - 76: 0%....50%....100% - 13 passes
==PROF== Profiling "initChildNode" - 77: 0%....50%....100% - 13 passes
==PROF== Profiling "initChildNode" - 78: 0%....50%....100% - 13 passes
==PROF== Profiling "initChildNode" - 79: 0%....50%....100% - 13 passes
==PROF== Profiling "initChildNode" - 80: 0%....50%....100% - 13 passes
==PROF== Profiling "initChildNode" - 81: 0%....50%....100% - 13 passes
==PROF== Profiling "initChildNode" - 82: 0%....50%....100% - 13 passes
==PROF== Profiling "initChildNode" - 83: 0%....50%....100% - 13 passes
==PROF== Profiling "initChildNode" - 84: 0%....50%....100% - 13 passes
==PROF== Profiling "initChildNode" - 85: 0%....50%....100% - 13 passes
==PROF== Profiling "initChildNode" - 86: 0%....50%....100% - 13 passes
==PROF== Profiling "initChildNode" - 87: 0%....50%....100% - 13 passes
==PROF== Profiling "initChildNode" - 88: 0%....50%....100% - 13 passes
==PROF== Profiling "initChildNode" - 89: 0%....50%....100% - 13 passes
==PROF== Profiling "initChildNode" - 90: 0%....50%....100% - 13 passes
==PROF== Profiling "initChildNode" - 91: 0%....50%....100% - 13 passes
==PROF== Profiling "initChildNode" - 92: 0%....50%....100% - 13 passes
==PROF== Profiling "initChildNode" - 93: 0%....50%....100% - 13 passes
==PROF== Profiling "initChildNode" - 94: 0%....50%....100% - 13 passes
==PROF== Profiling "initChildNode" - 95: 0%....50%....100% - 13 passes
==PROF== Profiling "initChildNode" - 96: 0%....50%....100% - 13 passes
==PROF== Profiling "initChildNode" - 97: 0%....50%....100% - 13 passes
==PROF== Profiling "initChildNode" - 98: 0%....50%....100% - 13 passes
==PROF== Profiling "initChildNode" - 99: 0%....50%....100% - 13 passes
==PROF== Profiling "initChildNode" - 100: 0%....50%....100% - 13 passes
==PROF== Profiling "initChildNode" - 101: 0%....50%....100% - 13 passes
==PROF== Profiling "initChildNode" - 102: 0%....50%....100% - 13 passes
==PROF== Profiling "initChildNode" - 103: 0%....50%....100% - 13 passes
==PROF== Profiling "initChildNode" - 104: 0%....50%....100% - 13 passes
==PROF== Profiling "initChildNode" - 105: 0%....50%....100% - 13 passes
==PROF== Profiling "initChildNode" - 106: 0%....50%....100% - 13 passes
==PROF== Profiling "initChildNode" - 107: 0%....50%....100% - 13 passes
==PROF== Profiling "initChildNode" - 108: 0%....50%....100% - 13 passes
==PROF== Profiling "initChildNode" - 109: 0%....50%....100% - 13 passes
==PROF== Profiling "initChildNode" - 110: 0%....50%....100% - 13 passes
==PROF== Profiling "initChildNode" - 111: 0%....50%....100% - 13 passes
==PROF== Profiling "initChildNode" - 112: 0%....50%....100% - 13 passes
==PROF== Profiling "initChildNode" - 113: 0%....50%....100% - 13 passes
==PROF== Profiling "initChildNode" - 114: 0%....50%....100% - 13 passes
==PROF== Profiling "initChildNode" - 115: 0%....50%....100% - 13 passes
==PROF== Profiling "initChildNode" - 116: 0%....50%....100% - 13 passes
==PROF== Profiling "initChildNode" - 117: 0%....50%....100% - 13 passes
==PROF== Profiling "initChildNode" - 118: 0%....50%....100% - 13 passes
==PROF== Profiling "initChildNode" - 119: 0%....50%....100% - 13 passes
==PROF== Profiling "initChildNode" - 120: 0%....50%....100% - 13 passes
==PROF== Profiling "initChildNode" - 121: 0%....50%....100% - 13 passes
==PROF== Profiling "initChildNode" - 122: 0%....50%....100% - 13 passes
==PROF== Profiling "initChildNode" - 123: 0%....50%....100% - 13 passes
==PROF== Profiling "initChildNode" - 124: 0%....50%....100% - 13 passes
==PROF== Profiling "initChildNode" - 125: 0%....50%....100% - 13 passes
==PROF== Profiling "initChildNode" - 126: 0%....50%....100% - 13 passes
==PROF== Profiling "initChildNode" - 127: 0%....50%....100% - 13 passes
==PROF== Profiling "initChildNode" - 128: 0%....50%....100% - 13 passes
==PROF== Profiling "initChildNode" - 129: 0%....50%....100% - 13 passes
==PROF== Profiling "initChildNode" - 130: 0%....50%....100% - 13 passes
==PROF== Profiling "initChildNode" - 131: 0%....50%....100% - 13 passes
==PROF== Profiling "initChildNode" - 132: 0%....50%....100% - 13 passes
==PROF== Profiling "initChildNode" - 133: 0%....50%....100% - 13 passes
==PROF== Profiling "initChildNode" - 134: 0%....50%....100% - 13 passes
==PROF== Profiling "initChildNode" - 135: 0%....50%....100% - 13 passes
==PROF== Profiling "initChildNode" - 136: 0%....50%....100% - 13 passes
==PROF== Profiling "initChildNode" - 137: 0%....50%....100% - 13 passes
==PROF== Profiling "initChildNode" - 138: 0%....50%....100% - 13 passes
==PROF== Profiling "initChildNode" - 139: 0%....50%....100% - 13 passes
==PROF== Profiling "initChildNode" - 140: 0%....50%....100% - 13 passes
==PROF== Profiling "initChildNode" - 141: 0%....50%....100% - 13 passes
==PROF== Profiling "initChildNode" - 142: 0%....50%....100% - 13 passes
==PROF== Profiling "initChildNode" - 143: 0%....50%....100% - 13 passes
==PROF== Profiling "initChildNode" - 144: 0%....50%....100% - 13 passes
==PROF== Profiling "initChildNode" - 145: 0%....50%....100% - 13 passes
==PROF== Profiling "initChildNode" - 146: 0%....50%....100% - 13 passes
==PROF== Profiling "initChildNode" - 147: 0%....50%....100% - 13 passes
==PROF== Profiling "initChildNode" - 148: 0%....50%....100% - 13 passes
==PROF== Profiling "initChildNode" - 149: 0%....50%....100% - 13 passes
==PROF== Profiling "initChildNode" - 150: 0%....50%....100% - 13 passes
==PROF== Profiling "initChildNode" - 151: 0%....50%....100% - 13 passes
==PROF== Profiling "initChildNode" - 152: 0%....50%....100% - 13 passes
==PROF== Profiling "initChildNode" - 153: 0%....50%....100% - 13 passes
==PROF== Profiling "initChildNode" - 154: 0%....50%....100% - 13 passes
==PROF== Profiling "initChildNode" - 155: 0%....50%....100% - 13 passes
==PROF== Profiling "initChildNode" - 156: 0%....50%....100% - 13 passes
==PROF== Profiling "initChildNode" - 157: 0%....50%....100% - 13 passes
==PROF== Profiling "initChildNode" - 158: 0%....50%....100% - 13 passes
==PROF== Profiling "initChildNode" - 159: 0%....50%....100% - 13 passes
==PROF== Profiling "initChildNode" - 160: 0%....50%....100% - 13 passes
==PROF== Profiling "initChildNode" - 161: 0%....50%....100% - 13 passes
==PROF== Profiling "initChildNode" - 162: 0%....50%....100% - 13 passes
==PROF== Profiling "initChildNode" - 163: 0%....50%....100% - 13 passes
==PROF== Profiling "initChildNode" - 164: 0%....50%....100% - 13 passes
==PROF== Profiling "initChildNode" - 165: 0%....50%....100% - 13 passes
==PROF== Profiling "initChildNode" - 166: 0%....50%....100% - 13 passes
==PROF== Profiling "initChildNode" - 167: 0%....50%....100% - 13 passes
==PROF== Profiling "initChildNode" - 168: 0%....50%....100% - 13 passes
==PROF== Profiling "initChildNode" - 169: 0%....50%....100% - 13 passes
==PROF== Profiling "initChildNode" - 170: 0%....50%....100% - 13 passes
==PROF== Profiling "initChildNode" - 171: 0%....50%....100% - 13 passes
==PROF== Profiling "initChildNode" - 172: 0%....50%....100% - 13 passes
==PROF== Profiling "initChildNode" - 173: 0%....50%....100% - 13 passes
==PROF== Profiling "initChildNode" - 174: 0%....50%....100% - 13 passes
==PROF== Profiling "initChildNode" - 175: 0%....50%....100% - 13 passes
==PROF== Profiling "initChildNode" - 176: 0%....50%....100% - 13 passes
==PROF== Profiling "initChildNode" - 177: 0%....50%....100% - 13 passes
==PROF== Profiling "initChildNode" - 178: 0%....50%....100% - 13 passes
==PROF== Profiling "initChildNode" - 179: 0%....50%....100% - 13 passes
==PROF== Profiling "initChildNode" - 180: 0%....50%....100% - 13 passes
==PROF== Profiling "initChildNode" - 181: 0%....50%....100% - 13 passes
==PROF== Profiling "initChildNode" - 182: 0%....50%....100% - 13 passes
==PROF== Profiling "initChildNode" - 183: 0%....50%....100% - 13 passes
==PROF== Profiling "initChildNode" - 184: 0%....50%....100% - 13 passes
==PROF== Profiling "initChildNode" - 185: 0%....50%....100% - 13 passes
==PROF== Profiling "initChildNode" - 186: 0%....50%....100% - 13 passes
==PROF== Profiling "initChildNode" - 187: 0%....50%....100% - 13 passes
==PROF== Profiling "initChildNode" - 188: 0%....50%....100% - 13 passes
==PROF== Profiling "initChildNode" - 189: 0%....50%....100% - 13 passes
==PROF== Profiling "initChildNode" - 190: 0%....50%....100% - 13 passes
==PROF== Profiling "initChildNode" - 191: 0%....50%....100% - 13 passes
==PROF== Profiling "initChildNode" - 192: 0%....50%....100% - 13 passes
==PROF== Profiling "initChildNode" - 193: 0%....50%....100% - 13 passes
==PROF== Profiling "initChildNode" - 194: 0%....50%....100% - 13 passes
==PROF== Profiling "initChildNode" - 195: 0%....50%....100% - 13 passes
==PROF== Profiling "initChildNode" - 196: 0%....50%....100% - 13 passes
==PROF== Profiling "initChildNode" - 197: 0%....50%....100% - 13 passes
==PROF== Profiling "initChildNode" - 198: 0%....50%....100% - 13 passes
==PROF== Profiling "initChildNode" - 199: 0%....50%....100% - 13 passes
==PROF== Profiling "initChildNode" - 200: 0%....50%....100% - 13 passes
==PROF== Profiling "initChildNode" - 201: 0%....50%....100% - 13 passes
==PROF== Profiling "initChildNode" - 202: 0%....50%....100% - 13 passes
==PROF== Profiling "initChildNode" - 203: 0%....50%....100% - 13 passes
==PROF== Profiling "initChildNode" - 204: 0%....50%....100% - 13 passes
==PROF== Profiling "initChildNode" - 205: 0%....50%....100% - 13 passes
==PROF== Profiling "initChildNode" - 206: 0%....50%....100% - 13 passes
==PROF== Profiling "initChildNode" - 207: 0%....50%....100% - 13 passes
==PROF== Profiling "initChildNode" - 208: 0%....50%....100% - 13 passes
==PROF== Profiling "initChildNode" - 209: 0%....50%....100% - 13 passes
==PROF== Profiling "initChildNode" - 210: 0%....50%....100% - 13 passes
==PROF== Profiling "initChildNode" - 211: 0%....50%....100% - 13 passes
==PROF== Profiling "initChildNode" - 212: 0%....50%....100% - 13 passes
==PROF== Profiling "initChildNode" - 213: 0%....50%....100% - 13 passes
==PROF== Profiling "initChildNode" - 214: 0%....50%....100% - 13 passes
==PROF== Profiling "initChildNode" - 215: 0%....50%....100% - 13 passes
==PROF== Profiling "initChildNode" - 216: 0%....50%....100% - 13 passes
==PROF== Profiling "initChildNode" - 217: 0%....50%....100% - 13 passes
==PROF== Profiling "initChildNode" - 218: 0%....50%....100% - 13 passes
==PROF== Profiling "initChildNode" - 219: 0%....50%....100% - 13 passes
==PROF== Profiling "initChildNode" - 220: 0%....50%....100% - 13 passes
==PROF== Profiling "initChildNode" - 221: 0%....50%....100% - 13 passes
==PROF== Profiling "initChildNode" - 222: 0%....50%....100% - 13 passes
==PROF== Profiling "initChildNode" - 223: 0%....50%....100% - 13 passes
==PROF== Profiling "initChildNode" - 224: 0%....50%....100% - 13 passes
==PROF== Profiling "initChildNode" - 225: 0%....50%....100% - 13 passes
==PROF== Profiling "initChildNode" - 226: 0%....50%....100% - 13 passes
==PROF== Profiling "initChildNode" - 227: 0%....50%....100% - 13 passes
==PROF== Profiling "initChildNode" - 228: 0%....50%....100% - 13 passes
==PROF== Profiling "initChildNode" - 229: 0%....50%....100% - 13 passes
==PROF== Profiling "initChildNode" - 230: 0%....50%....100% - 13 passes
==PROF== Profiling "initChildNode" - 231: 0%....50%....100% - 13 passes
==PROF== Profiling "initChildNode" - 232: 0%....50%....100% - 13 passes
==PROF== Profiling "initChildNode" - 233: 0%....50%....100% - 13 passes
==PROF== Profiling "initChildNode" - 234: 0%....50%....100% - 13 passes
==PROF== Profiling "initChildNode" - 235: 0%....50%....100% - 13 passes
==PROF== Profiling "initChildNode" - 236: 0%....50%....100% - 13 passes
==PROF== Profiling "initChildNode" - 237: 0%....50%....100% - 13 passes
==PROF== Profiling "initChildNode" - 238: 0%....50%....100% - 13 passes
==PROF== Profiling "initChildNode" - 239: 0%....50%....100% - 13 passes
==PROF== Profiling "initChildNode" - 240: 0%....50%....100% - 13 passes
==PROF== Profiling "initChildNode" - 241: 0%....50%....100% - 13 passes
==PROF== Profiling "initChildNode" - 242: 0%....50%....100% - 13 passes
==PROF== Profiling "initChildNode" - 243: 0%....50%....100% - 13 passes
==PROF== Profiling "initChildNode" - 244: 0%....50%....100% - 13 passes
==PROF== Profiling "initChildNode" - 245: 0%....50%....100% - 13 passes
==PROF== Profiling "initChildNode" - 246: 0%....50%....100% - 13 passes
==PROF== Profiling "initChildNode" - 247: 0%....50%....100% - 13 passes
==PROF== Profiling "initChildNode" - 248: 0%....50%....100% - 13 passes
==PROF== Profiling "initChildNode" - 249: 0%....50%....100% - 13 passes
==PROF== Profiling "initChildNode" - 250: 0%....50%....100% - 13 passes
==PROF== Profiling "initChildNode" - 251: 0%....50%....100% - 13 passes
==PROF== Profiling "initChildNode" - 252: 0%....50%....100% - 13 passes
==PROF== Profiling "initChildNode" - 253: 0%....50%....100% - 13 passes
==PROF== Profiling "initChildNode" - 254: 0%....50%....100% - 13 passes
==PROF== Profiling "initChildNode" - 255: 0%....50%....100% - 13 passes
==PROF== Profiling "initChildNode" - 256: 0%....50%....100% - 13 passes
==PROF== Profiling "initChildNode" - 257: 0%....50%....100% - 13 passes
==PROF== Profiling "initChildNode" - 258: 0%....50%....100% - 13 passes
==PROF== Profiling "initChildNode" - 259: 0%....50%....100% - 13 passes
==PROF== Profiling "initChildNode" - 260: 0%....50%....100% - 13 passes
==PROF== Profiling "initChildNode" - 261: 0%....50%....100% - 13 passes
==PROF== Profiling "initChildNode" - 262: 0%....50%....100% - 13 passes
==PROF== Profiling "initChildNode" - 263: 0%....50%....100% - 13 passes
==PROF== Profiling "initChildNode" - 264: 0%....50%....100% - 13 passes
==PROF== Profiling "initChildNode" - 265: 0%....50%....100% - 13 passes
==PROF== Profiling "initChildNode" - 266: 0%....50%....100% - 13 passes
==PROF== Profiling "initChildNode" - 267: 0%....50%....100% - 13 passes
==PROF== Profiling "initChildNode" - 268: 0%....50%....100% - 13 passes
==PROF== Profiling "initChildNode" - 269: 0%....50%....100% - 13 passes
==PROF== Profiling "initChildNode" - 270: 0%....50%....100% - 13 passes
==PROF== Profiling "initChildNode" - 271: 0%....50%....100% - 13 passes
==PROF== Profiling "initChildNode" - 272: 0%....50%....100% - 13 passes
==PROF== Profiling "initChildNode" - 273: 0%....50%....100% - 13 passes
==PROF== Profiling "initChildNode" - 274: 0%....50%....100% - 13 passes
==PROF== Profiling "initChildNode" - 275: 0%....50%....100% - 13 passes
==PROF== Profiling "initChildNode" - 276: 0%....50%....100% - 13 passes
==PROF== Profiling "initChildNode" - 277: 0%....50%....100% - 13 passes
==PROF== Profiling "initChildNode" - 278: 0%....50%....100% - 13 passes
==PROF== Profiling "initChildNode" - 279: 0%....50%....100% - 13 passes
==PROF== Profiling "initChildNode" - 280: 0%....50%....100% - 13 passes
==PROF== Profiling "initChildNode" - 281: 0%....50%....100% - 13 passes
==PROF== Profiling "initChildNode" - 282: 0%....50%....100% - 13 passes
==PROF== Profiling "initChildNode" - 283: 0%....50%....100% - 13 passes
==PROF== Profiling "initChildNode" - 284: 0%....50%....100% - 13 passes
==PROF== Profiling "initChildNode" - 285: 0%....50%....100% - 13 passes
==PROF== Profiling "initChildNode" - 286: 0%....50%....100% - 13 passes
==PROF== Profiling "initChildNode" - 287: 0%....50%....100% - 13 passes
==PROF== Profiling "initChildNode" - 288: 0%....50%....100% - 13 passes
==PROF== Profiling "initChildNode" - 289: 0%....50%....100% - 13 passes
==PROF== Profiling "initChildNode" - 290: 0%....50%....100% - 13 passes
==PROF== Profiling "initChildNode" - 291: 0%....50%....100% - 13 passes
==PROF== Profiling "initChildNode" - 292: 0%....50%....100% - 13 passes
==PROF== Profiling "initChildNode" - 293: 0%....50%....100% - 13 passes
==PROF== Profiling "initChildNode" - 294: 0%....50%....100% - 13 passes
==PROF== Profiling "initChildNode" - 295: 0%....50%....100% - 13 passes
==PROF== Profiling "initChildNode" - 296: 0%....50%....100% - 13 passes
==PROF== Profiling "initChildNode" - 297: 0%....50%....100% - 13 passes
==PROF== Profiling "initChildNode" - 298: 0%....50%....100% - 13 passes
==PROF== Profiling "initChildNode" - 299: 0%....50%....100% - 13 passes
==PROF== Profiling "initChildNode" - 300: 0%....50%....100% - 13 passes
==PROF== Profiling "initChildNode" - 301: 0%....50%....100% - 13 passes
==PROF== Profiling "initChildNode" - 302: 0%....50%....100% - 13 passes
==PROF== Profiling "initChildNode" - 303: 0%....50%....100% - 13 passes
==PROF== Profiling "initChildNode" - 304: 0%....50%....100% - 13 passes
==PROF== Profiling "initChildNode" - 305: 0%....50%....100% - 13 passes
==PROF== Profiling "initChildNode" - 306: 0%....50%....100% - 13 passes
==PROF== Profiling "initChildNode" - 307: 0%....50%....100% - 13 passes
==PROF== Profiling "initChildNode" - 308: 0%....50%....100% - 13 passes
==PROF== Profiling "initChildNode" - 309: 0%....50%....100% - 13 passes
==PROF== Profiling "initChildNode" - 310: 0%....50%....100% - 13 passes
==PROF== Profiling "initChildNode" - 311: 0%....50%....100% - 13 passes
==PROF== Profiling "initChildNode" - 312: 0%....50%....100% - 13 passes
==PROF== Profiling "initChildNode" - 313: 0%....50%....100% - 13 passes
==PROF== Profiling "initChildNode" - 314: 0%....50%....100% - 13 passes
==PROF== Profiling "initChildNode" - 315: 0%....50%....100% - 13 passes
==PROF== Profiling "initChildNode" - 316: 0%....50%....100% - 13 passes
==PROF== Profiling "initChildNode" - 317: 0%....50%....100% - 13 passes
==PROF== Profiling "initChildNode" - 318: 0%....50%....100% - 13 passes
==PROF== Profiling "initChildNode" - 319: 0%....50%....100% - 13 passes
==PROF== Profiling "initChildNode" - 320: 0%....50%....100% - 13 passes
==PROF== Profiling "initChildNode" - 321: 0%....50%....100% - 13 passes
==PROF== Profiling "initChildNode" - 322: 0%....50%....100% - 13 passes
==PROF== Profiling "initChildNode" - 323: 0%....50%....100% - 13 passes
==PROF== Profiling "initChildNode" - 324: 0%....50%....100% - 13 passes
==PROF== Profiling "initChildNode" - 325: 0%....50%....100% - 13 passes
==PROF== Profiling "initChildNode" - 326: 0%....50%....100% - 13 passes
==PROF== Profiling "initChildNode" - 327: 0%....50%....100% - 13 passes
==PROF== Profiling "initChildNode" - 328: 0%....50%....100% - 13 passes
Using following defaults:
+ Width: 512
+ Height: 512
+ MaxRayDepth: 3
+ Resources: resources.json
+ Image: image.png
Oct taken seconds: 68.7242
==PROF== Profiling "film" - 329: 0%....50%....100% - 13 passes
Rendering seconds: 9.58595
==PROF== Disconnected from process 4002
[4002] run@127.0.0.1
  initChildNode(DOctTree **, int, DOctTree *), 2022-May-19 16:48:44, Context 1, Stream 7
    Section: Command line profiler metrics
    ---------------------------------------------------------------------- --------------- ------------------------------
    dram__bytes_read.sum                                                              byte                            160
    dram__bytes_read.sum.per_second                                           Mbyte/second                          52.63
    dram__bytes_write.sum                                                             byte                              0
    dram__bytes_write.sum.per_second                                           byte/second                              0
    dram__sectors_read.sum                                                          sector                              5
    dram__sectors_write.sum                                                         sector                              0
    l1tex__f_tex2sm_cycles_active.avg.pct_of_peak_sustained_elapsed                      %                              0
    l1tex__lsu_writeback_active.avg.pct_of_peak_sustained_active                         %                              0
    l1tex__lsu_writeback_active.sum                                                  cycle                              0
    l1tex__t_bytes_pipe_lsu_mem_global_op_ld.sum.per_second                    byte/second                              0
    l1tex__t_bytes_pipe_lsu_mem_global_op_st.sum                                      byte                             32
    l1tex__t_bytes_pipe_lsu_mem_global_op_st.sum.per_second                   Mbyte/second                          10.53
    l1tex__t_bytes_pipe_lsu_mem_local_op_ld.sum.per_second                     byte/second                              0
    l1tex__t_requests_pipe_lsu_mem_global_op_atom.sum                              request                              0
    l1tex__t_requests_pipe_lsu_mem_global_op_ld.sum                                request                              0
    l1tex__t_requests_pipe_lsu_mem_global_op_red.sum                               request                              0
    l1tex__t_requests_pipe_lsu_mem_global_op_st.sum                                request                              1
    l1tex__t_requests_pipe_lsu_mem_local_op_ld.sum                                 request                              0
    l1tex__t_requests_pipe_lsu_mem_local_op_st.sum                                 request                              0
    l1tex__t_requests_pipe_tex_mem_surface_op_atom.sum                             request                              0
    l1tex__t_requests_pipe_tex_mem_surface_op_ld.sum                               request                              0
    l1tex__t_requests_pipe_tex_mem_surface_op_red.sum                              request                              0
    l1tex__t_requests_pipe_tex_mem_surface_op_st.sum                               request                              0
    l1tex__t_requests_pipe_tex_mem_texture.sum                                     request                              0
    l1tex__t_sector_hit_rate.pct                                                         %                              0
    l1tex__t_sectors_pipe_lsu_mem_global_op.sum                                                                   (!) n/a
    l1tex__t_sectors_pipe_lsu_mem_global_op_ld.sum                                  sector                              0
    l1tex__t_sectors_pipe_lsu_mem_global_op_lookup_hit.sum                                                        (!) n/a
    l1tex__t_sectors_pipe_lsu_mem_local_op_ld.sum                                   sector                              0
    l1tex__t_sectors_pipe_lsu_mem_local_op_st.sum                                   sector                              0
    l1tex__t_sectors_pipe_lsu_mem_local_op_st.sum.per_second                 sector/second                              0
    l1tex__t_set_accesses_pipe_lsu_mem_global_op_atom.sum                                                               0
    l1tex__t_set_accesses_pipe_lsu_mem_global_op_red.sum                                                                0
    l1tex__t_set_accesses_pipe_tex_mem_surface_op_atom.sum                                                              0
    l1tex__t_set_accesses_pipe_tex_mem_surface_op_red.sum                                                               0
    l1tex__tex_writeback_active.avg.pct_of_peak_sustained_active                         %                              0
    l1tex__texin_sm2tex_req_cycles_active.avg.pct_of_peak_sustained_elapse               %                           0.10
    d                                                                                                                    
    lts__t_bytes_equiv_l1sectormiss_pipe_lsu_mem_global_op_ld.sum                     byte                              0
    lts__t_bytes_equiv_l1sectormiss_pipe_lsu_mem_global_op_st.sum                     byte                             32
    lts__t_bytes_equiv_l1sectormiss_pipe_lsu_mem_surface_op_st.sum                                                (!) n/a
    lts__t_bytes_equiv_l1sectormiss_pipe_tex_mem_surface_op_ld.sum                    byte                              0
    lts__t_sector_hit_rate.pct                                                           %                          98.84
    lts__t_sector_op_read_hit_rate.pct                                                   %                           2.28
    lts__t_sector_op_write_hit_rate.pct                                                  %                            100
    lts__t_sectors.avg.pct_of_peak_sustained_elapsed                                     %                           0.33
    lts__t_sectors_aperture_sysmem_op_read.sum                                      sector                              0
    lts__t_sectors_aperture_sysmem_op_read.sum.per_second                    sector/second                              0
    lts__t_sectors_aperture_sysmem_op_write.sum                                     sector                              6
    lts__t_sectors_aperture_sysmem_op_write.sum.per_second                  sector/usecond                           1.97
    lts__t_sectors_op_read.sum                                                      sector                            571
    lts__t_sectors_op_read.sum.per_second                                   sector/usecond                         187.83
    lts__t_sectors_op_write.sum                                                     sector                             15
    lts__t_sectors_op_write.sum.per_second                                  sector/usecond                           4.93
    lts__t_sectors_srcunit_l1_op_atom.sum                                           sector                              0
    lts__t_sectors_srcunit_l1_op_atom.sum.per_second                         sector/second                              0
    lts__t_sectors_srcunit_tex_op_read.sum                                          sector                              0
    lts__t_sectors_srcunit_tex_op_read.sum.per_second                        sector/second                              0
    sm__mio2rf_writeback_active.avg.pct_of_peak_sustained_elapsed                        %                           0.00
    sm__pipe_tensor_cycles_active.avg.pct_of_peak_sustained_active                       %                              0
    sm__warps_active.avg.pct_of_peak_sustained_active                                    %                           3.14
    smsp__average_inst_executed_per_warp.ratio                                   inst/warp                             43
    smsp__cycles_active.avg.pct_of_peak_sustained_elapsed                                %                           0.28
    smsp__inst_executed.avg.per_cycle_active                                    inst/cycle                           0.02
    smsp__inst_executed.sum                                                           inst                             43
    smsp__inst_executed_op_global_atom.sum                                                                        (!) n/a
    smsp__inst_executed_op_global_ld.sum                                              inst                              0
    smsp__inst_executed_op_global_st.sum                                              inst                              0
    smsp__inst_executed_op_local_ld.sum                                               inst                              0
    smsp__inst_executed_op_shared_atom.sum                                            inst                              0
    smsp__inst_executed_op_shared_atom_dot_alu.sum                                    inst                              0
    smsp__inst_executed_op_shared_atom_dot_cas.sum                                    inst                              0
    smsp__inst_executed_op_shared_ld.avg.pct_of_peak_sustained_elapsed                   %                              0
    smsp__inst_executed_op_shared_ld.sum                                              inst                              0
    smsp__inst_executed_op_shared_ld.sum.per_second                            inst/second                              0
    smsp__inst_executed_op_shared_st.avg.pct_of_peak_sustained_elapsed                   %                              0
    smsp__inst_executed_op_shared_st.sum                                              inst                              0
    smsp__inst_executed_op_shared_st.sum.per_second                            inst/second                              0
    smsp__inst_executed_op_surface_atom.sum                                           inst                              0
    smsp__inst_executed_op_surface_ld.sum                                             inst                              0
    smsp__inst_executed_op_surface_red.sum                                            inst                              0
    smsp__inst_executed_op_surface_st.sum                                             inst                              0
    smsp__inst_executed_op_texture.sum                                                inst                              0
    smsp__inst_executed_pipe_adu.sum                                                  inst                              3
    smsp__inst_executed_pipe_cbu.sum                                                  inst                              1
    smsp__inst_executed_pipe_fp16.sum                                                 inst                              0
    smsp__inst_executed_pipe_fp64.avg.pct_of_peak_sustained_active                       %                              0
    smsp__inst_executed_pipe_lsu.avg.pct_of_peak_sustained_active                        %                           0.17
    smsp__inst_executed_pipe_tex.avg.pct_of_peak_sustained_active                        %                           0.08
    smsp__inst_issued.avg.per_cycle_active                                      inst/cycle                           0.02
    smsp__inst_issued.sum                                                             inst                             44
    smsp__issue_active.avg.pct_of_peak_sustained_active                                  %                           1.84
    smsp__sass_thread_inst_executed_op_control_pred_on.sum                            inst                              2
    smsp__sass_thread_inst_executed_op_dadd_pred_on.sum                               inst                              0
    smsp__sass_thread_inst_executed_op_dfma_pred_on.sum                               inst                              0
    smsp__sass_thread_inst_executed_op_dmul_pred_on.sum                               inst                              0
    smsp__sass_thread_inst_executed_op_fadd_pred_on.sum                               inst                              0
    smsp__sass_thread_inst_executed_op_ffma_pred_on.sum                               inst                              0
    smsp__sass_thread_inst_executed_op_fmul_pred_on.sum                               inst                              0
    smsp__sass_thread_inst_executed_op_fp16_pred_on.sum                               inst                              0
    smsp__sass_thread_inst_executed_op_fp32_pred_on.sum                               inst                              0
    smsp__sass_thread_inst_executed_op_fp64_pred_on.sum                               inst                              0
    smsp__sass_thread_inst_executed_op_hadd_pred_on.sum                               inst                              0
    smsp__sass_thread_inst_executed_op_hfma_pred_on.sum                               inst                              0
    smsp__sass_thread_inst_executed_op_hmul_pred_on.sum                               inst                              0
    smsp__sass_thread_inst_executed_op_integer_pred_on.sum                            inst                              5
    smsp__sass_thread_inst_executed_op_inter_thread_communication_pred_on.            inst                              0
    sum                                                                                                                  
    smsp__sass_thread_inst_executed_op_memory_pred_on.sum                             inst                              5
    smsp__sass_thread_inst_executed_op_misc_pred_on.sum                               inst                             31
    smsp__sass_thread_inst_executed_op_mufu_pred_on.sum                                                           (!) n/a
    smsp__thread_inst_executed_per_inst_executed.pct                                     %                           3.12
    smsp__thread_inst_executed_per_inst_executed.ratio                                                                  1
    smsp__warp_issue_stalled_drain_miss_per_warp_active.pct                                                       (!) n/a
    smsp__warp_issue_stalled_imc_miss_per_warp_active.pct                                %                          13.75
    smsp__warp_issue_stalled_long_scoreboard_miss_per_warp_active.pct                                             (!) n/a
    smsp__warp_issue_stalled_misc_membar_per_warp_active.pct                                                      (!) n/a
    smsp__warp_issue_stalled_misc_mio_throttle_per_warp_active.pct                                                (!) n/a
    smsp__warp_issue_stalled_misc_miss_per_warp_active.pct                                                        (!) n/a
    smsp__warp_issue_stalled_misc_sleeping_per_warp_active.pct                                                    (!) n/a
    smsp__warp_issue_stalled_misc_tex_throttle_per_warp_active.pct                                                (!) n/a
    smsp__warp_issue_stalled_no_instruction_miss_per_warp_active.pct                                              (!) n/a
    smsp__warp_issue_stalled_short_scoreboard_miss_per_warp_active.pct                                            (!) n/a
    smsp__warps_eligible.sum.per_cycle_active                                         warp                           5.01
    ---------------------------------------------------------------------- --------------- ------------------------------

  initChildNode(DOctTree **, int, DOctTree *), 2022-May-19 16:48:44, Context 1, Stream 7
    Section: Command line profiler metrics
    ---------------------------------------------------------------------- --------------- ------------------------------
    dram__bytes_read.sum                                                             Kbyte                           5.02
    dram__bytes_read.sum.per_second                                           Gbyte/second                           1.65
    dram__bytes_write.sum                                                             byte                              0
    dram__bytes_write.sum.per_second                                           byte/second                              0
    ---------------------------------------------------------------------- --------------- ------------------------------

