Flat profile:

Each sample counts as 0.01 seconds.
  %   cumulative   self              self     total           
 time   seconds   seconds    calls   s/call   s/call  name    
 15.78    222.27   222.27 34973814458     0.00     0.00  ray::origin() const
  9.84    360.85   138.58 35602440896     0.00     0.00  ray::direction() const
  7.60    467.89   107.04 3048783384     0.00     0.00  hitable_list::hit(ray const&, float, float, hit_record&) const
  7.51    573.70   105.81 6097566768     0.00     0.00  yz_rect::hit(ray const&, float, float, hit_record&) const
  7.32    676.81   103.11 6975774381     0.00     0.00  xz_rect::hit(ray const&, float, float, hit_record&) const
  6.50    768.39    91.58 5219359155     0.00     0.00  xy_rect::hit(ray const&, float, float, hit_record&) const
  5.43    844.83    76.44 2170575771     0.00     0.00  rotate_y::hit(ray const&, float, float, hit_record&) const
  4.00    901.22    56.39 4564371550     0.00     0.00  operator-(vec3 const&, vec3 const&)
  3.85    955.48    54.26 4349727971     0.00     0.00  operator+(vec3 const&, vec3 const&)
  3.40   1003.33    47.86 4050119186     0.00     0.00  operator*(float, vec3 const&)
  3.10   1046.94    43.60 35987720760     0.00     0.00  vec3::operator[](int)
  3.02   1089.40    42.47 12267672827     0.00     0.00  vec3::vec3(float, float, float)
  2.41   1123.30    33.90 556415560     0.00     0.00  flip_normal::hit(ray const&, float, float, hit_record&) const
  1.82   1148.99    25.69 11989058934     0.00     0.00  vec3::x() const
  1.63   1171.99    23.00 21867653216     0.00     0.00  vec3::y() const
  1.53   1193.55    21.56 10364007574     0.00     0.00  vec3::z() const
  1.52   1214.95    21.40 11289507815     0.00     0.00  vec3::vec3()
  1.36   1234.06    19.11 5219359155     0.00     0.00  ray::ray(vec3 const&, vec3 const&)
  1.25   1251.61    17.55 2170575771     0.00     0.00  translate::hit(ray const&, float, float, hit_record&) const
  1.17   1268.12    16.50 870512796     0.00     0.00  vec3::operator-() const
  1.06   1283.09    14.97 1756415226     0.00     0.00  constant_medium::hit(ray const&, float, float, hit_record&) const
  0.98   1296.94    13.85 1994722390     0.00     0.00  ray::point_at_parameter(float) const
  0.81   1308.28    11.34 160000000     0.00     0.00  color(ray const&, hitable*, int)
  0.79   1319.46    11.17 718207613     0.00     0.00  random_in_unit_sphere()
  0.72   1329.65    10.19        1    10.19    10.19  std::tan(float)
  0.71   1339.69    10.04 718207613     0.00     0.00  operator*(vec3 const&, vec3 const&)
  0.69   1349.38     9.69 7439821449     0.00     0.00  hit_record::hit_record()
  0.58   1357.55     8.17 718226823     0.00     0.00  material::emitted(float, float, vec3 const&) const
  0.48   1364.34     6.79 498398984     0.00     0.00  lambertian::scatter(ray const&, hit_record const&, vec3&, ray&) const
  0.40   1369.91     5.57 2170575771     0.00     0.00  box::hit(ray const&, float, float, hit_record&) const
  0.28   1373.83     3.92 320000000     0.00     0.00  operator*(vec3 const&, float)
  0.27   1377.58     3.75 1575396791     0.00     0.00  dot(vec3 const&, vec3 const&)
  0.24   1380.97     3.38                             refract(vec3 const&, vec3 const&, float, vec3&)
  0.22   1384.13     3.16        9     0.35     0.35  flip_normal::flip_normal(hitable*)
  0.22   1387.26     3.13 988320959     0.00     0.00  vec3::operator+=(vec3 const&)
  0.18   1389.86     2.60        3     0.87     0.87  hitable_list::hitable_list(hitable**, int)
  0.18   1392.40     2.55 757602637     0.00     0.00  ray::ray()
  0.18   1394.93     2.53 757583427     0.00     0.00  constant_texture::value(float, float, vec3 const&) const
  0.18   1397.45     2.52 219808629     0.00     0.00  isotropic::scatter(ray const&, hit_record const&, vec3&, ray&) const
  0.17   1399.90     2.45 160000000     0.00     0.00  camera::get_ray(float, float)
  0.12   1401.65     1.75 160000000     0.00     0.00  random_in_unit_disk()
  0.12   1403.29     1.65 628626697     0.00     0.00  vec3::length() const
  0.09   1404.57     1.28                             main
  0.06   1405.39     0.82        2     0.41     2.33  box::box(vec3 const&, vec3 const&, material*)
  0.05   1406.07     0.68 629106697     0.00     0.00  std::sqrt(float)
  0.03   1406.43     0.36        2     0.18     0.29  rotate_y::rotate_y(hitable*, float)
  0.02   1406.75     0.32                             frame_dummy
  0.02   1407.04     0.29        3     0.10     0.10  perlin_generate_perm()
  0.02   1407.29     0.25 39375814     0.00     0.00  diffuse_light::emitted(float, float, vec3 const&) const
  0.02   1407.53     0.25      259     0.00     0.00  unit_vector(vec3)
  0.02   1407.75     0.22        2     0.11     0.11  std::sin(float)
  0.01   1407.90     0.15        3     0.05     0.05  lambertian::lambertian(texture*)
  0.01   1408.04     0.14        2     0.07     0.07  cross(vec3 const&, vec3 const&)
  0.01   1408.16     0.12        1     0.12     7.52  cornell_smoke()
  0.01   1408.26     0.10                             reflect(vec3 const&, vec3 const&)
  0.01   1408.35     0.09        2     0.05     0.05  isotropic::isotropic(texture*)
  0.00   1408.42     0.07 39374848     0.00     0.00  diffuse_light::scatter(ray const&, hit_record const&, vec3&, ray&) const
  0.00   1408.47     0.05      259     0.00     0.00  operator/(vec3, float)
  0.00   1408.49     0.03        1     0.03    10.36  camera::camera(vec3, vec3, vec3, float, float, float, float)
  0.00   1408.50     0.01        1     0.01     0.01  diffuse_light::diffuse_light(texture*)
  0.00   1408.50     0.00   480000     0.00     0.00  int const& std::max<int>(int const&, int const&)
  0.00   1408.50     0.00   480000     0.00     0.00  int const& std::min<int>(int const&, int const&)
  0.00   1408.50     0.00   160000     0.00     0.00  vec3::operator/=(float)
  0.00   1408.50     0.00       38     0.00     0.00  hitable::hitable()
  0.00   1408.50     0.00        7     0.00     0.00  xz_rect::xz_rect(float, float, float, float, float, material*)
  0.00   1408.50     0.00        6     0.00     0.00  constant_texture::constant_texture(vec3)
  0.00   1408.50     0.00        6     0.00     0.00  texture::texture()
  0.00   1408.50     0.00        6     0.00     0.00  yz_rect::yz_rect(float, float, float, float, float, material*)
  0.00   1408.50     0.00        6     0.00     0.00  material::material()
  0.00   1408.50     0.00        5     0.00     0.00  xy_rect::xy_rect(float, float, float, float, float, material*)
  0.00   1408.50     0.00        3     0.00     0.00  permute(int*, int)
  0.00   1408.50     0.00        3     0.00     0.00  std::chrono::duration<long, std::ratio<1l, 1000000000l> >::count() const
  0.00   1408.50     0.00        2     0.00     0.05  constant_medium::constant_medium(hitable*, float, texture*)
  0.00   1408.50     0.00        2     0.00     0.00  translate::translate(hitable*, vec3 const&)
  0.00   1408.50     0.00        2     0.00     0.00  std::chrono::time_point<std::chrono::_V2::system_clock, std::chrono::duration<long, std::ratio<1l, 1000000000l> > >::time_since_epoch() const
  0.00   1408.50     0.00        2     0.00     0.00  std::chrono::duration<double, std::ratio<1l, 1000l> >::count() const
  0.00   1408.50     0.00        2     0.00     0.00  std::cos(float)
  0.00   1408.50     0.00        1     0.00     0.58  _GLOBAL__sub_I__ZNK12hitable_list3hitERK3rayffR10hit_record
  0.00   1408.50     0.00        1     0.00     0.58  __static_initialization_and_destruction_0(int, int)
  0.00   1408.50     0.00        1     0.00     0.29  perlin_generate()
  0.00   1408.50     0.00        1     0.00     0.00  std::enable_if<std::chrono::__is_duration<std::chrono::duration<double, std::ratio<1l, 1000l> > >::value, std::chrono::duration<double, std::ratio<1l, 1000l> > >::type std::chrono::duration_cast<std::chrono::duration<double, std::ratio<1l, 1000l> >, long, std::ratio<1l, 1000000000l> >(std::chrono::duration<long, std::ratio<1l, 1000000000l> > const&)
  0.00   1408.50     0.00        1     0.00     0.00  std::chrono::duration<double, std::ratio<1l, 1000l> > std::chrono::__duration_cast_impl<std::chrono::duration<double, std::ratio<1l, 1000l> >, std::ratio<1l, 1000000l>, double, true, false>::__cast<long, std::ratio<1l, 1000000000l> >(std::chrono::duration<long, std::ratio<1l, 1000000000l> > const&)
  0.00   1408.50     0.00        1     0.00     0.00  std::chrono::duration<double, std::ratio<1l, 1000l> >::duration<double, void>(double const&)
  0.00   1408.50     0.00        1     0.00     0.00  std::chrono::duration<double, std::ratio<1l, 1000l> >::duration<long, std::ratio<1l, 1000000000l>, void>(std::chrono::duration<long, std::ratio<1l, 1000000000l> > const&)
  0.00   1408.50     0.00        1     0.00     0.00  std::chrono::duration<long, std::ratio<1l, 1000000000l> >::duration<long, void>(long const&)
  0.00   1408.50     0.00        1     0.00     0.00  std::common_type<std::chrono::duration<long, std::ratio<1l, 1000000000l> >, std::chrono::duration<long, std::ratio<1l, 1000000000l> > >::type std::chrono::operator-<std::chrono::_V2::system_clock, std::chrono::duration<long, std::ratio<1l, 1000000000l> >, std::chrono::duration<long, std::ratio<1l, 1000000000l> > >(std::chrono::time_point<std::chrono::_V2::system_clock, std::chrono::duration<long, std::ratio<1l, 1000000000l> > > const&, std::chrono::time_point<std::chrono::_V2::system_clock, std::chrono::duration<long, std::ratio<1l, 1000000000l> > > const&)
  0.00   1408.50     0.00        1     0.00     0.00  std::common_type<std::chrono::duration<long, std::ratio<1l, 1000000000l> >, std::chrono::duration<long, std::ratio<1l, 1000000000l> > >::type std::chrono::operator-<long, std::ratio<1l, 1000000000l>, long, std::ratio<1l, 1000000000l> >(std::chrono::duration<long, std::ratio<1l, 1000000000l> > const&, std::chrono::duration<long, std::ratio<1l, 1000000000l> > const&)

 %         the percentage of the total running time of the
time       program used by this function.

cumulative a running sum of the number of seconds accounted
 seconds   for by this function and those listed above it.

 self      the number of seconds accounted for by this
seconds    function alone.  This is the major sort for this
           listing.

calls      the number of times this function was invoked, if
           this function is profiled, else blank.

 self      the average number of milliseconds spent in this
ms/call    function per call, if this function is profiled,
	   else blank.

 total     the average number of milliseconds spent in this
ms/call    function and its descendents per call, if this
	   function is profiled, else blank.

name       the name of the function.  This is the minor sort
           for this listing. The index shows the location of
	   the function in the gprof listing. If the index is
	   in parenthesis it shows where it would appear in
	   the gprof listing if it were to be printed.

Copyright (C) 2012-2018 Free Software Foundation, Inc.

Copying and distribution of this file, with or without modification,
are permitted in any medium without royalty provided the copyright
notice and this notice are preserved.

		     Call graph (explanation follows)


granularity: each sample hit covers 2 byte(s) for 0.00% of 1408.50 seconds

index % time    self  children    called     name
                                                 <spontaneous>
[1]     99.7    1.28 1402.84                 main [1]
               11.34 1335.44 160000000/160000000     color(ray const&, hitable*, int) [2]
                2.45   35.22 160000000/160000000     camera::get_ray(float, float) [22]
                0.03   10.34       1/1           camera::camera(vec3, vec3, vec3, float, float, float, float) [33]
                0.12    7.40       1/1           cornell_smoke() [36]
                0.51    0.00 160000000/988320959     vec3::operator+=(vec3 const&) [44]
                0.00    0.00  960000/35987720760     vec3::operator[](int) [19]
                0.00    0.00  320003/12267672827     vec3::vec3(float, float, float) [20]
                0.00    0.00  480000/629106697     std::sqrt(float) [48]
                0.00    0.00  480000/480000      int const& std::max<int>(int const&, int const&) [72]
                0.00    0.00  480000/480000      int const& std::min<int>(int const&, int const&) [73]
                0.00    0.00  160000/160000      vec3::operator/=(float) [74]
                0.00    0.00       1/1           std::common_type<std::chrono::duration<long, std::ratio<1l, 1000000000l> >, std::chrono::duration<long, std::ratio<1l, 1000000000l> > >::type std::chrono::operator-<std::chrono::_V2::system_clock, std::chrono::duration<long, std::ratio<1l, 1000000000l> >, std::chrono::duration<long, std::ratio<1l, 1000000000l> > >(std::chrono::time_point<std::chrono::_V2::system_clock, std::chrono::duration<long, std::ratio<1l, 1000000000l> > > const&, std::chrono::time_point<std::chrono::_V2::system_clock, std::chrono::duration<long, std::ratio<1l, 1000000000l> > > const&) [93]
                0.00    0.00       1/1           std::chrono::duration<double, std::ratio<1l, 1000l> >::duration<long, std::ratio<1l, 1000000000l>, void>(std::chrono::duration<long, std::ratio<1l, 1000000000l> > const&) [91]
                0.00    0.00       1/2           std::chrono::duration<double, std::ratio<1l, 1000l> >::count() const [86]
-----------------------------------------------
                             718207613             color(ray const&, hitable*, int) [2]
               11.34 1335.44 160000000/160000000     main [1]
[2]     95.6   11.34 1335.44 160000000+718207613 color(ray const&, hitable*, int) [2]
              221.57  974.39 878207613/878207613     hitable_list::hit(ray const&, float, float, hit_record&) const <cycle 1> [4]
                6.79   66.61 498398984/498398984     lambertian::scatter(ray const&, hit_record const&, vec3&, ray&) const [13]
                2.52   21.11 219808629/219808629     isotropic::scatter(ray const&, hit_record const&, vec3&, ray&) const [24]
               10.04    2.49 718207613/718207613     operator*(vec3 const&, vec3 const&) [31]
                8.17    2.49 718226823/718226823     material::emitted(float, float, vec3 const&) const [32]
                8.96    0.03 718207613/4349727971     operator+(vec3 const&, vec3 const&) [18]
                2.55    2.87 757602637/757602637     ray::ray() [38]
                1.14    1.41 878207613/7439821449     hit_record::hit_record() [27]
                1.44    0.00 757602637/11289507815     vec3::vec3() [29]
                0.42    0.00 120604976/12267672827     vec3::vec3(float, float, float) [20]
                0.25    0.13 39375814/39375814     diffuse_light::emitted(float, float, vec3 const&) const [53]
                0.07    0.00 39374848/39374848     diffuse_light::scatter(ray const&, hit_record const&, vec3&, ray&) const [64]
                             718207613             color(ray const&, hitable*, int) [2]
-----------------------------------------------
[3]     84.9  221.57  974.39 878207613+10438718310 <cycle 1 as a whole> [3]
              107.04  724.95 3048783384             hitable_list::hit(ray const&, float, float, hit_record&) const <cycle 1> [4]
               76.44  164.22 2170575771             rotate_y::hit(ray const&, float, float, hit_record&) const <cycle 1> [7]
               17.55   61.53 2170575771             translate::hit(ray const&, float, float, hit_record&) const <cycle 1> [12]
               14.97   23.68 1756415226             constant_medium::hit(ray const&, float, float, hit_record&) const <cycle 1> [21]
                5.57    0.00 2170575771             box::hit(ray const&, float, float, hit_record&) const <cycle 1> [37]
-----------------------------------------------
                             2170575771             box::hit(ray const&, float, float, hit_record&) const <cycle 1> [37]
              221.57  974.39 878207613/878207613     color(ray const&, hitable*, int) [2]
[4]     59.1  107.04  724.95 3048783384         hitable_list::hit(ray const&, float, float, hit_record&) const <cycle 1> [4]
               33.90  360.66 556415560/556415560     flip_normal::hit(ray const&, float, float, hit_record&) const [5]
               52.90   80.65 3048783384/6097566768     yz_rect::hit(ray const&, float, float, hit_record&) const [6]
               38.09   60.04 2170575771/5219359155     xy_rect::hit(ray const&, float, float, hit_record&) const [8]
               58.04   31.82 3926990997/6975774381     xz_rect::hit(ray const&, float, float, hit_record&) const [10]
                3.97    4.89 3048783384/7439821449     hit_record::hit_record() [27]
                             1756415226             constant_medium::hit(ray const&, float, float, hit_record&) const <cycle 1> [21]
-----------------------------------------------
               33.90  360.66 556415560/556415560     hitable_list::hit(ray const&, float, float, hit_record&) const <cycle 1> [4]
[5]     28.0   33.90  360.66 556415560         flip_normal::hit(ray const&, float, float, hit_record&) const [5]
               53.50   84.33 3048783384/5219359155     xy_rect::hit(ray const&, float, float, hit_record&) const [8]
               52.90   80.65 3048783384/6097566768     yz_rect::hit(ray const&, float, float, hit_record&) const [6]
               45.06   24.71 3048783384/6975774381     xz_rect::hit(ray const&, float, float, hit_record&) const [10]
               16.50    3.01 870512796/870512796     vec3::operator-() const [30]
-----------------------------------------------
               52.90   80.65 3048783384/6097566768     hitable_list::hit(ray const&, float, float, hit_record&) const <cycle 1> [4]
               52.90   80.65 3048783384/6097566768     flip_normal::hit(ray const&, float, float, hit_record&) const [5]
[6]     19.0  105.81  161.29 6097566768         yz_rect::hit(ray const&, float, float, hit_record&) const [6]
               64.32    0.00 10121300918/34973814458     ray::origin() const [9]
               39.40    0.00 10121300918/35602440896     ray::direction() const [11]
                4.33   17.31 622821918/1994722390     ray::point_at_parameter(float) const [14]
               17.30    0.00 8318701446/10364007574     vec3::z() const [28]
                8.75    0.00 8318701446/21867653216     vec3::y() const [25]
                7.73    0.00 3605198944/11989058934     vec3::x() const [23]
                2.16    0.00 622821918/12267672827     vec3::vec3(float, float, float) [20]
-----------------------------------------------
                             2170575771             translate::hit(ray const&, float, float, hit_record&) const <cycle 1> [12]
[7]     17.1   76.44  164.22 2170575771         rotate_y::hit(ray const&, float, float, hit_record&) const <cycle 1> [7]
               68.97    0.00 10852878855/34973814458     ray::origin() const [9]
               43.60    0.00 35986760760/35987720760     vec3::operator[](int) [19]
               42.24    0.00 10852878855/35602440896     ray::direction() const [11]
                7.95    1.46 2170575771/5219359155     ray::ray(vec3 const&, vec3 const&) [26]
                             2170575771             box::hit(ray const&, float, float, hit_record&) const <cycle 1> [37]
-----------------------------------------------
               38.09   60.04 2170575771/5219359155     hitable_list::hit(ray const&, float, float, hit_record&) const <cycle 1> [4]
               53.50   84.33 3048783384/5219359155     flip_normal::hit(ray const&, float, float, hit_record&) const [5]
[8]     16.8   91.58  144.36 5219359155         xy_rect::hit(ray const&, float, float, hit_record&) const [8]
               56.89    0.00 8951729439/34973814458     ray::origin() const [9]
               34.84    0.00 8951729439/35602440896     ray::direction() const [11]
                4.21   16.83 605600688/1994722390     ray::point_at_parameter(float) const [14]
               17.20    0.00 8027337580/11989058934     vec3::x() const [23]
                8.44    0.00 8027337580/21867653216     vec3::y() const [25]
                3.85    0.00 1848783718/10364007574     vec3::z() const [28]
                2.10    0.00 605600688/12267672827     vec3::vec3(float, float, float) [20]
-----------------------------------------------
               13.79    0.00 2170575771/34973814458     translate::hit(ray const&, float, float, hit_record&) const <cycle 1> [12]
               18.29    0.00 2877329475/34973814458     xz_rect::hit(ray const&, float, float, hit_record&) const [10]
               56.89    0.00 8951729439/34973814458     xy_rect::hit(ray const&, float, float, hit_record&) const [8]
               64.32    0.00 10121300918/34973814458     yz_rect::hit(ray const&, float, float, hit_record&) const [6]
               68.97    0.00 10852878855/34973814458     rotate_y::hit(ray const&, float, float, hit_record&) const <cycle 1> [7]
[9]     15.8  222.27    0.00 34973814458         ray::origin() const [9]
-----------------------------------------------
               45.06   24.71 3048783384/6975774381     flip_normal::hit(ray const&, float, float, hit_record&) const [5]
               58.04   31.82 3926990997/6975774381     hitable_list::hit(ray const&, float, float, hit_record&) const <cycle 1> [4]
[10]    11.3  103.11   56.53 6975774381         xz_rect::hit(ray const&, float, float, hit_record&) const [10]
                3.74   14.97 538500390/1994722390     ray::point_at_parameter(float) const [14]
               18.29    0.00 2877329475/34973814458     ray::origin() const [9]
               11.20    0.00 2877329475/35602440896     ray::direction() const [11]
                5.64    0.00 5361614170/21867653216     vec3::y() const [25]
                1.86    0.00 538500390/12267672827     vec3::vec3(float, float, float) [20]
                0.42    0.00 196522390/11989058934     vec3::x() const [23]
                0.41    0.00 196522390/10364007574     vec3::z() const [28]
-----------------------------------------------
                2.45    0.00 628626438/35602440896     constant_medium::hit(ray const&, float, float, hit_record&) const <cycle 1> [21]
                8.45    0.00 2170575771/35602440896     translate::hit(ray const&, float, float, hit_record&) const <cycle 1> [12]
               11.20    0.00 2877329475/35602440896     xz_rect::hit(ray const&, float, float, hit_record&) const [10]
               34.84    0.00 8951729439/35602440896     xy_rect::hit(ray const&, float, float, hit_record&) const [8]
               39.40    0.00 10121300918/35602440896     yz_rect::hit(ray const&, float, float, hit_record&) const [6]
               42.24    0.00 10852878855/35602440896     rotate_y::hit(ray const&, float, float, hit_record&) const <cycle 1> [7]
[11]     9.8  138.58    0.00 35602440896         ray::direction() const [11]
-----------------------------------------------
                             2170575771             constant_medium::hit(ray const&, float, float, hit_record&) const <cycle 1> [21]
[12]     5.6   17.55   61.53 2170575771         translate::hit(ray const&, float, float, hit_record&) const <cycle 1> [12]
               26.82    0.44 2170575771/4564371550     operator-(vec3 const&, vec3 const&) [17]
               13.79    0.00 2170575771/34973814458     ray::origin() const [9]
                7.95    1.46 2170575771/5219359155     ray::ray(vec3 const&, vec3 const&) [26]
                8.45    0.00 2170575771/35602440896     ray::direction() const [11]
                2.62    0.00 828320959/988320959     vec3::operator+=(vec3 const&) [44]
                             2170575771             rotate_y::hit(ray const&, float, float, hit_record&) const <cycle 1> [7]
-----------------------------------------------
                6.79   66.61 498398984/498398984     color(ray const&, hitable*, int) [2]
[13]     5.2    6.79   66.61 498398984         lambertian::scatter(ray const&, hit_record const&, vec3&, ray&) const [13]
                7.75   36.30 498398984/718207613     random_in_unit_sphere() [15]
               12.43    0.04 996797968/4349727971     operator+(vec3 const&, vec3 const&) [18]
                6.16    0.10 498398984/4564371550     operator-(vec3 const&, vec3 const&) [17]
                1.82    0.33 498398984/5219359155     ray::ray(vec3 const&, vec3 const&) [26]
                1.66    0.00 498398984/757583427     constant_texture::value(float, float, vec3 const&) const [46]
-----------------------------------------------
                1.58    6.33 227799394/1994722390     constant_medium::hit(ray const&, float, float, hit_record&) const <cycle 1> [21]
                3.74   14.97 538500390/1994722390     xz_rect::hit(ray const&, float, float, hit_record&) const [10]
                4.21   16.83 605600688/1994722390     xy_rect::hit(ray const&, float, float, hit_record&) const [8]
                4.33   17.31 622821918/1994722390     yz_rect::hit(ray const&, float, float, hit_record&) const [6]
[14]     4.9   13.85   55.44 1994722390         ray::point_at_parameter(float) const [14]
               23.57    6.91 1994722390/4050119186     operator*(float, vec3 const&) [16]
               24.88    0.09 1994722390/4349727971     operator+(vec3 const&, vec3 const&) [18]
-----------------------------------------------
                3.42   16.01 219808629/718207613     isotropic::scatter(ray const&, hit_record const&, vec3&, ray&) const [24]
                7.75   36.30 498398984/718207613     lambertian::scatter(ray const&, hit_record const&, vec3&, ray&) const [13]
[15]     4.5   11.17   52.31 718207613         random_in_unit_sphere() [15]
               16.21    4.75 1371676214/4050119186     operator*(float, vec3 const&) [16]
               16.95    0.28 1371676214/4564371550     operator-(vec3 const&, vec3 const&) [17]
                9.50    0.00 2743352428/12267672827     vec3::vec3(float, float, float) [20]
                3.27    0.00 1371676214/1575396791     dot(vec3 const&, vec3 const&) [41]
                1.36    0.00 718207613/11289507815     vec3::vec3() [29]
-----------------------------------------------
                0.00    0.00       5/4050119186     camera::camera(vec3, vec3, vec3, float, float, float, float) [33]
                2.41    0.71 203720577/4050119186     random_in_unit_disk() [35]
                5.67    1.66 480000000/4050119186     camera::get_ray(float, float) [22]
               16.21    4.75 1371676214/4050119186     random_in_unit_sphere() [15]
               23.57    6.91 1994722390/4050119186     ray::point_at_parameter(float) const [14]
[16]     4.4   47.86   14.02 4050119186         operator*(float, vec3 const&) [16]
               14.02    0.00 4050119186/12267672827     vec3::vec3(float, float, float) [20]
-----------------------------------------------
                0.00    0.00       4/4564371550     camera::camera(vec3, vec3, vec3, float, float, float, float) [33]
                2.52    0.04 203720577/4564371550     random_in_unit_disk() [35]
                3.95    0.07 320000000/4564371550     camera::get_ray(float, float) [22]
                6.16    0.10 498398984/4564371550     lambertian::scatter(ray const&, hit_record const&, vec3&, ray&) const [13]
               16.95    0.28 1371676214/4564371550     random_in_unit_sphere() [15]
               26.82    0.44 2170575771/4564371550     translate::hit(ray const&, float, float, hit_record&) const <cycle 1> [12]
[17]     4.1   56.39    0.93 4564371550         operator-(vec3 const&, vec3 const&) [17]
                0.93    0.00 269404254/12267672827     vec3::vec3(float, float, float) [20]
-----------------------------------------------
                7.98    0.03 640000000/4349727971     camera::get_ray(float, float) [22]
                8.96    0.03 718207613/4349727971     color(ray const&, hitable*, int) [2]
               12.43    0.04 996797968/4349727971     lambertian::scatter(ray const&, hit_record const&, vec3&, ray&) const [13]
               24.88    0.09 1994722390/4349727971     ray::point_at_parameter(float) const [14]
[18]     3.9   54.26    0.19 4349727971         operator+(vec3 const&, vec3 const&) [18]
                0.19    0.00 54760675/12267672827     vec3::vec3(float, float, float) [20]
-----------------------------------------------
                0.00    0.00  960000/35987720760     main [1]
               43.60    0.00 35986760760/35987720760     rotate_y::hit(ray const&, float, float, hit_record&) const <cycle 1> [7]
[19]     3.1   43.60    0.00 35987720760         vec3::operator[](int) [19]
-----------------------------------------------
                0.00    0.00       2/12267672827     cross(vec3 const&, vec3 const&) [60]
                0.00    0.00      12/12267672827     cornell_smoke() [36]
                0.00    0.00     256/12267672827     perlin_generate() [56]
                0.00    0.00     259/12267672827     operator/(vec3, float) [65]
                0.00    0.00  320003/12267672827     main [1]
                0.19    0.00 54760675/12267672827     operator+(vec3 const&, vec3 const&) [18]
                0.42    0.00 120604976/12267672827     color(ray const&, hitable*, int) [2]
                0.79    0.00 227799394/12267672827     constant_medium::hit(ray const&, float, float, hit_record&) const <cycle 1> [21]
                0.93    0.00 269404254/12267672827     operator-(vec3 const&, vec3 const&) [17]
                1.11    0.00 320000000/12267672827     operator*(vec3 const&, float) [39]
                1.41    0.00 407441154/12267672827     random_in_unit_disk() [35]
                1.86    0.00 538500390/12267672827     xz_rect::hit(ray const&, float, float, hit_record&) const [10]
                2.10    0.00 605600688/12267672827     xy_rect::hit(ray const&, float, float, hit_record&) const [8]
                2.16    0.00 622821918/12267672827     yz_rect::hit(ray const&, float, float, hit_record&) const [6]
                2.49    0.00 718207613/12267672827     operator*(vec3 const&, vec3 const&) [31]
                2.49    0.00 718226823/12267672827     material::emitted(float, float, vec3 const&) const [32]
                3.01    0.00 870512796/12267672827     vec3::operator-() const [30]
                9.50    0.00 2743352428/12267672827     random_in_unit_sphere() [15]
               14.02    0.00 4050119186/12267672827     operator*(float, vec3 const&) [16]
[20]     3.0   42.47    0.00 12267672827         vec3::vec3(float, float, float) [20]
-----------------------------------------------
                             1756415226             hitable_list::hit(ray const&, float, float, hit_record&) const <cycle 1> [4]
[21]     2.7   14.97   23.68 1756415226         constant_medium::hit(ray const&, float, float, hit_record&) const <cycle 1> [21]
                4.58    5.63 3512830452/7439821449     hit_record::hit_record() [27]
                1.58    6.33 227799394/1994722390     ray::point_at_parameter(float) const [14]
                2.45    0.00 628626438/35602440896     ray::direction() const [11]
                1.65    0.68 628626438/628626697     vec3::length() const [47]
                0.79    0.00 227799394/12267672827     vec3::vec3(float, float, float) [20]
                             2170575771             translate::hit(ray const&, float, float, hit_record&) const <cycle 1> [12]
-----------------------------------------------
                2.45   35.22 160000000/160000000     main [1]
[22]     2.7    2.45   35.22 160000000         camera::get_ray(float, float) [22]
                1.75    7.87 160000000/160000000     random_in_unit_disk() [35]
                7.98    0.03 640000000/4349727971     operator+(vec3 const&, vec3 const&) [18]
                5.67    1.66 480000000/4050119186     operator*(float, vec3 const&) [16]
                3.92    1.11 320000000/320000000     operator*(vec3 const&, float) [39]
                3.95    0.07 320000000/4564371550     operator-(vec3 const&, vec3 const&) [17]
                0.59    0.11 160000000/5219359155     ray::ray(vec3 const&, vec3 const&) [26]
                0.34    0.00 160000000/11989058934     vec3::x() const [23]
                0.17    0.00 160000000/21867653216     vec3::y() const [25]
-----------------------------------------------
                0.00    0.00      20/11989058934     box::box(vec3 const&, vec3 const&, material*) [40]
                0.34    0.00 160000000/11989058934     camera::get_ray(float, float) [22]
                0.42    0.00 196522390/11989058934     xz_rect::hit(ray const&, float, float, hit_record&) const [10]
                7.73    0.00 3605198944/11989058934     yz_rect::hit(ray const&, float, float, hit_record&) const [6]
               17.20    0.00 8027337580/11989058934     xy_rect::hit(ray const&, float, float, hit_record&) const [8]
[23]     1.8   25.69    0.00 11989058934         vec3::x() const [23]
-----------------------------------------------
                2.52   21.11 219808629/219808629     color(ray const&, hitable*, int) [2]
[24]     1.7    2.52   21.11 219808629         isotropic::scatter(ray const&, hit_record const&, vec3&, ray&) const [24]
                3.42   16.01 219808629/718207613     random_in_unit_sphere() [15]
                0.80    0.15 219808629/5219359155     ray::ray(vec3 const&, vec3 const&) [26]
                0.73    0.00 219808629/757583427     constant_texture::value(float, float, vec3 const&) const [46]
-----------------------------------------------
                0.00    0.00      20/21867653216     box::box(vec3 const&, vec3 const&, material*) [40]
                0.17    0.00 160000000/21867653216     camera::get_ray(float, float) [22]
                5.64    0.00 5361614170/21867653216     xz_rect::hit(ray const&, float, float, hit_record&) const [10]
                8.44    0.00 8027337580/21867653216     xy_rect::hit(ray const&, float, float, hit_record&) const [8]
                8.75    0.00 8318701446/21867653216     yz_rect::hit(ray const&, float, float, hit_record&) const [6]
[25]     1.6   23.00    0.00 21867653216         vec3::y() const [25]
-----------------------------------------------
                0.59    0.11 160000000/5219359155     camera::get_ray(float, float) [22]
                0.80    0.15 219808629/5219359155     isotropic::scatter(ray const&, hit_record const&, vec3&, ray&) const [24]
                1.82    0.33 498398984/5219359155     lambertian::scatter(ray const&, hit_record const&, vec3&, ray&) const [13]
                7.95    1.46 2170575771/5219359155     translate::hit(ray const&, float, float, hit_record&) const <cycle 1> [12]
                7.95    1.46 2170575771/5219359155     rotate_y::hit(ray const&, float, float, hit_record&) const <cycle 1> [7]
[26]     1.6   19.11    3.51 5219359155         ray::ray(vec3 const&, vec3 const&) [26]
                3.51    0.00 1848783718/11289507815     vec3::vec3() [29]
-----------------------------------------------
                1.14    1.41 878207613/7439821449     color(ray const&, hitable*, int) [2]
                3.97    4.89 3048783384/7439821449     hitable_list::hit(ray const&, float, float, hit_record&) const <cycle 1> [4]
                4.58    5.63 3512830452/7439821449     constant_medium::hit(ray const&, float, float, hit_record&) const <cycle 1> [21]
[27]     1.5    9.69   11.92 7439821449         hit_record::hit_record() [27]
               11.92    0.00 6289708306/11289507815     vec3::vec3() [29]
-----------------------------------------------
                0.00    0.00      20/10364007574     box::box(vec3 const&, vec3 const&, material*) [40]
                0.41    0.00 196522390/10364007574     xz_rect::hit(ray const&, float, float, hit_record&) const [10]
                3.85    0.00 1848783718/10364007574     xy_rect::hit(ray const&, float, float, hit_record&) const [8]
               17.30    0.00 8318701446/10364007574     yz_rect::hit(ray const&, float, float, hit_record&) const [6]
[28]     1.5   21.56    0.00 10364007574         vec3::z() const [28]
-----------------------------------------------
                0.00    0.00       4/11289507815     box::box(vec3 const&, vec3 const&, material*) [40]
                0.00    0.00       7/11289507815     camera::camera(vec3, vec3, vec3, float, float, float, float) [33]
                0.00    0.00     256/11289507815     perlin_generate() [56]
                0.30    0.00 160000000/11289507815     random_in_unit_disk() [35]
                1.36    0.00 718207613/11289507815     random_in_unit_sphere() [15]
                1.44    0.00 757602637/11289507815     color(ray const&, hitable*, int) [2]
                2.87    0.00 1515205274/11289507815     ray::ray() [38]
                3.51    0.00 1848783718/11289507815     ray::ray(vec3 const&, vec3 const&) [26]
               11.92    0.00 6289708306/11289507815     hit_record::hit_record() [27]
[29]     1.5   21.40    0.00 11289507815         vec3::vec3() [29]
-----------------------------------------------
               16.50    3.01 870512796/870512796     flip_normal::hit(ray const&, float, float, hit_record&) const [5]
[30]     1.4   16.50    3.01 870512796         vec3::operator-() const [30]
                3.01    0.00 870512796/12267672827     vec3::vec3(float, float, float) [20]
-----------------------------------------------
               10.04    2.49 718207613/718207613     color(ray const&, hitable*, int) [2]
[31]     0.9   10.04    2.49 718207613         operator*(vec3 const&, vec3 const&) [31]
                2.49    0.00 718207613/12267672827     vec3::vec3(float, float, float) [20]
-----------------------------------------------
                8.17    2.49 718226823/718226823     color(ray const&, hitable*, int) [2]
[32]     0.8    8.17    2.49 718226823         material::emitted(float, float, vec3 const&) const [32]
                2.49    0.00 718226823/12267672827     vec3::vec3(float, float, float) [20]
-----------------------------------------------
                0.03   10.34       1/1           main [1]
[33]     0.7    0.03   10.34       1         camera::camera(vec3, vec3, vec3, float, float, float, float) [33]
               10.19    0.00       1/1           std::tan(float) [34]
                0.14    0.00       2/2           cross(vec3 const&, vec3 const&) [60]
                0.00    0.00       3/259         unit_vector(vec3) [55]
                0.00    0.00       5/4050119186     operator*(float, vec3 const&) [16]
                0.00    0.00       4/4564371550     operator-(vec3 const&, vec3 const&) [17]
                0.00    0.00       7/11289507815     vec3::vec3() [29]
-----------------------------------------------
               10.19    0.00       1/1           camera::camera(vec3, vec3, vec3, float, float, float, float) [33]
[34]     0.7   10.19    0.00       1         std::tan(float) [34]
-----------------------------------------------
                1.75    7.87 160000000/160000000     camera::get_ray(float, float) [22]
[35]     0.7    1.75    7.87 160000000         random_in_unit_disk() [35]
                2.41    0.71 203720577/4050119186     operator*(float, vec3 const&) [16]
                2.52    0.04 203720577/4564371550     operator-(vec3 const&, vec3 const&) [17]
                1.41    0.00 407441154/12267672827     vec3::vec3(float, float, float) [20]
                0.49    0.00 203720577/1575396791     dot(vec3 const&, vec3 const&) [41]
                0.30    0.00 160000000/11289507815     vec3::vec3() [29]
-----------------------------------------------
                0.12    7.40       1/1           main [1]
[36]     0.5    0.12    7.40       1         cornell_smoke() [36]
                0.82    3.84       2/2           box::box(vec3 const&, vec3 const&, material*) [40]
                1.05    0.00       3/9           flip_normal::flip_normal(hitable*) [43]
                0.87    0.00       1/3           hitable_list::hitable_list(hitable**, int) [45]
                0.36    0.22       2/2           rotate_y::rotate_y(hitable*, float) [52]
                0.15    0.00       3/3           lambertian::lambertian(texture*) [59]
                0.00    0.09       2/2           constant_medium::constant_medium(hitable*, float, texture*) [62]
                0.01    0.00       1/1           diffuse_light::diffuse_light(texture*) [66]
                0.00    0.00      12/12267672827     vec3::vec3(float, float, float) [20]
                0.00    0.00       6/6           constant_texture::constant_texture(vec3) [77]
                0.00    0.00       3/7           xz_rect::xz_rect(float, float, float, float, float, material*) [76]
                0.00    0.00       2/6           yz_rect::yz_rect(float, float, float, float, float, material*) [79]
                0.00    0.00       2/2           translate::translate(hitable*, vec3 const&) [84]
                0.00    0.00       1/5           xy_rect::xy_rect(float, float, float, float, float, material*) [81]
-----------------------------------------------
                             2170575771             rotate_y::hit(ray const&, float, float, hit_record&) const <cycle 1> [7]
[37]     0.4    5.57    0.00 2170575771         box::hit(ray const&, float, float, hit_record&) const <cycle 1> [37]
                             2170575771             hitable_list::hit(ray const&, float, float, hit_record&) const <cycle 1> [4]
-----------------------------------------------
                2.55    2.87 757602637/757602637     color(ray const&, hitable*, int) [2]
[38]     0.4    2.55    2.87 757602637         ray::ray() [38]
                2.87    0.00 1515205274/11289507815     vec3::vec3() [29]
-----------------------------------------------
                3.92    1.11 320000000/320000000     camera::get_ray(float, float) [22]
[39]     0.4    3.92    1.11 320000000         operator*(vec3 const&, float) [39]
                1.11    0.00 320000000/12267672827     vec3::vec3(float, float, float) [20]
-----------------------------------------------
                0.82    3.84       2/2           cornell_smoke() [36]
[40]     0.3    0.82    3.84       2         box::box(vec3 const&, vec3 const&, material*) [40]
                2.11    0.00       6/9           flip_normal::flip_normal(hitable*) [43]
                1.73    0.00       2/3           hitable_list::hitable_list(hitable**, int) [45]
                0.00    0.00      20/11989058934     vec3::x() const [23]
                0.00    0.00      20/10364007574     vec3::z() const [28]
                0.00    0.00      20/21867653216     vec3::y() const [25]
                0.00    0.00       4/11289507815     vec3::vec3() [29]
                0.00    0.00       4/5           xy_rect::xy_rect(float, float, float, float, float, material*) [81]
                0.00    0.00       4/7           xz_rect::xz_rect(float, float, float, float, float, material*) [76]
                0.00    0.00       4/6           yz_rect::yz_rect(float, float, float, float, float, material*) [79]
                0.00    0.00       2/38          hitable::hitable() [75]
-----------------------------------------------
                0.49    0.00 203720577/1575396791     random_in_unit_disk() [35]
                3.27    0.00 1371676214/1575396791     random_in_unit_sphere() [15]
[41]     0.3    3.75    0.00 1575396791         dot(vec3 const&, vec3 const&) [41]
-----------------------------------------------
                                                 <spontaneous>
[42]     0.2    3.38    0.00                 refract(vec3 const&, vec3 const&, float, vec3&) [42]
-----------------------------------------------
                1.05    0.00       3/9           cornell_smoke() [36]
                2.11    0.00       6/9           box::box(vec3 const&, vec3 const&, material*) [40]
[43]     0.2    3.16    0.00       9         flip_normal::flip_normal(hitable*) [43]
                0.00    0.00       9/38          hitable::hitable() [75]
-----------------------------------------------
                0.51    0.00 160000000/988320959     main [1]
                2.62    0.00 828320959/988320959     translate::hit(ray const&, float, float, hit_record&) const <cycle 1> [12]
[44]     0.2    3.13    0.00 988320959         vec3::operator+=(vec3 const&) [44]
-----------------------------------------------
                0.87    0.00       1/3           cornell_smoke() [36]
                1.73    0.00       2/3           box::box(vec3 const&, vec3 const&, material*) [40]
[45]     0.2    2.60    0.00       3         hitable_list::hitable_list(hitable**, int) [45]
                0.00    0.00       3/38          hitable::hitable() [75]
-----------------------------------------------
                0.13    0.00 39375814/757583427     diffuse_light::emitted(float, float, vec3 const&) const [53]
                0.73    0.00 219808629/757583427     isotropic::scatter(ray const&, hit_record const&, vec3&, ray&) const [24]
                1.66    0.00 498398984/757583427     lambertian::scatter(ray const&, hit_record const&, vec3&, ray&) const [13]
[46]     0.2    2.53    0.00 757583427         constant_texture::value(float, float, vec3 const&) const [46]
-----------------------------------------------
                0.00    0.00     259/628626697     unit_vector(vec3) [55]
                1.65    0.68 628626438/628626697     constant_medium::hit(ray const&, float, float, hit_record&) const <cycle 1> [21]
[47]     0.2    1.65    0.68 628626697         vec3::length() const [47]
                0.68    0.00 628626697/629106697     std::sqrt(float) [48]
-----------------------------------------------
                0.00    0.00  480000/629106697     main [1]
                0.68    0.00 628626697/629106697     vec3::length() const [47]
[48]     0.0    0.68    0.00 629106697         std::sqrt(float) [48]
-----------------------------------------------
                0.00    0.58       1/1           __libc_csu_init [51]
[49]     0.0    0.00    0.58       1         _GLOBAL__sub_I__ZNK12hitable_list3hitERK3rayffR10hit_record [49]
                0.00    0.58       1/1           __static_initialization_and_destruction_0(int, int) [50]
-----------------------------------------------
                0.00    0.58       1/1           _GLOBAL__sub_I__ZNK12hitable_list3hitERK3rayffR10hit_record [49]
[50]     0.0    0.00    0.58       1         __static_initialization_and_destruction_0(int, int) [50]
                0.00    0.29       1/1           perlin_generate() [56]
                0.29    0.00       3/3           perlin_generate_perm() [57]
-----------------------------------------------
                                                 <spontaneous>
[51]     0.0    0.00    0.58                 __libc_csu_init [51]
                0.00    0.58       1/1           _GLOBAL__sub_I__ZNK12hitable_list3hitERK3rayffR10hit_record [49]
-----------------------------------------------
                0.36    0.22       2/2           cornell_smoke() [36]
[52]     0.0    0.36    0.22       2         rotate_y::rotate_y(hitable*, float) [52]
                0.22    0.00       2/2           std::sin(float) [58]
                0.00    0.00       2/38          hitable::hitable() [75]
                0.00    0.00       2/2           std::cos(float) [87]
-----------------------------------------------
                0.25    0.13 39375814/39375814     color(ray const&, hitable*, int) [2]
[53]     0.0    0.25    0.13 39375814         diffuse_light::emitted(float, float, vec3 const&) const [53]
                0.13    0.00 39375814/757583427     constant_texture::value(float, float, vec3 const&) const [46]
-----------------------------------------------
                                                 <spontaneous>
[54]     0.0    0.32    0.00                 frame_dummy [54]
-----------------------------------------------
                0.00    0.00       3/259         camera::camera(vec3, vec3, vec3, float, float, float, float) [33]
                0.24    0.05     256/259         perlin_generate() [56]
[55]     0.0    0.25    0.05     259         unit_vector(vec3) [55]
                0.05    0.00     259/259         operator/(vec3, float) [65]
                0.00    0.00     259/628626697     vec3::length() const [47]
-----------------------------------------------
                0.00    0.29       1/1           __static_initialization_and_destruction_0(int, int) [50]
[56]     0.0    0.00    0.29       1         perlin_generate() [56]
                0.24    0.05     256/259         unit_vector(vec3) [55]
                0.00    0.00     256/12267672827     vec3::vec3(float, float, float) [20]
                0.00    0.00     256/11289507815     vec3::vec3() [29]
-----------------------------------------------
                0.29    0.00       3/3           __static_initialization_and_destruction_0(int, int) [50]
[57]     0.0    0.29    0.00       3         perlin_generate_perm() [57]
                0.00    0.00       3/3           permute(int*, int) [82]
-----------------------------------------------
                0.22    0.00       2/2           rotate_y::rotate_y(hitable*, float) [52]
[58]     0.0    0.22    0.00       2         std::sin(float) [58]
-----------------------------------------------
                0.15    0.00       3/3           cornell_smoke() [36]
[59]     0.0    0.15    0.00       3         lambertian::lambertian(texture*) [59]
                0.00    0.00       3/6           material::material() [80]
-----------------------------------------------
                0.14    0.00       2/2           camera::camera(vec3, vec3, vec3, float, float, float, float) [33]
[60]     0.0    0.14    0.00       2         cross(vec3 const&, vec3 const&) [60]
                0.00    0.00       2/12267672827     vec3::vec3(float, float, float) [20]
-----------------------------------------------
                                                 <spontaneous>
[61]     0.0    0.10    0.00                 reflect(vec3 const&, vec3 const&) [61]
-----------------------------------------------
                0.00    0.09       2/2           cornell_smoke() [36]
[62]     0.0    0.00    0.09       2         constant_medium::constant_medium(hitable*, float, texture*) [62]
                0.09    0.00       2/2           isotropic::isotropic(texture*) [63]
                0.00    0.00       2/38          hitable::hitable() [75]
-----------------------------------------------
                0.09    0.00       2/2           constant_medium::constant_medium(hitable*, float, texture*) [62]
[63]     0.0    0.09    0.00       2         isotropic::isotropic(texture*) [63]
                0.00    0.00       2/6           material::material() [80]
-----------------------------------------------
                0.07    0.00 39374848/39374848     color(ray const&, hitable*, int) [2]
[64]     0.0    0.07    0.00 39374848         diffuse_light::scatter(ray const&, hit_record const&, vec3&, ray&) const [64]
-----------------------------------------------
                0.05    0.00     259/259         unit_vector(vec3) [55]
[65]     0.0    0.05    0.00     259         operator/(vec3, float) [65]
                0.00    0.00     259/12267672827     vec3::vec3(float, float, float) [20]
-----------------------------------------------
                0.01    0.00       1/1           cornell_smoke() [36]
[66]     0.0    0.01    0.00       1         diffuse_light::diffuse_light(texture*) [66]
                0.00    0.00       1/6           material::material() [80]
-----------------------------------------------
                0.00    0.00  480000/480000      main [1]
[72]     0.0    0.00    0.00  480000         int const& std::max<int>(int const&, int const&) [72]
-----------------------------------------------
                0.00    0.00  480000/480000      main [1]
[73]     0.0    0.00    0.00  480000         int const& std::min<int>(int const&, int const&) [73]
-----------------------------------------------
                0.00    0.00  160000/160000      main [1]
[74]     0.0    0.00    0.00  160000         vec3::operator/=(float) [74]
-----------------------------------------------
                0.00    0.00       2/38          box::box(vec3 const&, vec3 const&, material*) [40]
                0.00    0.00       2/38          rotate_y::rotate_y(hitable*, float) [52]
                0.00    0.00       2/38          translate::translate(hitable*, vec3 const&) [84]
                0.00    0.00       2/38          constant_medium::constant_medium(hitable*, float, texture*) [62]
                0.00    0.00       3/38          hitable_list::hitable_list(hitable**, int) [45]
                0.00    0.00       5/38          xy_rect::xy_rect(float, float, float, float, float, material*) [81]
                0.00    0.00       6/38          yz_rect::yz_rect(float, float, float, float, float, material*) [79]
                0.00    0.00       7/38          xz_rect::xz_rect(float, float, float, float, float, material*) [76]
                0.00    0.00       9/38          flip_normal::flip_normal(hitable*) [43]
[75]     0.0    0.00    0.00      38         hitable::hitable() [75]
-----------------------------------------------
                0.00    0.00       3/7           cornell_smoke() [36]
                0.00    0.00       4/7           box::box(vec3 const&, vec3 const&, material*) [40]
[76]     0.0    0.00    0.00       7         xz_rect::xz_rect(float, float, float, float, float, material*) [76]
                0.00    0.00       7/38          hitable::hitable() [75]
-----------------------------------------------
                0.00    0.00       6/6           cornell_smoke() [36]
[77]     0.0    0.00    0.00       6         constant_texture::constant_texture(vec3) [77]
                0.00    0.00       6/6           texture::texture() [78]
-----------------------------------------------
                0.00    0.00       6/6           constant_texture::constant_texture(vec3) [77]
[78]     0.0    0.00    0.00       6         texture::texture() [78]
-----------------------------------------------
                0.00    0.00       2/6           cornell_smoke() [36]
                0.00    0.00       4/6           box::box(vec3 const&, vec3 const&, material*) [40]
[79]     0.0    0.00    0.00       6         yz_rect::yz_rect(float, float, float, float, float, material*) [79]
                0.00    0.00       6/38          hitable::hitable() [75]
-----------------------------------------------
                0.00    0.00       1/6           diffuse_light::diffuse_light(texture*) [66]
                0.00    0.00       2/6           isotropic::isotropic(texture*) [63]
                0.00    0.00       3/6           lambertian::lambertian(texture*) [59]
[80]     0.0    0.00    0.00       6         material::material() [80]
-----------------------------------------------
                0.00    0.00       1/5           cornell_smoke() [36]
                0.00    0.00       4/5           box::box(vec3 const&, vec3 const&, material*) [40]
[81]     0.0    0.00    0.00       5         xy_rect::xy_rect(float, float, float, float, float, material*) [81]
                0.00    0.00       5/38          hitable::hitable() [75]
-----------------------------------------------
                0.00    0.00       3/3           perlin_generate_perm() [57]
[82]     0.0    0.00    0.00       3         permute(int*, int) [82]
-----------------------------------------------
                0.00    0.00       1/3           std::chrono::duration<double, std::ratio<1l, 1000l> > std::chrono::__duration_cast_impl<std::chrono::duration<double, std::ratio<1l, 1000l> >, std::ratio<1l, 1000000l>, double, true, false>::__cast<long, std::ratio<1l, 1000000000l> >(std::chrono::duration<long, std::ratio<1l, 1000000000l> > const&) [89]
                0.00    0.00       2/3           std::common_type<std::chrono::duration<long, std::ratio<1l, 1000000000l> >, std::chrono::duration<long, std::ratio<1l, 1000000000l> > >::type std::chrono::operator-<long, std::ratio<1l, 1000000000l>, long, std::ratio<1l, 1000000000l> >(std::chrono::duration<long, std::ratio<1l, 1000000000l> > const&, std::chrono::duration<long, std::ratio<1l, 1000000000l> > const&) [94]
[83]     0.0    0.00    0.00       3         std::chrono::duration<long, std::ratio<1l, 1000000000l> >::count() const [83]
-----------------------------------------------
                0.00    0.00       2/2           cornell_smoke() [36]
[84]     0.0    0.00    0.00       2         translate::translate(hitable*, vec3 const&) [84]
                0.00    0.00       2/38          hitable::hitable() [75]
-----------------------------------------------
                0.00    0.00       2/2           std::common_type<std::chrono::duration<long, std::ratio<1l, 1000000000l> >, std::chrono::duration<long, std::ratio<1l, 1000000000l> > >::type std::chrono::operator-<std::chrono::_V2::system_clock, std::chrono::duration<long, std::ratio<1l, 1000000000l> >, std::chrono::duration<long, std::ratio<1l, 1000000000l> > >(std::chrono::time_point<std::chrono::_V2::system_clock, std::chrono::duration<long, std::ratio<1l, 1000000000l> > > const&, std::chrono::time_point<std::chrono::_V2::system_clock, std::chrono::duration<long, std::ratio<1l, 1000000000l> > > const&) [93]
[85]     0.0    0.00    0.00       2         std::chrono::time_point<std::chrono::_V2::system_clock, std::chrono::duration<long, std::ratio<1l, 1000000000l> > >::time_since_epoch() const [85]
-----------------------------------------------
                0.00    0.00       1/2           main [1]
                0.00    0.00       1/2           std::chrono::duration<double, std::ratio<1l, 1000l> >::duration<long, std::ratio<1l, 1000000000l>, void>(std::chrono::duration<long, std::ratio<1l, 1000000000l> > const&) [91]
[86]     0.0    0.00    0.00       2         std::chrono::duration<double, std::ratio<1l, 1000l> >::count() const [86]
-----------------------------------------------
                0.00    0.00       2/2           rotate_y::rotate_y(hitable*, float) [52]
[87]     0.0    0.00    0.00       2         std::cos(float) [87]
-----------------------------------------------
                0.00    0.00       1/1           std::chrono::duration<double, std::ratio<1l, 1000l> >::duration<long, std::ratio<1l, 1000000000l>, void>(std::chrono::duration<long, std::ratio<1l, 1000000000l> > const&) [91]
[88]     0.0    0.00    0.00       1         std::enable_if<std::chrono::__is_duration<std::chrono::duration<double, std::ratio<1l, 1000l> > >::value, std::chrono::duration<double, std::ratio<1l, 1000l> > >::type std::chrono::duration_cast<std::chrono::duration<double, std::ratio<1l, 1000l> >, long, std::ratio<1l, 1000000000l> >(std::chrono::duration<long, std::ratio<1l, 1000000000l> > const&) [88]
                0.00    0.00       1/1           std::chrono::duration<double, std::ratio<1l, 1000l> > std::chrono::__duration_cast_impl<std::chrono::duration<double, std::ratio<1l, 1000l> >, std::ratio<1l, 1000000l>, double, true, false>::__cast<long, std::ratio<1l, 1000000000l> >(std::chrono::duration<long, std::ratio<1l, 1000000000l> > const&) [89]
-----------------------------------------------
                0.00    0.00       1/1           std::enable_if<std::chrono::__is_duration<std::chrono::duration<double, std::ratio<1l, 1000l> > >::value, std::chrono::duration<double, std::ratio<1l, 1000l> > >::type std::chrono::duration_cast<std::chrono::duration<double, std::ratio<1l, 1000l> >, long, std::ratio<1l, 1000000000l> >(std::chrono::duration<long, std::ratio<1l, 1000000000l> > const&) [88]
[89]     0.0    0.00    0.00       1         std::chrono::duration<double, std::ratio<1l, 1000l> > std::chrono::__duration_cast_impl<std::chrono::duration<double, std::ratio<1l, 1000l> >, std::ratio<1l, 1000000l>, double, true, false>::__cast<long, std::ratio<1l, 1000000000l> >(std::chrono::duration<long, std::ratio<1l, 1000000000l> > const&) [89]
                0.00    0.00       1/3           std::chrono::duration<long, std::ratio<1l, 1000000000l> >::count() const [83]
                0.00    0.00       1/1           std::chrono::duration<double, std::ratio<1l, 1000l> >::duration<double, void>(double const&) [90]
-----------------------------------------------
                0.00    0.00       1/1           std::chrono::duration<double, std::ratio<1l, 1000l> > std::chrono::__duration_cast_impl<std::chrono::duration<double, std::ratio<1l, 1000l> >, std::ratio<1l, 1000000l>, double, true, false>::__cast<long, std::ratio<1l, 1000000000l> >(std::chrono::duration<long, std::ratio<1l, 1000000000l> > const&) [89]
[90]     0.0    0.00    0.00       1         std::chrono::duration<double, std::ratio<1l, 1000l> >::duration<double, void>(double const&) [90]
-----------------------------------------------
                0.00    0.00       1/1           main [1]
[91]     0.0    0.00    0.00       1         std::chrono::duration<double, std::ratio<1l, 1000l> >::duration<long, std::ratio<1l, 1000000000l>, void>(std::chrono::duration<long, std::ratio<1l, 1000000000l> > const&) [91]
                0.00    0.00       1/1           std::enable_if<std::chrono::__is_duration<std::chrono::duration<double, std::ratio<1l, 1000l> > >::value, std::chrono::duration<double, std::ratio<1l, 1000l> > >::type std::chrono::duration_cast<std::chrono::duration<double, std::ratio<1l, 1000l> >, long, std::ratio<1l, 1000000000l> >(std::chrono::duration<long, std::ratio<1l, 1000000000l> > const&) [88]
                0.00    0.00       1/2           std::chrono::duration<double, std::ratio<1l, 1000l> >::count() const [86]
-----------------------------------------------
                0.00    0.00       1/1           std::common_type<std::chrono::duration<long, std::ratio<1l, 1000000000l> >, std::chrono::duration<long, std::ratio<1l, 1000000000l> > >::type std::chrono::operator-<long, std::ratio<1l, 1000000000l>, long, std::ratio<1l, 1000000000l> >(std::chrono::duration<long, std::ratio<1l, 1000000000l> > const&, std::chrono::duration<long, std::ratio<1l, 1000000000l> > const&) [94]
[92]     0.0    0.00    0.00       1         std::chrono::duration<long, std::ratio<1l, 1000000000l> >::duration<long, void>(long const&) [92]
-----------------------------------------------
                0.00    0.00       1/1           main [1]
[93]     0.0    0.00    0.00       1         std::common_type<std::chrono::duration<long, std::ratio<1l, 1000000000l> >, std::chrono::duration<long, std::ratio<1l, 1000000000l> > >::type std::chrono::operator-<std::chrono::_V2::system_clock, std::chrono::duration<long, std::ratio<1l, 1000000000l> >, std::chrono::duration<long, std::ratio<1l, 1000000000l> > >(std::chrono::time_point<std::chrono::_V2::system_clock, std::chrono::duration<long, std::ratio<1l, 1000000000l> > > const&, std::chrono::time_point<std::chrono::_V2::system_clock, std::chrono::duration<long, std::ratio<1l, 1000000000l> > > const&) [93]
                0.00    0.00       2/2           std::chrono::time_point<std::chrono::_V2::system_clock, std::chrono::duration<long, std::ratio<1l, 1000000000l> > >::time_since_epoch() const [85]
                0.00    0.00       1/1           std::common_type<std::chrono::duration<long, std::ratio<1l, 1000000000l> >, std::chrono::duration<long, std::ratio<1l, 1000000000l> > >::type std::chrono::operator-<long, std::ratio<1l, 1000000000l>, long, std::ratio<1l, 1000000000l> >(std::chrono::duration<long, std::ratio<1l, 1000000000l> > const&, std::chrono::duration<long, std::ratio<1l, 1000000000l> > const&) [94]
-----------------------------------------------
                0.00    0.00       1/1           std::common_type<std::chrono::duration<long, std::ratio<1l, 1000000000l> >, std::chrono::duration<long, std::ratio<1l, 1000000000l> > >::type std::chrono::operator-<std::chrono::_V2::system_clock, std::chrono::duration<long, std::ratio<1l, 1000000000l> >, std::chrono::duration<long, std::ratio<1l, 1000000000l> > >(std::chrono::time_point<std::chrono::_V2::system_clock, std::chrono::duration<long, std::ratio<1l, 1000000000l> > > const&, std::chrono::time_point<std::chrono::_V2::system_clock, std::chrono::duration<long, std::ratio<1l, 1000000000l> > > const&) [93]
[94]     0.0    0.00    0.00       1         std::common_type<std::chrono::duration<long, std::ratio<1l, 1000000000l> >, std::chrono::duration<long, std::ratio<1l, 1000000000l> > >::type std::chrono::operator-<long, std::ratio<1l, 1000000000l>, long, std::ratio<1l, 1000000000l> >(std::chrono::duration<long, std::ratio<1l, 1000000000l> > const&, std::chrono::duration<long, std::ratio<1l, 1000000000l> > const&) [94]
                0.00    0.00       2/3           std::chrono::duration<long, std::ratio<1l, 1000000000l> >::count() const [83]
                0.00    0.00       1/1           std::chrono::duration<long, std::ratio<1l, 1000000000l> >::duration<long, void>(long const&) [92]
-----------------------------------------------

 This table describes the call tree of the program, and was sorted by
 the total amount of time spent in each function and its children.

 Each entry in this table consists of several lines.  The line with the
 index number at the left hand margin lists the current function.
 The lines above it list the functions that called this function,
 and the lines below it list the functions this one called.
 This line lists:
     index	A unique number given to each element of the table.
		Index numbers are sorted numerically.
		The index number is printed next to every function name so
		it is easier to look up where the function is in the table.

     % time	This is the percentage of the `total' time that was spent
		in this function and its children.  Note that due to
		different viewpoints, functions excluded by options, etc,
		these numbers will NOT add up to 100%.

     self	This is the total amount of time spent in this function.

     children	This is the total amount of time propagated into this
		function by its children.

     called	This is the number of times the function was called.
		If the function called itself recursively, the number
		only includes non-recursive calls, and is followed by
		a `+' and the number of recursive calls.

     name	The name of the current function.  The index number is
		printed after it.  If the function is a member of a
		cycle, the cycle number is printed between the
		function's name and the index number.


 For the function's parents, the fields have the following meanings:

     self	This is the amount of time that was propagated directly
		from the function into this parent.

     children	This is the amount of time that was propagated from
		the function's children into this parent.

     called	This is the number of times this parent called the
		function `/' the total number of times the function
		was called.  Recursive calls to the function are not
		included in the number after the `/'.

     name	This is the name of the parent.  The parent's index
		number is printed after it.  If the parent is a
		member of a cycle, the cycle number is printed between
		the name and the index number.

 If the parents of the function cannot be determined, the word
 `<spontaneous>' is printed in the `name' field, and all the other
 fields are blank.

 For the function's children, the fields have the following meanings:

     self	This is the amount of time that was propagated directly
		from the child into the function.

     children	This is the amount of time that was propagated from the
		child's children to the function.

     called	This is the number of times the function called
		this child `/' the total number of times the child
		was called.  Recursive calls by the child are not
		listed in the number after the `/'.

     name	This is the name of the child.  The child's index
		number is printed after it.  If the child is a
		member of a cycle, the cycle number is printed
		between the name and the index number.

 If there are any cycles (circles) in the call graph, there is an
 entry for the cycle-as-a-whole.  This entry shows who called the
 cycle (as parents) and the members of the cycle (as children.)
 The `+' recursive calls entry shows the number of function calls that
 were internal to the cycle, and the calls entry for each member shows,
 for that member, how many times it was called from other members of
 the cycle.

Copyright (C) 2012-2018 Free Software Foundation, Inc.

Copying and distribution of this file, with or without modification,
are permitted in any medium without royalty provided the copyright
notice and this notice are preserved.

Index by function name

  [49] _GLOBAL__sub_I__ZNK12hitable_list3hitERK3rayffR10hit_record (main.cpp) [33] camera::camera(vec3, vec3, vec3, float, float, float, float) [7] rotate_y::hit(ray const&, float, float, hit_record&) const
  [55] unit_vector(vec3)      [75] hitable::hitable()     [24] isotropic::scatter(ray const&, hit_record const&, vec3&, ray&) const
  [36] cornell_smoke()        [78] texture::texture()     [12] translate::hit(ray const&, float, float, hit_record&) const
  [35] random_in_unit_disk()  [81] xy_rect::xy_rect(float, float, float, float, float, material*) [85] std::chrono::time_point<std::chrono::_V2::system_clock, std::chrono::duration<long, std::ratio<1l, 1000000000l> > >::time_since_epoch() const
  [15] random_in_unit_sphere() [76] xz_rect::xz_rect(float, float, float, float, float, material*) [86] std::chrono::duration<double, std::ratio<1l, 1000l> >::count() const
  [41] dot(vec3 const&, vec3 const&) [79] yz_rect::yz_rect(float, float, float, float, float, material*) [83] std::chrono::duration<long, std::ratio<1l, 1000000000l> >::count() const
  [50] __static_initialization_and_destruction_0(int, int) (main.cpp) [80] material::material() [88] std::enable_if<std::chrono::__is_duration<std::chrono::duration<double, std::ratio<1l, 1000l> > >::value, std::chrono::duration<double, std::ratio<1l, 1000l> > >::type std::chrono::duration_cast<std::chrono::duration<double, std::ratio<1l, 1000l> >, long, std::ratio<1l, 1000000000l> >(std::chrono::duration<long, std::ratio<1l, 1000000000l> > const&)
   [2] color(ray const&, hitable*, int) [52] rotate_y::rotate_y(hitable*, float) [89] std::chrono::duration<double, std::ratio<1l, 1000l> > std::chrono::__duration_cast_impl<std::chrono::duration<double, std::ratio<1l, 1000l> >, std::ratio<1l, 1000000l>, double, true, false>::__cast<long, std::ratio<1l, 1000000000l> >(std::chrono::duration<long, std::ratio<1l, 1000000000l> > const&)
  [60] cross(vec3 const&, vec3 const&) [63] isotropic::isotropic(texture*) [90] std::chrono::duration<double, std::ratio<1l, 1000l> >::duration<double, void>(double const&)
  [82] permute(int*, int)     [84] translate::translate(hitable*, vec3 const&) [91] std::chrono::duration<double, std::ratio<1l, 1000l> >::duration<long, std::ratio<1l, 1000000000l>, void>(std::chrono::duration<long, std::ratio<1l, 1000000000l> > const&)
  [61] reflect(vec3 const&, vec3 const&) [13] lambertian::scatter(ray const&, hit_record const&, vec3&, ray&) const [92] std::chrono::duration<long, std::ratio<1l, 1000000000l> >::duration<long, void>(long const&)
  [42] refract(vec3 const&, vec3 const&, float, vec3&) [5] flip_normal::hit(ray const&, float, float, hit_record&) const [93] std::common_type<std::chrono::duration<long, std::ratio<1l, 1000000000l> >, std::chrono::duration<long, std::ratio<1l, 1000000000l> > >::type std::chrono::operator-<std::chrono::_V2::system_clock, std::chrono::duration<long, std::ratio<1l, 1000000000l> >, std::chrono::duration<long, std::ratio<1l, 1000000000l> > >(std::chrono::time_point<std::chrono::_V2::system_clock, std::chrono::duration<long, std::ratio<1l, 1000000000l> > > const&, std::chrono::time_point<std::chrono::_V2::system_clock, std::chrono::duration<long, std::ratio<1l, 1000000000l> > > const&)
  [56] perlin_generate() (perlin.h) [4] hitable_list::hit(ray const&, float, float, hit_record&) const [94] std::common_type<std::chrono::duration<long, std::ratio<1l, 1000000000l> >, std::chrono::duration<long, std::ratio<1l, 1000000000l> > >::type std::chrono::operator-<long, std::ratio<1l, 1000000000l>, long, std::ratio<1l, 1000000000l> >(std::chrono::duration<long, std::ratio<1l, 1000000000l> > const&, std::chrono::duration<long, std::ratio<1l, 1000000000l> > const&)
  [57] perlin_generate_perm() (perlin.h) [53] diffuse_light::emitted(float, float, vec3 const&) const [87] std::cos(float)
  [27] hit_record::hit_record() [64] diffuse_light::scatter(ray const&, hit_record const&, vec3&, ray&) const [72] int const& std::max<int>(int const&, int const&)
  [59] lambertian::lambertian(texture*) [21] constant_medium::hit(ray const&, float, float, hit_record&) const [73] int const& std::min<int>(int const&, int const&)
  [43] flip_normal::flip_normal(hitable*) [46] constant_texture::value(float, float, vec3 const&) const [58] std::sin(float)
  [45] hitable_list::hitable_list(hitable**, int) [37] box::hit(ray const&, float, float, hit_record&) const [34] std::tan(float)
  [66] diffuse_light::diffuse_light(texture*) [14] ray::point_at_parameter(float) const [48] std::sqrt(float)
  [62] constant_medium::constant_medium(hitable*, float, texture*) [9] ray::origin() const [65] operator/(vec3, float)
  [77] constant_texture::constant_texture(vec3) [11] ray::direction() const [17] operator-(vec3 const&, vec3 const&)
  [40] box::box(vec3 const&, vec3 const&, material*) [23] vec3::x() const [31] operator*(vec3 const&, vec3 const&)
  [26] ray::ray(vec3 const&, vec3 const&) [25] vec3::y() const [39] operator*(vec3 const&, float)
  [38] ray::ray()             [28] vec3::z() const        [16] operator*(float, vec3 const&)
  [20] vec3::vec3(float, float, float) [47] vec3::length() const [18] operator+(vec3 const&, vec3 const&)
  [29] vec3::vec3()           [30] vec3::operator-() const [54] frame_dummy
  [74] vec3::operator/=(float) [8] xy_rect::hit(ray const&, float, float, hit_record&) const [1] main
  [19] vec3::operator[](int)  [10] xz_rect::hit(ray const&, float, float, hit_record&) const [3] <cycle 1>
  [44] vec3::operator+=(vec3 const&) [6] yz_rect::hit(ray const&, float, float, hit_record&) const
  [22] camera::get_ray(float, float) [32] material::emitted(float, float, vec3 const&) const
